%YAML 1.1
%TAG !u! tag:unity3d.com,2011:
--- !u!74 &7400000
AnimationClip:
  m_ObjectHideFlags: 0
  m_PrefabParentObject: {fileID: 0}
  m_PrefabInternal: {fileID: 0}
  m_Name: camera_rotate
  serializedVersion: 6
  m_Legacy: 0
  m_Compressed: 0
  m_UseHighQualityCurve: 1
  m_RotationCurves: []
  m_CompressedRotationCurves: []
  m_EulerCurves:
  - curve:
      serializedVersion: 2
      m_Curve:
      - time: 0
        value: {x: 0, y: -90, z: 0}
        inSlope: {x: 0, y: 0, z: 0}
        outSlope: {x: 0, y: 0, z: 0}
        tangentMode: 0
      - time: 0.5
        value: {x: 0, y: -90, z: 0}
        inSlope: {x: 0, y: 0, z: 0}
        outSlope: {x: 0, y: 0, z: 0}
        tangentMode: 0
      - time: 0.75
        value: {x: 0, y: -90, z: 0}
        inSlope: {x: 0, y: 0, z: 0}
        outSlope: {x: 0, y: 0, z: 0}
        tangentMode: 0
      - time: 0.8333333
        value: {x: -16.3853, y: -91.0616, z: 0.2995}
        inSlope: {x: -140.711, y: 0, z: 0}
        outSlope: {x: -140.711, y: 0, z: 0}
        tangentMode: 0
      - time: 1
        value: {x: -28.2545, y: -95.806496, z: 1.5662999}
        inSlope: {x: -32.371098, y: -30.263012, z: 0}
        outSlope: {x: -32.371098, y: -35.717678, z: 0}
        tangentMode: 0
      - time: 1.7833333
        value: {x: -39.475, y: -182.08505, z: 1.4324}
        inSlope: {x: 0, y: -140.67424, z: 0}
        outSlope: {x: 0, y: -128.75252, z: 0}
        tangentMode: 0
      - time: 3
        value: {x: 0, y: -350.9358, z: 0}
        inSlope: {x: 16.2226, y: -9.6912, z: -0.5886575}
        outSlope: {x: 16.2226, y: -1.5638779, z: -0.5886575}
        tangentMode: 0
      - time: 3.2333333
        value: {x: 0, y: -346.1598, z: 0}
        inSlope: {x: 0, y: 20.468575, z: 0}
        outSlope: {x: 0, y: 20.468575, z: 0}
        tangentMode: 0
      m_PreInfinity: 2
      m_PostInfinity: 2
      m_RotationOrder: 4
    path: 
  m_PositionCurves:
  - curve:
      serializedVersion: 2
      m_Curve:
      - time: 0
        value: {x: 101, y: 525, z: 324}
        inSlope: {x: 1.800003, y: 0, z: 0}
        outSlope: {x: 1.800003, y: 0, z: 0}
        tangentMode: 0
      - time: 0.5
        value: {x: 101.9, y: 525, z: 324}
        inSlope: {x: 0, y: 0, z: 0}
        outSlope: {x: 0, y: 0, z: 0}
        tangentMode: 0
      - time: 0.75
        value: {x: 101.9, y: 525, z: 324}
        inSlope: {x: 0, y: 0, z: 0}
        outSlope: {x: 0, y: 0, z: 0}
        tangentMode: 0
      m_PreInfinity: 2
      m_PostInfinity: 2
      m_RotationOrder: 4
    path: 
  m_ScaleCurves: []
  m_FloatCurves: []
  m_PPtrCurves: []
  m_SampleRate: 60
  m_WrapMode: 0
  m_Bounds:
    m_Center: {x: 0, y: 0, z: 0}
    m_Extent: {x: 0, y: 0, z: 0}
  m_ClipBindingConstant:
    genericBindings:
    - path: 0
      attribute: 1
      script: {fileID: 0}
      classID: 4
      customType: 0
      isPPtrCurve: 0
    - path: 0
      attribute: 4
      script: {fileID: 0}
      classID: 4
      customType: 14
      isPPtrCurve: 0
    pptrCurveMapping: []
  m_AnimationClipSettings:
    serializedVersion: 2
    m_AdditiveReferencePoseClip: {fileID: 0}
    m_AdditiveReferencePoseTime: 0
    m_StartTime: 0
    m_StopTime: 3.2333333
    m_OrientationOffsetY: 0
    m_Level: 0
    m_CycleOffset: 0
    m_HasAdditiveReferencePose: 0
    m_LoopTime: 0
    m_LoopBlend: 0
    m_LoopBlendOrientation: 0
    m_LoopBlendPositionY: 0
    m_LoopBlendPositionXZ: 0
    m_KeepOriginalOrientation: 0
    m_KeepOriginalPositionY: 1
    m_KeepOriginalPositionXZ: 0
    m_HeightFromFeet: 0
    m_Mirror: 0
  m_EditorCurves:
  - curve:
      serializedVersion: 2
      m_Curve:
      - time: 0
        value: 0
        inSlope: 0
        outSlope: 0
        tangentMode: 10
      - time: 0.5
        value: 0
        inSlope: 0
        outSlope: 0
        tangentMode: 0
      - time: 0.75
        value: 0
        inSlope: 0
        outSlope: 0
        tangentMode: 0
      - time: 0.8333333
        value: -16.3853
        inSlope: -140.711
        outSlope: -140.711
        tangentMode: 0
      - time: 1
        value: -28.2545
        inSlope: -32.371098
        outSlope: -32.371098
        tangentMode: 0
      - time: 1.7833333
        value: -39.475
        inSlope: 0
        outSlope: 0
        tangentMode: 0
      - time: 3
        value: 0
        inSlope: 16.2226
        outSlope: 16.2226
        tangentMode: 10
      - time: 3.2333333
        value: 0
        inSlope: 0
        outSlope: 0
        tangentMode: 10
      m_PreInfinity: 2
      m_PostInfinity: 2
      m_RotationOrder: 4
    attribute: localEulerAnglesRaw.x
    path: 
    classID: 4
    script: {fileID: 0}
  - curve:
      serializedVersion: 2
      m_Curve:
      - time: 0
        value: -90
        inSlope: 0
        outSlope: 0
        tangentMode: 10
      - time: 0.5
        value: -90
        inSlope: 0
        outSlope: 0
        tangentMode: 0
      - time: 0.75
        value: -90
        inSlope: 0
        outSlope: 0
        tangentMode: 0
      - time: 0.8333333
        value: -91.0616
        inSlope: 0
        outSlope: 0
        tangentMode: 1
      - time: 1
        value: -95.806496
        inSlope: -30.263012
        outSlope: -35.717678
        tangentMode: 1
      - time: 1.7833333
        value: -182.08505
        inSlope: -140.67424
        outSlope: -128.75252
        tangentMode: 1
      - time: 3
        value: -350.9358
        inSlope: -9.6912
        outSlope: -1.5638779
        tangentMode: 1
      - time: 3.2333333
        value: -346.1598
        inSlope: 20.468575
        outSlope: 20.468575
        tangentMode: 10
      m_PreInfinity: 2
      m_PostInfinity: 2
      m_RotationOrder: 4
    attribute: localEulerAnglesRaw.y
    path: 
    classID: 4
    script: {fileID: 0}
  - curve:
      serializedVersion: 2
      m_Curve:
      - time: 0
        value: 0
        inSlope: 0
        outSlope: 0
        tangentMode: 10
      - time: 0.5
        value: 0
        inSlope: 0
        outSlope: 0
        tangentMode: 0
      - time: 0.75
        value: 0
        inSlope: 0
        outSlope: 0
        tangentMode: 0
      - time: 0.8333333
        value: 0.2995
        inSlope: 0
        outSlope: 0
        tangentMode: 0
      - time: 1
        value: 1.5662999
        inSlope: 0
        outSlope: 0
        tangentMode: 0
      - time: 1.7833333
        value: 1.4324
        inSlope: 0
        outSlope: 0
        tangentMode: 0
      - time: 3
        value: 0
        inSlope: -0.5886575
        outSlope: -0.5886575
        tangentMode: 10
      - time: 3.2333333
        value: 0
        inSlope: 0
        outSlope: 0
        tangentMode: 10
      m_PreInfinity: 2
      m_PostInfinity: 2
      m_RotationOrder: 4
    attribute: localEulerAnglesRaw.z
    path: 
    classID: 4
    script: {fileID: 0}
  - curve:
      serializedVersion: 2
      m_Curve:
      - time: 0
        value: 101
        inSlope: 1.800003
        outSlope: 1.800003
        tangentMode: 10
      - time: 0.5
        value: 101.9
        inSlope: 0
        outSlope: 0
        tangentMode: 0
      - time: 0.75
        value: 101.9
        inSlope: 0
        outSlope: 0
        tangentMode: 0
      m_PreInfinity: 2
      m_PostInfinity: 2
      m_RotationOrder: 4
    attribute: m_LocalPosition.x
    path: 
    classID: 4
    script: {fileID: 0}
  - curve:
      serializedVersion: 2
      m_Curve:
      - time: 0
        value: 525
        inSlope: 0
        outSlope: 0
        tangentMode: 10
      - time: 0.5
        value: 525
        inSlope: 0
        outSlope: 0
        tangentMode: 0
      - time: 0.75
        value: 525
        inSlope: 0
        outSlope: 0
        tangentMode: 0
      m_PreInfinity: 2
      m_PostInfinity: 2
      m_RotationOrder: 4
    attribute: m_LocalPosition.y
    path: 
    classID: 4
    script: {fileID: 0}
  - curve:
      serializedVersion: 2
      m_Curve:
      - time: 0
        value: 324
        inSlope: 0
        outSlope: 0
        tangentMode: 10
      - time: 0.5
        value: 324
        inSlope: 0
        outSlope: 0
        tangentMode: 0
      - time: 0.75
        value: 324
        inSlope: 0
        outSlope: 0
        tangentMode: 0
      m_PreInfinity: 2
      m_PostInfinity: 2
      m_RotationOrder: 4
    attribute: m_LocalPosition.z
    path: 
    classID: 4
    script: {fileID: 0}
  m_EulerEditorCurves:
  - curve:
      serializedVersion: 2
      m_Curve: []
      m_PreInfinity: 2
      m_PostInfinity: 2
      m_RotationOrder: 4
    attribute: m_LocalEulerAngles.x
    path: 
    classID: 4
    script: {fileID: 0}
  - curve:
      serializedVersion: 2
      m_Curve: []
      m_PreInfinity: 2
      m_PostInfinity: 2
      m_RotationOrder: 4
    attribute: m_LocalEulerAngles.y
    path: 
    classID: 4
    script: {fileID: 0}
  - curve:
      serializedVersion: 2
      m_Curve: []
      m_PreInfinity: 2
      m_PostInfinity: 2
      m_RotationOrder: 4
    attribute: m_LocalEulerAngles.z
    path: 
    classID: 4
    script: {fileID: 0}
  m_HasGenericRootTransform: 1
  m_HasMotionFloatCurves: 0
  m_GenerateMotionCurves: 0
  m_Events: []
