%YAML 1.1
%TAG !u! tag:unity3d.com,2011:
--- !u!74 &7400000
AnimationClip:
  m_ObjectHideFlags: 0
  m_PrefabParentObject: {fileID: 0}
  m_PrefabInternal: {fileID: 0}
  m_Name: menu_characterSelection_open
  serializedVersion: 6
  m_Legacy: 0
  m_Compressed: 0
  m_UseHighQualityCurve: 1
  m_RotationCurves: []
  m_CompressedRotationCurves: []
  m_EulerCurves: []
  m_PositionCurves: []
  m_ScaleCurves: []
  m_FloatCurves:
  - curve:
      serializedVersion: 2
      m_Curve:
      - time: 0
        value: 0
        inSlope: 0
        outSlope: 0
        tangentMode: 0
      - time: 3
        value: 0
        inSlope: 0
        outSlope: 0
        tangentMode: 0
      - time: 3.6666667
        value: 1
        inSlope: 1.4999999
        outSlope: 1.4999999
        tangentMode: 10
      m_PreInfinity: 2
      m_PostInfinity: 2
      m_RotationOrder: 4
    attribute: m_Alpha
    path: 
    classID: 225
    script: {fileID: 0}
  - curve:
      serializedVersion: 2
      m_Curve:
      - time: 0
        value: 0.99999875
        inSlope: 0
        outSlope: 0
        tangentMode: 0
      - time: 3
        value: 0.99999875
        inSlope: 0
        outSlope: 0
        tangentMode: 0
      - time: 3.6666667
        value: 0
        inSlope: -1.499998
        outSlope: -1.499998
        tangentMode: 10
      m_PreInfinity: 2
      m_PostInfinity: 2
      m_RotationOrder: 4
    attribute: m_Pivot.x
    path: Panel/ButtonL
    classID: 224
    script: {fileID: 0}
  - curve:
      serializedVersion: 2
      m_Curve:
      - time: 0
        value: 0.49998736
        inSlope: 0
        outSlope: 0
        tangentMode: 10
      - time: 3
        value: 0.49998736
        inSlope: 0
        outSlope: 0
        tangentMode: 0
      m_PreInfinity: 2
      m_PostInfinity: 2
      m_RotationOrder: 4
    attribute: m_Pivot.y
    path: Panel/ButtonL
    classID: 224
    script: {fileID: 0}
  - curve:
      serializedVersion: 2
      m_Curve:
      - time: 0
        value: 0.0000006109476
        inSlope: 0
        outSlope: 0
        tangentMode: 10
      - time: 3
        value: 0.0000006109476
        inSlope: 0
        outSlope: 0
        tangentMode: 0
      - time: 3.6666667
        value: 1
        inSlope: 1.4999989
        outSlope: 1.4999989
        tangentMode: 10
      m_PreInfinity: 2
      m_PostInfinity: 2
      m_RotationOrder: 4
    attribute: m_Pivot.x
    path: Panel/ButtonR
    classID: 224
    script: {fileID: 0}
  - curve:
      serializedVersion: 2
      m_Curve:
      - time: 0
        value: 0.5
        inSlope: 0
        outSlope: 0
        tangentMode: 0
      - time: 3.6666667
        value: 0.5
        inSlope: 0
        outSlope: 0
        tangentMode: 10
      m_PreInfinity: 2
      m_PostInfinity: 2
      m_RotationOrder: 4
    attribute: m_Pivot.y
    path: Panel/ButtonR
    classID: 224
    script: {fileID: 0}
  - curve:
      serializedVersion: 2
      m_Curve:
      - time: 0
        value: 0.5
        inSlope: 0
        outSlope: 0
        tangentMode: 10
      - time: 3.6666667
        value: 0.5
        inSlope: 0
        outSlope: 0
        tangentMode: 10
      m_PreInfinity: 2
      m_PostInfinity: 2
      m_RotationOrder: 4
    attribute: m_Pivot.x
    path: Panel/Button_start
    classID: 224
    script: {fileID: 0}
  - curve:
      serializedVersion: 2
      m_Curve:
      - time: 0
        value: 0.99999297
        inSlope: 0.0000023444493
        outSlope: 0.0000023444493
        tangentMode: 10
      - time: 3
        value: 1
        inSlope: 0
        outSlope: 0
        tangentMode: 0
      - time: 3.6666667
        value: 0
        inSlope: -1.4999999
        outSlope: -1.4999999
        tangentMode: 10
      m_PreInfinity: 2
      m_PostInfinity: 2
      m_RotationOrder: 4
    attribute: m_Pivot.y
    path: Panel/Button_start
    classID: 224
    script: {fileID: 0}
  m_PPtrCurves: []
  m_SampleRate: 60
  m_WrapMode: 0
  m_Bounds:
    m_Center: {x: 0, y: 0, z: 0}
    m_Extent: {x: 0, y: 0, z: 0}
  m_ClipBindingConstant:
    genericBindings:
    - path: 0
      attribute: 1574349066
      script: {fileID: 0}
      classID: 225
      customType: 0
      isPPtrCurve: 0
    - path: 3180294077
      attribute: 3640387206
      script: {fileID: 0}
      classID: 224
      customType: 0
      isPPtrCurve: 0
    - path: 1199592158
      attribute: 3640387206
      script: {fileID: 0}
      classID: 224
      customType: 0
      isPPtrCurve: 0
    - path: 707494402
      attribute: 2952582672
      script: {fileID: 0}
      classID: 224
      customType: 0
      isPPtrCurve: 0
    - path: 3180294077
      attribute: 2952582672
      script: {fileID: 0}
      classID: 224
      customType: 0
      isPPtrCurve: 0
    - path: 1199592158
      attribute: 2952582672
      script: {fileID: 0}
      classID: 224
      customType: 0
      isPPtrCurve: 0
    - path: 707494402
      attribute: 3640387206
      script: {fileID: 0}
      classID: 224
      customType: 0
      isPPtrCurve: 0
    pptrCurveMapping: []
  m_AnimationClipSettings:
    serializedVersion: 2
    m_AdditiveReferencePoseClip: {fileID: 0}
    m_AdditiveReferencePoseTime: 0
    m_StartTime: 0
    m_StopTime: 3.6666667
    m_OrientationOffsetY: 0
    m_Level: 0
    m_CycleOffset: 0
    m_HasAdditiveReferencePose: 0
    m_LoopTime: 0
    m_LoopBlend: 0
    m_LoopBlendOrientation: 0
    m_LoopBlendPositionY: 0
    m_LoopBlendPositionXZ: 0
    m_KeepOriginalOrientation: 0
    m_KeepOriginalPositionY: 1
    m_KeepOriginalPositionXZ: 0
    m_HeightFromFeet: 0
    m_Mirror: 0
  m_EditorCurves:
  - curve:
      serializedVersion: 2
      m_Curve:
      - time: 0
        value: 0
        inSlope: 0
        outSlope: 0
        tangentMode: 0
      - time: 3
        value: 0
        inSlope: 0
        outSlope: 0
        tangentMode: 0
      - time: 3.6666667
        value: 1
        inSlope: 1.4999999
        outSlope: 1.4999999
        tangentMode: 10
      m_PreInfinity: 2
      m_PostInfinity: 2
      m_RotationOrder: 4
    attribute: m_Alpha
    path: 
    classID: 225
    script: {fileID: 0}
  - curve:
      serializedVersion: 2
      m_Curve:
      - time: 0
        value: 0.99999875
        inSlope: 0
        outSlope: 0
        tangentMode: 0
      - time: 3
        value: 0.99999875
        inSlope: 0
        outSlope: 0
        tangentMode: 0
      - time: 3.6666667
        value: 0
        inSlope: -1.499998
        outSlope: -1.499998
        tangentMode: 10
      m_PreInfinity: 2
      m_PostInfinity: 2
      m_RotationOrder: 4
    attribute: m_Pivot.x
    path: Panel/ButtonL
    classID: 224
    script: {fileID: 0}
  - curve:
      serializedVersion: 2
      m_Curve:
      - time: 0
        value: 0.49998736
        inSlope: 0
        outSlope: 0
        tangentMode: 10
      - time: 3
        value: 0.49998736
        inSlope: 0
        outSlope: 0
        tangentMode: 0
      m_PreInfinity: 2
      m_PostInfinity: 2
      m_RotationOrder: 4
    attribute: m_Pivot.y
    path: Panel/ButtonL
    classID: 224
    script: {fileID: 0}
  - curve:
      serializedVersion: 2
      m_Curve:
      - time: 0
        value: 0.0000006109476
        inSlope: 0
        outSlope: 0
        tangentMode: 10
      - time: 3
        value: 0.0000006109476
        inSlope: 0
        outSlope: 0
        tangentMode: 0
      - time: 3.6666667
        value: 1
        inSlope: 1.4999989
        outSlope: 1.4999989
        tangentMode: 10
      m_PreInfinity: 2
      m_PostInfinity: 2
      m_RotationOrder: 4
    attribute: m_Pivot.x
    path: Panel/ButtonR
    classID: 224
    script: {fileID: 0}
  - curve:
      serializedVersion: 2
      m_Curve:
      - time: 0
        value: 0.5
        inSlope: 0
        outSlope: 0
        tangentMode: 0
      - time: 3.6666667
        value: 0.5
        inSlope: 0
        outSlope: 0
        tangentMode: 10
      m_PreInfinity: 2
      m_PostInfinity: 2
      m_RotationOrder: 4
    attribute: m_Pivot.y
    path: Panel/ButtonR
    classID: 224
    script: {fileID: 0}
  - curve:
      serializedVersion: 2
      m_Curve:
      - time: 0
        value: 0.5
        inSlope: 0
        outSlope: 0
        tangentMode: 10
      - time: 3.6666667
        value: 0.5
        inSlope: 0
        outSlope: 0
        tangentMode: 10
      m_PreInfinity: 2
      m_PostInfinity: 2
      m_RotationOrder: 4
    attribute: m_Pivot.x
    path: Panel/Button_start
    classID: 224
    script: {fileID: 0}
  - curve:
      serializedVersion: 2
      m_Curve:
      - time: 0
        value: 0.99999297
        inSlope: 0.0000023444493
        outSlope: 0.0000023444493
        tangentMode: 10
      - time: 3
        value: 1
        inSlope: 0
        outSlope: 0
        tangentMode: 0
      - time: 3.6666667
        value: 0
        inSlope: -1.4999999
        outSlope: -1.4999999
        tangentMode: 10
      m_PreInfinity: 2
      m_PostInfinity: 2
      m_RotationOrder: 4
    attribute: m_Pivot.y
    path: Panel/Button_start
    classID: 224
    script: {fileID: 0}
  m_EulerEditorCurves: []
  m_HasGenericRootTransform: 0
  m_HasMotionFloatCurves: 0
  m_GenerateMotionCurves: 0
  m_Events: []
