%YAML 1.1
%TAG !u! tag:unity3d.com,2011:
--- !u!21 &2100000
Material:
  serializedVersion: 6
  m_ObjectHideFlags: 0
  m_PrefabParentObject: {fileID: 0}
  m_PrefabInternal: {fileID: 0}
  m_Name: fogplanes
  m_Shader: {fileID: 4800000, guid: 1d082c96eb627f8499fb6d24fb65442c, type: 3}
  m_ShaderKeywords: 
  m_LightmapFlags: 5
  m_CustomRenderQueue: -1
  stringTagMap: {}
  m_SavedProperties:
    serializedVersion: 2
    m_TexEnvs:
      data:
        first:
          name: _MainTex
        second:
          m_Texture: {fileID: 0}
          m_Scale: {x: 1, y: 1}
          m_Offset: {x: 0, y: 0}
      data:
        first:
          name: _alphamap
        second:
          m_Texture: {fileID: 2800000, guid: 752c89f4f9445734a9932644ad6f59dd, type: 3}
          m_Scale: {x: 1, y: 1}
          m_Offset: {x: 0, y: 0}
      data:
        first:
          name: _fogtile
        second:
          m_Texture: {fileID: 2800000, guid: 1209b80a796b8844395bbfa38c8f69cb, type: 3}
          m_Scale: {x: 2, y: 2}
          m_Offset: {x: 0, y: 0}
    m_Floats:
      data:
        first:
          name: _Cutoff
        second: 0.5
      data:
        first:
          name: _speed
        second: 0.88
    m_Colors:
      data:
        first:
          name: _Color
        second: {r: 0.8, g: 0.8, b: 0.8, a: 1}
      data:
        first:
          name: _fogcolor
        second: {r: 0.28546712, g: 0.2883904, b: 0.29411763, a: 1}
      data:
        first:
          name: _ambientcolor
        second: {r: 0.5588235, g: 0.5588235, b: 0.5588235, a: 1}
