%YAML 1.1
%TAG !u! tag:unity3d.com,2011:
--- !u!21 &2100000
Material:
  serializedVersion: 6
  m_ObjectHideFlags: 0
  m_PrefabParentObject: {fileID: 0}
  m_PrefabInternal: {fileID: 0}
  m_Name: skin1
  m_Shader: {fileID: 4800000, guid: b35a2abbdd5b15d4ca40103088758eac, type: 3}
  m_ShaderKeywords: 
  m_LightmapFlags: 5
  m_CustomRenderQueue: -1
  stringTagMap: {}
  m_SavedProperties:
    serializedVersion: 2
    m_TexEnvs:
      data:
        first:
          name: _MainTex
        second:
          m_Texture: {fileID: 2800000, guid: 8853c78e1e0c33740a98356d165ea16c, type: 3}
          m_Scale: {x: 1, y: 1}
          m_Offset: {x: 0, y: 0}
      data:
        first:
          name: _FalloffSampler
        second:
          m_Texture: {fileID: 2800000, guid: a1d5b2277eb3f6245900378e6fa97575, type: 3}
          m_Scale: {x: 1, y: 1}
          m_Offset: {x: 0, y: 0}
      data:
        first:
          name: _RimLightSampler
        second:
          m_Texture: {fileID: 2800000, guid: a18067604964b5a4d8fd5552ed0d789e, type: 3}
          m_Scale: {x: 1, y: 1}
          m_Offset: {x: 0, y: 0}
    m_Floats:
      data:
        first:
          name: _FalloffPower
        second: 1
      data:
        first:
          name: _EdgeThickness
        second: 0.5
    m_Colors:
      data:
        first:
          name: _Color
        second: {r: 1, g: 1, b: 1, a: 1}
      data:
        first:
          name: _ShadowColor
        second: {r: 0.8, g: 0.8, b: 1, a: 1}
