%YAML 1.1
%TAG !u! tag:unity3d.com,2011:
--- !u!1 &100700
GameObject:
  m_ObjectHideFlags: 1
  m_PrefabParentObject: {fileID: 0}
  m_PrefabInternal: {fileID: 100100000}
  serializedVersion: 4
  m_Component:
  - 4: {fileID: 409412}
  m_Layer: 0
  m_Name: R_toes
  m_TagString: Untagged
  m_Icon: {fileID: 0}
  m_NavMeshLayer: 0
  m_StaticEditorFlags: 0
  m_IsActive: 1
--- !u!1 &102320
GameObject:
  m_ObjectHideFlags: 1
  m_PrefabParentObject: {fileID: 0}
  m_PrefabInternal: {fileID: 100100000}
  serializedVersion: 4
  m_Component:
  - 4: {fileID: 440322}
  m_Layer: 0
  m_Name: BAckfoot
  m_TagString: Untagged
  m_Icon: {fileID: 0}
  m_NavMeshLayer: 0
  m_StaticEditorFlags: 0
  m_IsActive: 1
--- !u!1 &103158
GameObject:
  m_ObjectHideFlags: 1
  m_PrefabParentObject: {fileID: 0}
  m_PrefabInternal: {fileID: 100100000}
  serializedVersion: 4
  m_Component:
  - 4: {fileID: 491622}
  m_Layer: 0
  m_Name: R_arm
  m_TagString: Untagged
  m_Icon: {fileID: 0}
  m_NavMeshLayer: 0
  m_StaticEditorFlags: 0
  m_IsActive: 1
--- !u!1 &103794
GameObject:
  m_ObjectHideFlags: 1
  m_PrefabParentObject: {fileID: 0}
  m_PrefabInternal: {fileID: 100100000}
  serializedVersion: 4
  m_Component:
  - 4: {fileID: 469848}
  m_Layer: 0
  m_Name: Joint_2
  m_TagString: Untagged
  m_Icon: {fileID: 0}
  m_NavMeshLayer: 0
  m_StaticEditorFlags: 0
  m_IsActive: 1
--- !u!1 &105664
GameObject:
  m_ObjectHideFlags: 1
  m_PrefabParentObject: {fileID: 0}
  m_PrefabInternal: {fileID: 100100000}
  serializedVersion: 4
  m_Component:
  - 4: {fileID: 417716}
  m_Layer: 0
  m_Name: Joint_4_2
  m_TagString: Untagged
  m_Icon: {fileID: 0}
  m_NavMeshLayer: 0
  m_StaticEditorFlags: 0
  m_IsActive: 1
--- !u!1 &107462
GameObject:
  m_ObjectHideFlags: 1
  m_PrefabParentObject: {fileID: 0}
  m_PrefabInternal: {fileID: 100100000}
  serializedVersion: 4
  m_Component:
  - 4: {fileID: 446040}
  m_Layer: 0
  m_Name: Joint_1_2
  m_TagString: Untagged
  m_Icon: {fileID: 0}
  m_NavMeshLayer: 0
  m_StaticEditorFlags: 0
  m_IsActive: 1
--- !u!1 &112492
GameObject:
  m_ObjectHideFlags: 1
  m_PrefabParentObject: {fileID: 0}
  m_PrefabInternal: {fileID: 100100000}
  serializedVersion: 4
  m_Component:
  - 4: {fileID: 473170}
  m_Layer: 0
  m_Name: Joint_3_2
  m_TagString: Untagged
  m_Icon: {fileID: 0}
  m_NavMeshLayer: 0
  m_StaticEditorFlags: 0
  m_IsActive: 1
--- !u!1 &113290
GameObject:
  m_ObjectHideFlags: 1
  m_PrefabParentObject: {fileID: 0}
  m_PrefabInternal: {fileID: 100100000}
  serializedVersion: 4
  m_Component:
  - 4: {fileID: 493244}
  m_Layer: 0
  m_Name: Joint_2_4
  m_TagString: Untagged
  m_Icon: {fileID: 0}
  m_NavMeshLayer: 0
  m_StaticEditorFlags: 0
  m_IsActive: 1
--- !u!1 &115596
GameObject:
  m_ObjectHideFlags: 1
  m_PrefabParentObject: {fileID: 0}
  m_PrefabInternal: {fileID: 100100000}
  serializedVersion: 4
  m_Component:
  - 4: {fileID: 456470}
  m_Layer: 0
  m_Name: BAcktoes
  m_TagString: Untagged
  m_Icon: {fileID: 0}
  m_NavMeshLayer: 0
  m_StaticEditorFlags: 0
  m_IsActive: 1
--- !u!1 &118830
GameObject:
  m_ObjectHideFlags: 1
  m_PrefabParentObject: {fileID: 0}
  m_PrefabInternal: {fileID: 100100000}
  serializedVersion: 4
  m_Component:
  - 4: {fileID: 485072}
  m_Layer: 0
  m_Name: Joint_7_2
  m_TagString: Untagged
  m_Icon: {fileID: 0}
  m_NavMeshLayer: 0
  m_StaticEditorFlags: 0
  m_IsActive: 1
--- !u!1 &120322
GameObject:
  m_ObjectHideFlags: 1
  m_PrefabParentObject: {fileID: 0}
  m_PrefabInternal: {fileID: 100100000}
  serializedVersion: 4
  m_Component:
  - 4: {fileID: 457176}
  - 108: {fileID: 10881276}
  m_Layer: 0
  m_Name: Point light (3)
  m_TagString: Untagged
  m_Icon: {fileID: 0}
  m_NavMeshLayer: 0
  m_StaticEditorFlags: 0
  m_IsActive: 1
--- !u!1 &122702
GameObject:
  m_ObjectHideFlags: 0
  m_PrefabParentObject: {fileID: 0}
  m_PrefabInternal: {fileID: 100100000}
  serializedVersion: 4
  m_Component:
  - 4: {fileID: 463680}
  m_Layer: 0
  m_Name: hips
  m_TagString: Untagged
  m_Icon: {fileID: 0}
  m_NavMeshLayer: 0
  m_StaticEditorFlags: 0
  m_IsActive: 1
--- !u!1 &123128
GameObject:
  m_ObjectHideFlags: 1
  m_PrefabParentObject: {fileID: 0}
  m_PrefabInternal: {fileID: 100100000}
  serializedVersion: 4
  m_Component:
  - 4: {fileID: 400522}
  m_Layer: 0
  m_Name: L_arm
  m_TagString: Untagged
  m_Icon: {fileID: 0}
  m_NavMeshLayer: 0
  m_StaticEditorFlags: 0
  m_IsActive: 1
--- !u!1 &125760
GameObject:
  m_ObjectHideFlags: 1
  m_PrefabParentObject: {fileID: 0}
  m_PrefabInternal: {fileID: 100100000}
  serializedVersion: 4
  m_Component:
  - 4: {fileID: 484670}
  - 108: {fileID: 10836572}
  m_Layer: 0
  m_Name: Point light (2)
  m_TagString: Untagged
  m_Icon: {fileID: 0}
  m_NavMeshLayer: 0
  m_StaticEditorFlags: 0
  m_IsActive: 1
--- !u!1 &125800
GameObject:
  m_ObjectHideFlags: 1
  m_PrefabParentObject: {fileID: 0}
  m_PrefabInternal: {fileID: 100100000}
  serializedVersion: 4
  m_Component:
  - 4: {fileID: 402892}
  m_Layer: 0
  m_Name: R_leg
  m_TagString: Untagged
  m_Icon: {fileID: 0}
  m_NavMeshLayer: 0
  m_StaticEditorFlags: 0
  m_IsActive: 1
--- !u!1 &126396
GameObject:
  m_ObjectHideFlags: 1
  m_PrefabParentObject: {fileID: 0}
  m_PrefabInternal: {fileID: 100100000}
  serializedVersion: 4
  m_Component:
  - 4: {fileID: 400364}
  m_Layer: 0
  m_Name: Joint_3
  m_TagString: Untagged
  m_Icon: {fileID: 0}
  m_NavMeshLayer: 0
  m_StaticEditorFlags: 0
  m_IsActive: 1
--- !u!1 &127472
GameObject:
  m_ObjectHideFlags: 1
  m_PrefabParentObject: {fileID: 0}
  m_PrefabInternal: {fileID: 100100000}
  serializedVersion: 4
  m_Component:
  - 4: {fileID: 478686}
  m_Layer: 0
  m_Name: Joint_1
  m_TagString: Untagged
  m_Icon: {fileID: 0}
  m_NavMeshLayer: 0
  m_StaticEditorFlags: 0
  m_IsActive: 1
--- !u!1 &129876
GameObject:
  m_ObjectHideFlags: 1
  m_PrefabParentObject: {fileID: 0}
  m_PrefabInternal: {fileID: 100100000}
  serializedVersion: 4
  m_Component:
  - 4: {fileID: 448638}
  m_Layer: 0
  m_Name: R_knee
  m_TagString: Untagged
  m_Icon: {fileID: 0}
  m_NavMeshLayer: 0
  m_StaticEditorFlags: 0
  m_IsActive: 1
--- !u!1 &133476
GameObject:
  m_ObjectHideFlags: 1
  m_PrefabParentObject: {fileID: 0}
  m_PrefabInternal: {fileID: 100100000}
  serializedVersion: 4
  m_Component:
  - 4: {fileID: 432372}
  m_Layer: 0
  m_Name: L_toes
  m_TagString: Untagged
  m_Icon: {fileID: 0}
  m_NavMeshLayer: 0
  m_StaticEditorFlags: 0
  m_IsActive: 1
--- !u!1 &134160
GameObject:
  m_ObjectHideFlags: 1
  m_PrefabParentObject: {fileID: 0}
  m_PrefabInternal: {fileID: 100100000}
  serializedVersion: 4
  m_Component:
  - 4: {fileID: 455016}
  m_Layer: 0
  m_Name: Joint_2_3
  m_TagString: Untagged
  m_Icon: {fileID: 0}
  m_NavMeshLayer: 0
  m_StaticEditorFlags: 0
  m_IsActive: 1
--- !u!1 &135106
GameObject:
  m_ObjectHideFlags: 1
  m_PrefabParentObject: {fileID: 0}
  m_PrefabInternal: {fileID: 100100000}
  serializedVersion: 4
  m_Component:
  - 4: {fileID: 492612}
  - 33: {fileID: 3313618}
  - 23: {fileID: 2355724}
  m_Layer: 0
  m_Name: lightbeam (2)
  m_TagString: Untagged
  m_Icon: {fileID: 0}
  m_NavMeshLayer: 0
  m_StaticEditorFlags: 0
  m_IsActive: 1
--- !u!1 &136972
GameObject:
  m_ObjectHideFlags: 1
  m_PrefabParentObject: {fileID: 0}
  m_PrefabInternal: {fileID: 100100000}
  serializedVersion: 4
  m_Component:
  - 4: {fileID: 413454}
  - 33: {fileID: 3353276}
  - 23: {fileID: 2397780}
  m_Layer: 0
  m_Name: lightbeam
  m_TagString: Untagged
  m_Icon: {fileID: 0}
  m_NavMeshLayer: 0
  m_StaticEditorFlags: 0
  m_IsActive: 1
--- !u!1 &140162
GameObject:
  m_ObjectHideFlags: 1
  m_PrefabParentObject: {fileID: 0}
  m_PrefabInternal: {fileID: 100100000}
  serializedVersion: 4
  m_Component:
  - 4: {fileID: 400810}
  m_Layer: 0
  m_Name: Joint_7
  m_TagString: Untagged
  m_Icon: {fileID: 0}
  m_NavMeshLayer: 0
  m_StaticEditorFlags: 0
  m_IsActive: 1
--- !u!1 &141144
GameObject:
  m_ObjectHideFlags: 1
  m_PrefabParentObject: {fileID: 0}
  m_PrefabInternal: {fileID: 100100000}
  serializedVersion: 4
  m_Component:
  - 4: {fileID: 465046}
  m_Layer: 0
  m_Name: R_foot_2
  m_TagString: Untagged
  m_Icon: {fileID: 0}
  m_NavMeshLayer: 0
  m_StaticEditorFlags: 0
  m_IsActive: 1
--- !u!1 &143582
GameObject:
  m_ObjectHideFlags: 1
  m_PrefabParentObject: {fileID: 0}
  m_PrefabInternal: {fileID: 100100000}
  serializedVersion: 4
  m_Component:
  - 4: {fileID: 409264}
  m_Layer: 0
  m_Name: L_wrist
  m_TagString: Untagged
  m_Icon: {fileID: 0}
  m_NavMeshLayer: 0
  m_StaticEditorFlags: 0
  m_IsActive: 1
--- !u!1 &144768
GameObject:
  m_ObjectHideFlags: 1
  m_PrefabParentObject: {fileID: 0}
  m_PrefabInternal: {fileID: 100100000}
  serializedVersion: 4
  m_Component:
  - 4: {fileID: 425370}
  m_Layer: 0
  m_Name: L_hand
  m_TagString: Untagged
  m_Icon: {fileID: 0}
  m_NavMeshLayer: 0
  m_StaticEditorFlags: 0
  m_IsActive: 1
--- !u!1 &146786
GameObject:
  m_ObjectHideFlags: 0
  m_PrefabParentObject: {fileID: 0}
  m_PrefabInternal: {fileID: 100100000}
  serializedVersion: 4
  m_Component:
  - 4: {fileID: 429472}
  - 95: {fileID: 9592138}
  m_Layer: 0
  m_Name: tripodprefab
  m_TagString: Untagged
  m_Icon: {fileID: 0}
  m_NavMeshLayer: 0
  m_StaticEditorFlags: 0
  m_IsActive: 1
--- !u!1 &147148
GameObject:
  m_ObjectHideFlags: 1
  m_PrefabParentObject: {fileID: 0}
  m_PrefabInternal: {fileID: 100100000}
  serializedVersion: 4
  m_Component:
  - 4: {fileID: 489238}
  m_Layer: 0
  m_Name: L_ankle
  m_TagString: Untagged
  m_Icon: {fileID: 0}
  m_NavMeshLayer: 0
  m_StaticEditorFlags: 0
  m_IsActive: 1
--- !u!1 &147284
GameObject:
  m_ObjectHideFlags: 1
  m_PrefabParentObject: {fileID: 0}
  m_PrefabInternal: {fileID: 100100000}
  serializedVersion: 4
  m_Component:
  - 4: {fileID: 408458}
  m_Layer: 0
  m_Name: Joint_5_2
  m_TagString: Untagged
  m_Icon: {fileID: 0}
  m_NavMeshLayer: 0
  m_StaticEditorFlags: 0
  m_IsActive: 1
--- !u!1 &151502
GameObject:
  m_ObjectHideFlags: 1
  m_PrefabParentObject: {fileID: 0}
  m_PrefabInternal: {fileID: 100100000}
  serializedVersion: 4
  m_Component:
  - 4: {fileID: 420364}
  - 108: {fileID: 10842936}
  m_Layer: 0
  m_Name: Point light (1)
  m_TagString: Untagged
  m_Icon: {fileID: 0}
  m_NavMeshLayer: 0
  m_StaticEditorFlags: 0
  m_IsActive: 1
--- !u!1 &158298
GameObject:
  m_ObjectHideFlags: 1
  m_PrefabParentObject: {fileID: 0}
  m_PrefabInternal: {fileID: 100100000}
  serializedVersion: 4
  m_Component:
  - 4: {fileID: 483614}
  m_Layer: 0
  m_Name: R_wrist
  m_TagString: Untagged
  m_Icon: {fileID: 0}
  m_NavMeshLayer: 0
  m_StaticEditorFlags: 0
  m_IsActive: 1
--- !u!1 &158652
GameObject:
  m_ObjectHideFlags: 1
  m_PrefabParentObject: {fileID: 0}
  m_PrefabInternal: {fileID: 100100000}
  serializedVersion: 4
  m_Component:
  - 4: {fileID: 482746}
  m_Layer: 0
  m_Name: Joint_2_5
  m_TagString: Untagged
  m_Icon: {fileID: 0}
  m_NavMeshLayer: 0
  m_StaticEditorFlags: 0
  m_IsActive: 1
--- !u!1 &160032
GameObject:
  m_ObjectHideFlags: 1
  m_PrefabParentObject: {fileID: 0}
  m_PrefabInternal: {fileID: 100100000}
  serializedVersion: 4
  m_Component:
  - 4: {fileID: 491462}
  m_Layer: 0
  m_Name: Joint_1_3
  m_TagString: Untagged
  m_Icon: {fileID: 0}
  m_NavMeshLayer: 0
  m_StaticEditorFlags: 0
  m_IsActive: 1
--- !u!1 &162318
GameObject:
  m_ObjectHideFlags: 1
  m_PrefabParentObject: {fileID: 0}
  m_PrefabInternal: {fileID: 100100000}
  serializedVersion: 4
  m_Component:
  - 4: {fileID: 494828}
  m_Layer: 0
  m_Name: L_foot_2
  m_TagString: Untagged
  m_Icon: {fileID: 0}
  m_NavMeshLayer: 0
  m_StaticEditorFlags: 0
  m_IsActive: 1
--- !u!1 &162656
GameObject:
  m_ObjectHideFlags: 1
  m_PrefabParentObject: {fileID: 0}
  m_PrefabInternal: {fileID: 100100000}
  serializedVersion: 4
  m_Component:
  - 4: {fileID: 455140}
  m_Layer: 0
  m_Name: Joint_5
  m_TagString: Untagged
  m_Icon: {fileID: 0}
  m_NavMeshLayer: 0
  m_StaticEditorFlags: 0
  m_IsActive: 1
--- !u!1 &166294
GameObject:
  m_ObjectHideFlags: 1
  m_PrefabParentObject: {fileID: 0}
  m_PrefabInternal: {fileID: 100100000}
  serializedVersion: 4
  m_Component:
  - 4: {fileID: 431502}
  m_Layer: 0
  m_Name: spine
  m_TagString: Untagged
  m_Icon: {fileID: 0}
  m_NavMeshLayer: 0
  m_StaticEditorFlags: 0
  m_IsActive: 1
--- !u!1 &167730
GameObject:
  m_ObjectHideFlags: 1
  m_PrefabParentObject: {fileID: 0}
  m_PrefabInternal: {fileID: 100100000}
  serializedVersion: 4
  m_Component:
  - 4: {fileID: 467694}
  m_Layer: 0
  m_Name: Joint_5_3
  m_TagString: Untagged
  m_Icon: {fileID: 0}
  m_NavMeshLayer: 0
  m_StaticEditorFlags: 0
  m_IsActive: 1
--- !u!1 &171228
GameObject:
  m_ObjectHideFlags: 1
  m_PrefabParentObject: {fileID: 0}
  m_PrefabInternal: {fileID: 100100000}
  serializedVersion: 4
  m_Component:
  - 4: {fileID: 449506}
  - 82: {fileID: 8224652}
  m_Layer: 0
  m_Name: head
  m_TagString: Untagged
  m_Icon: {fileID: 0}
  m_NavMeshLayer: 0
  m_StaticEditorFlags: 0
  m_IsActive: 1
--- !u!1 &173918
GameObject:
  m_ObjectHideFlags: 1
  m_PrefabParentObject: {fileID: 0}
  m_PrefabInternal: {fileID: 100100000}
  serializedVersion: 4
  m_Component:
  - 4: {fileID: 433250}
  m_Layer: 0
  m_Name: Joint_1_5
  m_TagString: Untagged
  m_Icon: {fileID: 0}
  m_NavMeshLayer: 0
  m_StaticEditorFlags: 0
  m_IsActive: 1
--- !u!1 &175032
GameObject:
  m_ObjectHideFlags: 1
  m_PrefabParentObject: {fileID: 0}
  m_PrefabInternal: {fileID: 100100000}
  serializedVersion: 4
  m_Component:
  - 4: {fileID: 480902}
  - 33: {fileID: 3341654}
  - 23: {fileID: 2385956}
  m_Layer: 0
  m_Name: lightbeam (1)
  m_TagString: Untagged
  m_Icon: {fileID: 0}
  m_NavMeshLayer: 0
  m_StaticEditorFlags: 0
  m_IsActive: 1
--- !u!1 &176454
GameObject:
  m_ObjectHideFlags: 1
  m_PrefabParentObject: {fileID: 0}
  m_PrefabInternal: {fileID: 100100000}
  serializedVersion: 4
  m_Component:
  - 4: {fileID: 427484}
  m_Layer: 0
  m_Name: R_ankle
  m_TagString: Untagged
  m_Icon: {fileID: 0}
  m_NavMeshLayer: 0
  m_StaticEditorFlags: 0
  m_IsActive: 1
--- !u!1 &179802
GameObject:
  m_ObjectHideFlags: 1
  m_PrefabParentObject: {fileID: 0}
  m_PrefabInternal: {fileID: 100100000}
  serializedVersion: 4
  m_Component:
  - 4: {fileID: 411682}
  m_Layer: 0
  m_Name: L_knee
  m_TagString: Untagged
  m_Icon: {fileID: 0}
  m_NavMeshLayer: 0
  m_StaticEditorFlags: 0
  m_IsActive: 1
--- !u!1 &180656
GameObject:
  m_ObjectHideFlags: 1
  m_PrefabParentObject: {fileID: 0}
  m_PrefabInternal: {fileID: 100100000}
  serializedVersion: 4
  m_Component:
  - 4: {fileID: 457140}
  m_Layer: 0
  m_Name: Joint_1_4
  m_TagString: Untagged
  m_Icon: {fileID: 0}
  m_NavMeshLayer: 0
  m_StaticEditorFlags: 0
  m_IsActive: 1
--- !u!1 &185322
GameObject:
  m_ObjectHideFlags: 1
  m_PrefabParentObject: {fileID: 0}
  m_PrefabInternal: {fileID: 100100000}
  serializedVersion: 4
  m_Component:
  - 4: {fileID: 476426}
  m_Layer: 0
  m_Name: Joint_4_4
  m_TagString: Untagged
  m_Icon: {fileID: 0}
  m_NavMeshLayer: 0
  m_StaticEditorFlags: 0
  m_IsActive: 1
--- !u!1 &187080
GameObject:
  m_ObjectHideFlags: 1
  m_PrefabParentObject: {fileID: 0}
  m_PrefabInternal: {fileID: 100100000}
  serializedVersion: 4
  m_Component:
  - 4: {fileID: 422288}
  m_Layer: 0
  m_Name: Joint_4
  m_TagString: Untagged
  m_Icon: {fileID: 0}
  m_NavMeshLayer: 0
  m_StaticEditorFlags: 0
  m_IsActive: 1
--- !u!1 &187608
GameObject:
  m_ObjectHideFlags: 1
  m_PrefabParentObject: {fileID: 0}
  m_PrefabInternal: {fileID: 100100000}
  serializedVersion: 4
  m_Component:
  - 4: {fileID: 464920}
  m_Layer: 0
  m_Name: Joint_5_4
  m_TagString: Untagged
  m_Icon: {fileID: 0}
  m_NavMeshLayer: 0
  m_StaticEditorFlags: 0
  m_IsActive: 1
--- !u!1 &189506
GameObject:
  m_ObjectHideFlags: 1
  m_PrefabParentObject: {fileID: 0}
  m_PrefabInternal: {fileID: 100100000}
  serializedVersion: 4
  m_Component:
  - 4: {fileID: 460840}
  m_Layer: 0
  m_Name: Joint_4_3
  m_TagString: Untagged
  m_Icon: {fileID: 0}
  m_NavMeshLayer: 0
  m_StaticEditorFlags: 0
  m_IsActive: 1
--- !u!1 &190218
GameObject:
  m_ObjectHideFlags: 1
  m_PrefabParentObject: {fileID: 0}
  m_PrefabInternal: {fileID: 100100000}
  serializedVersion: 4
  m_Component:
  - 4: {fileID: 408236}
  m_Layer: 0
  m_Name: Joint_3_3
  m_TagString: Untagged
  m_Icon: {fileID: 0}
  m_NavMeshLayer: 0
  m_StaticEditorFlags: 0
  m_IsActive: 1
--- !u!1 &190304
GameObject:
  m_ObjectHideFlags: 1
  m_PrefabParentObject: {fileID: 0}
  m_PrefabInternal: {fileID: 100100000}
  serializedVersion: 4
  m_Component:
  - 4: {fileID: 490184}
  m_Layer: 0
  m_Name: R_hand
  m_TagString: Untagged
  m_Icon: {fileID: 0}
  m_NavMeshLayer: 0
  m_StaticEditorFlags: 0
  m_IsActive: 1
--- !u!1 &194436
GameObject:
  m_ObjectHideFlags: 1
  m_PrefabParentObject: {fileID: 0}
  m_PrefabInternal: {fileID: 100100000}
  serializedVersion: 4
  m_Component:
  - 4: {fileID: 412122}
  m_Layer: 0
  m_Name: L_leg
  m_TagString: Untagged
  m_Icon: {fileID: 0}
  m_NavMeshLayer: 0
  m_StaticEditorFlags: 0
  m_IsActive: 1
--- !u!1 &195816
GameObject:
  m_ObjectHideFlags: 1
  m_PrefabParentObject: {fileID: 0}
  m_PrefabInternal: {fileID: 100100000}
  serializedVersion: 4
  m_Component:
  - 4: {fileID: 435414}
  m_Layer: 0
  m_Name: Joint_2_2
  m_TagString: Untagged
  m_Icon: {fileID: 0}
  m_NavMeshLayer: 0
  m_StaticEditorFlags: 0
  m_IsActive: 1
--- !u!1 &195948
GameObject:
  m_ObjectHideFlags: 0
  m_PrefabParentObject: {fileID: 0}
  m_PrefabInternal: {fileID: 100100000}
  serializedVersion: 4
  m_Component:
  - 4: {fileID: 490444}
  - 137: {fileID: 13744340}
  m_Layer: 0
  m_Name: mesh
  m_TagString: Untagged
  m_Icon: {fileID: 0}
  m_NavMeshLayer: 0
  m_StaticEditorFlags: 0
  m_IsActive: 1
--- !u!1 &196340
GameObject:
  m_ObjectHideFlags: 1
  m_PrefabParentObject: {fileID: 0}
  m_PrefabInternal: {fileID: 100100000}
  serializedVersion: 4
  m_Component:
  - 4: {fileID: 414330}
  m_Layer: 0
  m_Name: BAckankle
  m_TagString: Untagged
  m_Icon: {fileID: 0}
  m_NavMeshLayer: 0
  m_StaticEditorFlags: 0
  m_IsActive: 1
--- !u!1 &197786
GameObject:
  m_ObjectHideFlags: 1
  m_PrefabParentObject: {fileID: 0}
  m_PrefabInternal: {fileID: 100100000}
  serializedVersion: 4
  m_Component:
  - 4: {fileID: 415380}
  m_Layer: 0
  m_Name: Backleg
  m_TagString: Untagged
  m_Icon: {fileID: 0}
  m_NavMeshLayer: 0
  m_StaticEditorFlags: 0
  m_IsActive: 1
--- !u!4 &400364
Transform:
  m_ObjectHideFlags: 1
  m_PrefabParentObject: {fileID: 0}
  m_PrefabInternal: {fileID: 100100000}
  m_GameObject: {fileID: 126396}
  m_LocalRotation: {x: -0.0503699, y: 5.307331e-10, z: 0.000000010523337, w: 0.99873066}
  m_LocalPosition: {x: -2.6645352e-17, y: -1.1368684e-15, z: -3.5598612}
  m_LocalScale: {x: 1, y: 1, z: 1}
  m_Children:
  - {fileID: 414330}
  m_Father: {fileID: 455016}
  m_RootOrder: 0
--- !u!4 &400522
Transform:
  m_ObjectHideFlags: 1
  m_PrefabParentObject: {fileID: 0}
  m_PrefabInternal: {fileID: 100100000}
  m_GameObject: {fileID: 123128}
  m_LocalRotation: {x: -0.006833323, y: 0.9938707, z: 0.07540914, w: -0.08054757}
  m_LocalPosition: {x: 0.6775315, y: -0.67134786, z: 0.80632055}
  m_LocalScale: {x: 1, y: 1, z: 1}
  m_Children:
  - {fileID: 457140}
  m_Father: {fileID: 449506}
  m_RootOrder: 1
--- !u!4 &400810
Transform:
  m_ObjectHideFlags: 1
  m_PrefabParentObject: {fileID: 0}
  m_PrefabInternal: {fileID: 100100000}
  m_GameObject: {fileID: 140162}
  m_LocalRotation: {x: 0.032666188, y: 0.013268706, z: -0.009087366, w: 0.99933696}
  m_LocalPosition: {x: -0, y: -3.410605e-15, z: -1.5934756}
  m_LocalScale: {x: 1, y: 1, z: 1}
  m_Children:
  - {fileID: 494828}
  m_Father: {fileID: 489238}
  m_RootOrder: 0
--- !u!4 &402892
Transform:
  m_ObjectHideFlags: 1
  m_PrefabParentObject: {fileID: 0}
  m_PrefabInternal: {fileID: 100100000}
  m_GameObject: {fileID: 125800}
  m_LocalRotation: {x: 0.3000588, y: 0.9063442, z: 0.024263931, w: 0.29650688}
  m_LocalPosition: {x: -1.1273168, y: -0.3338899, z: 0.3633488}
  m_LocalScale: {x: 1, y: 1, z: 1}
  m_Children:
  - {fileID: 446040}
  m_Father: {fileID: 463680}
  m_RootOrder: 2
--- !u!4 &408236
Transform:
  m_ObjectHideFlags: 1
  m_PrefabParentObject: {fileID: 0}
  m_PrefabInternal: {fileID: 100100000}
  m_GameObject: {fileID: 190218}
  m_LocalRotation: {x: -0.07156265, y: 0.1480609, z: 0.053317104, w: 0.9849437}
  m_LocalPosition: {x: 0.053745806, y: 0.071710125, z: -0.33561778}
  m_LocalScale: {x: 1, y: 1, z: 1}
  m_Children:
  - {fileID: 476426}
  m_Father: {fileID: 482746}
  m_RootOrder: 0
--- !u!4 &408458
Transform:
  m_ObjectHideFlags: 1
  m_PrefabParentObject: {fileID: 0}
  m_PrefabInternal: {fileID: 100100000}
  m_GameObject: {fileID: 147284}
  m_LocalRotation: {x: 0.018545093, y: 0.24273778, z: 0.10693279, w: 0.964002}
  m_LocalPosition: {x: 1.5447619, y: 0.18438265, z: -1.7880408}
  m_LocalScale: {x: 1, y: 1, z: 1}
  m_Children:
  - {fileID: 427484}
  m_Father: {fileID: 417716}
  m_RootOrder: 0
--- !u!4 &409264
Transform:
  m_ObjectHideFlags: 1
  m_PrefabParentObject: {fileID: 0}
  m_PrefabInternal: {fileID: 100100000}
  m_GameObject: {fileID: 143582}
  m_LocalRotation: {x: 0.2860304, y: -0.0042617014, z: -0.0006414928, w: 0.9582108}
  m_LocalPosition: {x: 5.9117153e-14, y: 0.023575762, z: -0.4168061}
  m_LocalScale: {x: 1, y: 1, z: 1}
  m_Children:
  - {fileID: 425370}
  m_Father: {fileID: 467694}
  m_RootOrder: 0
--- !u!4 &409412
Transform:
  m_ObjectHideFlags: 1
  m_PrefabParentObject: {fileID: 0}
  m_PrefabInternal: {fileID: 100100000}
  m_GameObject: {fileID: 100700}
  m_LocalRotation: {x: -0.0055712853, y: 0.009717727, z: -0.0041607893, w: 0.9999286}
  m_LocalPosition: {x: -1.4210854e-15, y: -4.5474734e-15, z: -2.5479794}
  m_LocalScale: {x: 1, y: 1, z: 1}
  m_Children: []
  m_Father: {fileID: 465046}
  m_RootOrder: 0
--- !u!4 &411682
Transform:
  m_ObjectHideFlags: 1
  m_PrefabParentObject: {fileID: 0}
  m_PrefabInternal: {fileID: 100100000}
  m_GameObject: {fileID: 179802}
  m_LocalRotation: {x: -0.020870443, y: 0.18356875, z: -0.09604658, w: 0.97808075}
  m_LocalPosition: {x: 0.11746455, y: 0.017063512, z: -0.8946502}
  m_LocalScale: {x: 1, y: 1, z: 1}
  m_Children:
  - {fileID: 422288}
  m_Father: {fileID: 469848}
  m_RootOrder: 0
--- !u!4 &412122
Transform:
  m_ObjectHideFlags: 1
  m_PrefabParentObject: {fileID: 0}
  m_PrefabInternal: {fileID: 100100000}
  m_GameObject: {fileID: 194436}
  m_LocalRotation: {x: -0.48911217, y: 0.82898265, z: 0.15981905, w: -0.21912329}
  m_LocalPosition: {x: 1.1273168, y: -0.3338899, z: 0.3633488}
  m_LocalScale: {x: 1, y: 1, z: 1}
  m_Children:
  - {fileID: 478686}
  m_Father: {fileID: 463680}
  m_RootOrder: 1
--- !u!4 &413454
Transform:
  m_ObjectHideFlags: 1
  m_PrefabParentObject: {fileID: 0}
  m_PrefabInternal: {fileID: 100100000}
  m_GameObject: {fileID: 136972}
  m_LocalRotation: {x: -0.25815722, y: -0.000000027056036, z: 0.00000001943104, w: 0.96610296}
  m_LocalPosition: {x: 0, y: -1.72, z: 0.44}
  m_LocalScale: {x: 10.86655, y: 10.8665495, z: 10.8665495}
  m_Children:
  - {fileID: 420364}
  m_Father: {fileID: 449506}
  m_RootOrder: 0
--- !u!4 &414330
Transform:
  m_ObjectHideFlags: 1
  m_PrefabParentObject: {fileID: 0}
  m_PrefabInternal: {fileID: 100100000}
  m_GameObject: {fileID: 196340}
  m_LocalRotation: {x: -0.09375428, y: 0.007804088, z: 0.0005569678, w: 0.99556464}
  m_LocalPosition: {x: -8.881784e-18, y: -1.1368684e-15, z: -2.64671}
  m_LocalScale: {x: 1, y: 1, z: 1}
  m_Children:
  - {fileID: 440322}
  m_Father: {fileID: 400364}
  m_RootOrder: 0
--- !u!4 &415380
Transform:
  m_ObjectHideFlags: 1
  m_PrefabParentObject: {fileID: 0}
  m_PrefabInternal: {fileID: 100100000}
  m_GameObject: {fileID: 197786}
  m_LocalRotation: {x: 0.0018619512, y: 0.9675143, z: -0.25265184, w: 0.008929472}
  m_LocalPosition: {x: 1.4210854e-16, y: 0.3235929, z: 0.67655784}
  m_LocalScale: {x: 1, y: 1, z: 1}
  m_Children:
  - {fileID: 491462}
  m_Father: {fileID: 463680}
  m_RootOrder: 0
--- !u!4 &417716
Transform:
  m_ObjectHideFlags: 1
  m_PrefabParentObject: {fileID: 0}
  m_PrefabInternal: {fileID: 100100000}
  m_GameObject: {fileID: 105664}
  m_LocalRotation: {x: -0.1292589, y: 0.59158736, z: -0.13718237, w: 0.783899}
  m_LocalPosition: {x: 6.82121e-15, y: -2.2737367e-15, z: -3.7085469}
  m_LocalScale: {x: 1, y: 1, z: 1}
  m_Children:
  - {fileID: 408458}
  m_Father: {fileID: 448638}
  m_RootOrder: 0
--- !u!4 &420364
Transform:
  m_ObjectHideFlags: 1
  m_PrefabParentObject: {fileID: 0}
  m_PrefabInternal: {fileID: 100100000}
  m_GameObject: {fileID: 151502}
  m_LocalRotation: {x: 0.70356476, y: 0.0000001776914, z: 0.00000014025777, w: 0.7106312}
  m_LocalPosition: {x: 0.000000008336697, y: 0.0000010203082, z: 0.0000009542775}
  m_LocalScale: {x: 1, y: 1, z: 1}
  m_Children: []
  m_Father: {fileID: 413454}
  m_RootOrder: 0
--- !u!4 &422288
Transform:
  m_ObjectHideFlags: 1
  m_PrefabParentObject: {fileID: 0}
  m_PrefabInternal: {fileID: 100100000}
  m_GameObject: {fileID: 187080}
  m_LocalRotation: {x: -0.109011985, y: -0.62845165, z: -0.0839873, w: 0.7655789}
  m_LocalPosition: {x: 5.684342e-16, y: 1.7053025e-15, z: -3.7085469}
  m_LocalScale: {x: 1, y: 1, z: 1}
  m_Children:
  - {fileID: 455140}
  m_Father: {fileID: 411682}
  m_RootOrder: 0
--- !u!4 &425370
Transform:
  m_ObjectHideFlags: 1
  m_PrefabParentObject: {fileID: 0}
  m_PrefabInternal: {fileID: 100100000}
  m_GameObject: {fileID: 144768}
  m_LocalRotation: {x: 0.010956794, y: -0.0043369234, z: 0.000047522073, w: 0.99993056}
  m_LocalPosition: {x: 0.003305044, y: 0.008351017, z: -0.38100195}
  m_LocalScale: {x: 1, y: 1, z: 1}
  m_Children: []
  m_Father: {fileID: 409264}
  m_RootOrder: 0
--- !u!4 &427484
Transform:
  m_ObjectHideFlags: 1
  m_PrefabParentObject: {fileID: 0}
  m_PrefabInternal: {fileID: 100100000}
  m_GameObject: {fileID: 176454}
  m_LocalRotation: {x: 0.048976466, y: -0.65105957, z: 0.030843398, w: 0.7568166}
  m_LocalPosition: {x: 1.4949491, y: 0.010752509, z: -1.2326583}
  m_LocalScale: {x: 1, y: 1, z: 1}
  m_Children:
  - {fileID: 485072}
  m_Father: {fileID: 408458}
  m_RootOrder: 0
--- !u!4 &429472
Transform:
  m_ObjectHideFlags: 1
  m_PrefabParentObject: {fileID: 0}
  m_PrefabInternal: {fileID: 100100000}
  m_GameObject: {fileID: 146786}
  m_LocalRotation: {x: 0, y: 0.5144395, z: 0, w: 0.85752666}
  m_LocalPosition: {x: -0.44439363, y: -0.93155813, z: 1.1188798}
  m_LocalScale: {x: 1, y: 1, z: 1}
  m_Children:
  - {fileID: 463680}
  - {fileID: 490444}
  m_Father: {fileID: 0}
  m_RootOrder: 0
--- !u!4 &431502
Transform:
  m_ObjectHideFlags: 1
  m_PrefabParentObject: {fileID: 0}
  m_PrefabInternal: {fileID: 100100000}
  m_GameObject: {fileID: 166294}
  m_LocalRotation: {x: 0.11658264, y: 0.0011279753, z: -0.009608896, w: 0.9931339}
  m_LocalPosition: {x: 3.5527136e-17, y: 5.684342e-13, z: -0.7948442}
  m_LocalScale: {x: 1, y: 1, z: 1}
  m_Children:
  - {fileID: 449506}
  m_Father: {fileID: 463680}
  m_RootOrder: 3
--- !u!4 &432372
Transform:
  m_ObjectHideFlags: 1
  m_PrefabParentObject: {fileID: 0}
  m_PrefabInternal: {fileID: 100100000}
  m_GameObject: {fileID: 133476}
  m_LocalRotation: {x: -0.006235327, y: -0.009305597, z: 0.00024159276, w: 0.99993724}
  m_LocalPosition: {x: -3.410605e-15, y: 1.1368684e-15, z: -2.5479794}
  m_LocalScale: {x: 1, y: 1, z: 1}
  m_Children: []
  m_Father: {fileID: 494828}
  m_RootOrder: 0
--- !u!4 &433250
Transform:
  m_ObjectHideFlags: 1
  m_PrefabParentObject: {fileID: 0}
  m_PrefabInternal: {fileID: 100100000}
  m_GameObject: {fileID: 173918}
  m_LocalRotation: {x: -0.07472605, y: -0.0082319705, z: 0.03178851, w: 0.99666333}
  m_LocalPosition: {x: -0.00854619, y: -0.006205203, z: -1.2027729}
  m_LocalScale: {x: 1, y: 1, z: 1}
  m_Children:
  - {fileID: 482746}
  m_Father: {fileID: 491622}
  m_RootOrder: 0
--- !u!4 &435414
Transform:
  m_ObjectHideFlags: 1
  m_PrefabParentObject: {fileID: 0}
  m_PrefabInternal: {fileID: 100100000}
  m_GameObject: {fileID: 195816}
  m_LocalRotation: {x: 0.02919129, y: 0.08343045, z: 0.06553692, w: 0.99392766}
  m_LocalPosition: {x: 0.46425578, y: 0.021472828, z: -1.6385418}
  m_LocalScale: {x: 1, y: 1, z: 1}
  m_Children:
  - {fileID: 448638}
  m_Father: {fileID: 446040}
  m_RootOrder: 0
--- !u!4 &440322
Transform:
  m_ObjectHideFlags: 1
  m_PrefabParentObject: {fileID: 0}
  m_PrefabInternal: {fileID: 100100000}
  m_GameObject: {fileID: 102320}
  m_LocalRotation: {x: 0.11727457, y: 0.00083127775, z: 0.000063830164, w: 0.9930992}
  m_LocalPosition: {x: -0.000000002726587, y: 1.7053025e-15, z: -2.5707226}
  m_LocalScale: {x: 1, y: 1, z: 1}
  m_Children:
  - {fileID: 456470}
  m_Father: {fileID: 414330}
  m_RootOrder: 0
--- !u!4 &446040
Transform:
  m_ObjectHideFlags: 1
  m_PrefabParentObject: {fileID: 0}
  m_PrefabInternal: {fileID: 100100000}
  m_GameObject: {fileID: 107462}
  m_LocalRotation: {x: 0.04381172, y: 0.20290242, z: -0.05608431, w: 0.9766093}
  m_LocalPosition: {x: 4.5474734e-15, y: 2.4868995e-15, z: -0.95862615}
  m_LocalScale: {x: 1, y: 1, z: 1}
  m_Children:
  - {fileID: 435414}
  m_Father: {fileID: 402892}
  m_RootOrder: 0
--- !u!4 &448638
Transform:
  m_ObjectHideFlags: 1
  m_PrefabParentObject: {fileID: 0}
  m_PrefabInternal: {fileID: 100100000}
  m_GameObject: {fileID: 129876}
  m_LocalRotation: {x: -0.22015183, y: -0.051820803, z: 0.2506165, w: 0.9412965}
  m_LocalPosition: {x: -0.11735972, y: 0.017770192, z: -0.8946502}
  m_LocalScale: {x: 1, y: 1, z: 1}
  m_Children:
  - {fileID: 417716}
  m_Father: {fileID: 435414}
  m_RootOrder: 0
--- !u!4 &449506
Transform:
  m_ObjectHideFlags: 1
  m_PrefabParentObject: {fileID: 0}
  m_PrefabInternal: {fileID: 100100000}
  m_GameObject: {fileID: 171228}
  m_LocalRotation: {x: 0.00013792784, y: 0.000007706091, z: -0.036454298, w: 0.99933535}
  m_LocalPosition: {x: -0, y: 5.684342e-16, z: -1.3588445}
  m_LocalScale: {x: 1, y: 1, z: 1}
  m_Children:
  - {fileID: 413454}
  - {fileID: 400522}
  - {fileID: 491622}
  - {fileID: 492612}
  - {fileID: 480902}
  m_Father: {fileID: 431502}
  m_RootOrder: 0
--- !u!4 &455016
Transform:
  m_ObjectHideFlags: 1
  m_PrefabParentObject: {fileID: 0}
  m_PrefabInternal: {fileID: 100100000}
  m_GameObject: {fileID: 134160}
  m_LocalRotation: {x: -0.132027, y: 4.298845e-18, z: 5.7257587e-19, w: 0.9912461}
  m_LocalPosition: {x: 8.881784e-18, y: 2.2737367e-15, z: -1.0803341}
  m_LocalScale: {x: 1, y: 1, z: 1}
  m_Children:
  - {fileID: 400364}
  m_Father: {fileID: 491462}
  m_RootOrder: 0
--- !u!4 &455140
Transform:
  m_ObjectHideFlags: 1
  m_PrefabParentObject: {fileID: 0}
  m_PrefabInternal: {fileID: 100100000}
  m_GameObject: {fileID: 162656}
  m_LocalRotation: {x: 0.040390782, y: -0.2696373, z: 0.072205335, w: 0.95940125}
  m_LocalPosition: {x: -1.5327743, y: -0.2662508, z: -1.7880408}
  m_LocalScale: {x: 1, y: 1, z: 1}
  m_Children:
  - {fileID: 489238}
  m_Father: {fileID: 422288}
  m_RootOrder: 0
--- !u!4 &456470
Transform:
  m_ObjectHideFlags: 1
  m_PrefabParentObject: {fileID: 0}
  m_PrefabInternal: {fileID: 100100000}
  m_GameObject: {fileID: 115596}
  m_LocalRotation: {x: -6.938894e-18, y: 1.11466175e-13, z: -4.3368087e-19, w: 1}
  m_LocalPosition: {x: -4.7104985e-13, y: -5.684342e-16, z: -2.1140904}
  m_LocalScale: {x: 1, y: 1, z: 1}
  m_Children: []
  m_Father: {fileID: 440322}
  m_RootOrder: 0
--- !u!4 &457140
Transform:
  m_ObjectHideFlags: 1
  m_PrefabParentObject: {fileID: 0}
  m_PrefabInternal: {fileID: 100100000}
  m_GameObject: {fileID: 180656}
  m_LocalRotation: {x: -0.08058018, y: 0.008065471, z: 0.0008701508, w: 0.9967151}
  m_LocalPosition: {x: 0.00876207, y: -0.005896443, z: -1.2027729}
  m_LocalScale: {x: 1, y: 1, z: 1}
  m_Children:
  - {fileID: 493244}
  m_Father: {fileID: 400522}
  m_RootOrder: 0
--- !u!4 &457176
Transform:
  m_ObjectHideFlags: 1
  m_PrefabParentObject: {fileID: 0}
  m_PrefabInternal: {fileID: 100100000}
  m_GameObject: {fileID: 120322}
  m_LocalRotation: {x: 0.6959914, y: 0.00000008653396, z: 0.00000011670338, w: 0.7180501}
  m_LocalPosition: {x: 0.0000045023053, y: 0.000010089852, z: 0.000011199755}
  m_LocalScale: {x: 1, y: 1, z: 1}
  m_Children: []
  m_Father: {fileID: 480902}
  m_RootOrder: 0
--- !u!4 &460840
Transform:
  m_ObjectHideFlags: 1
  m_PrefabParentObject: {fileID: 0}
  m_PrefabInternal: {fileID: 100100000}
  m_GameObject: {fileID: 189506}
  m_LocalRotation: {x: 0.09922075, y: -0.07639288, z: 0.0065898546, w: 0.99210685}
  m_LocalPosition: {x: 0.012365651, y: 0.013589412, z: -0.9706481}
  m_LocalScale: {x: 1, y: 1, z: 1}
  m_Children:
  - {fileID: 467694}
  m_Father: {fileID: 473170}
  m_RootOrder: 0
--- !u!4 &463680
Transform:
  m_ObjectHideFlags: 1
  m_PrefabParentObject: {fileID: 0}
  m_PrefabInternal: {fileID: 100100000}
  m_GameObject: {fileID: 122702}
  m_LocalRotation: {x: -1.570195e-17, y: 0.82360137, z: -0.5671691, w: 8.516013e-17}
  m_LocalPosition: {x: -0.19841316, y: 15.389314, z: 0.3133238}
  m_LocalScale: {x: 1, y: 1, z: 1}
  m_Children:
  - {fileID: 415380}
  - {fileID: 412122}
  - {fileID: 402892}
  - {fileID: 431502}
  m_Father: {fileID: 429472}
  m_RootOrder: 0
--- !u!4 &464920
Transform:
  m_ObjectHideFlags: 1
  m_PrefabParentObject: {fileID: 0}
  m_PrefabInternal: {fileID: 100100000}
  m_GameObject: {fileID: 187608}
  m_LocalRotation: {x: 0.49126485, y: -0.30047315, z: -0.31025833, w: 0.7563825}
  m_LocalPosition: {x: 3.410605e-15, y: 2.2737367e-15, z: -0.41116863}
  m_LocalScale: {x: 1, y: 1, z: 1}
  m_Children:
  - {fileID: 483614}
  m_Father: {fileID: 476426}
  m_RootOrder: 0
--- !u!4 &465046
Transform:
  m_ObjectHideFlags: 1
  m_PrefabParentObject: {fileID: 0}
  m_PrefabInternal: {fileID: 100100000}
  m_GameObject: {fileID: 141144}
  m_LocalRotation: {x: 0.1140232, y: -0.026677292, z: 0.0263758, w: 0.99276954}
  m_LocalPosition: {x: 0.0252593, y: -0.11174932, z: -1.5926751}
  m_LocalScale: {x: 1, y: 1, z: 1}
  m_Children:
  - {fileID: 409412}
  m_Father: {fileID: 485072}
  m_RootOrder: 0
--- !u!4 &467694
Transform:
  m_ObjectHideFlags: 1
  m_PrefabParentObject: {fileID: 0}
  m_PrefabInternal: {fileID: 100100000}
  m_GameObject: {fileID: 167730}
  m_LocalRotation: {x: 0.5517815, y: -0.18011858, z: -0.2484018, w: 0.77549416}
  m_LocalPosition: {x: -2.2737367e-15, y: 2.2737367e-15, z: -0.41116863}
  m_LocalScale: {x: 1, y: 1, z: 1}
  m_Children:
  - {fileID: 409264}
  m_Father: {fileID: 460840}
  m_RootOrder: 0
--- !u!4 &469848
Transform:
  m_ObjectHideFlags: 1
  m_PrefabParentObject: {fileID: 0}
  m_PrefabInternal: {fileID: 100100000}
  m_GameObject: {fileID: 103794}
  m_LocalRotation: {x: 0.043191392, y: -0.12631577, z: -0.006406572, w: 0.99102867}
  m_LocalPosition: {x: -0.46389273, y: -0.028249929, z: -1.6385418}
  m_LocalScale: {x: 1, y: 1, z: 1}
  m_Children:
  - {fileID: 411682}
  m_Father: {fileID: 478686}
  m_RootOrder: 0
--- !u!4 &473170
Transform:
  m_ObjectHideFlags: 1
  m_PrefabParentObject: {fileID: 0}
  m_PrefabInternal: {fileID: 100100000}
  m_GameObject: {fileID: 112492}
  m_LocalRotation: {x: -0.17119117, y: 0.055235885, z: 0.050761096, w: 0.9823777}
  m_LocalPosition: {x: 0.054858163, y: 0.0708628, z: -0.33561778}
  m_LocalScale: {x: 1, y: 1, z: 1}
  m_Children:
  - {fileID: 460840}
  m_Father: {fileID: 493244}
  m_RootOrder: 0
--- !u!4 &476426
Transform:
  m_ObjectHideFlags: 1
  m_PrefabParentObject: {fileID: 0}
  m_PrefabInternal: {fileID: 100100000}
  m_GameObject: {fileID: 185322}
  m_LocalRotation: {x: 0.07937258, y: -0.09663165, z: 0.017538963, w: 0.99199533}
  m_LocalPosition: {x: 0.012878733, y: 0.0131041845, z: -0.9706481}
  m_LocalScale: {x: 1, y: 1, z: 1}
  m_Children:
  - {fileID: 464920}
  m_Father: {fileID: 408236}
  m_RootOrder: 0
--- !u!4 &478686
Transform:
  m_ObjectHideFlags: 1
  m_PrefabParentObject: {fileID: 0}
  m_PrefabInternal: {fileID: 100100000}
  m_GameObject: {fileID: 127472}
  m_LocalRotation: {x: 0.069436505, y: -0.18790282, z: 0.0075332643, w: 0.97970116}
  m_LocalPosition: {x: -1.1368684e-15, y: 2.2737367e-15, z: -0.95862615}
  m_LocalScale: {x: 1, y: 1, z: 1}
  m_Children:
  - {fileID: 469848}
  m_Father: {fileID: 412122}
  m_RootOrder: 0
--- !u!4 &480902
Transform:
  m_ObjectHideFlags: 1
  m_PrefabParentObject: {fileID: 0}
  m_PrefabInternal: {fileID: 100100000}
  m_GameObject: {fileID: 175032}
  m_LocalRotation: {x: -0.32458612, y: 0.009456636, z: 0.21262564, w: 0.9215991}
  m_LocalPosition: {x: 1.64, y: -2.48, z: -0.25}
  m_LocalScale: {x: 10.86656, y: 10.866554, z: 10.866559}
  m_Children:
  - {fileID: 457176}
  m_Father: {fileID: 449506}
  m_RootOrder: 4
--- !u!4 &482746
Transform:
  m_ObjectHideFlags: 1
  m_PrefabParentObject: {fileID: 0}
  m_PrefabInternal: {fileID: 100100000}
  m_GameObject: {fileID: 158652}
  m_LocalRotation: {x: -0.6125272, y: 0.23900951, z: 0.32343048, w: 0.68049806}
  m_LocalPosition: {x: -0.039754152, y: -0.12693314, z: -0.79312485}
  m_LocalScale: {x: 1, y: 1, z: 1}
  m_Children:
  - {fileID: 408236}
  m_Father: {fileID: 433250}
  m_RootOrder: 0
--- !u!4 &483614
Transform:
  m_ObjectHideFlags: 1
  m_PrefabParentObject: {fileID: 0}
  m_PrefabInternal: {fileID: 100100000}
  m_GameObject: {fileID: 158298}
  m_LocalRotation: {x: 0.03168065, y: -0.013643186, z: -0.064294614, w: 0.99733466}
  m_LocalPosition: {x: 0.003876066, y: 0.02325495, z: -0.4168061}
  m_LocalScale: {x: 1, y: 1, z: 1}
  m_Children:
  - {fileID: 490184}
  m_Father: {fileID: 464920}
  m_RootOrder: 0
--- !u!4 &484670
Transform:
  m_ObjectHideFlags: 1
  m_PrefabParentObject: {fileID: 0}
  m_PrefabInternal: {fileID: 100100000}
  m_GameObject: {fileID: 125760}
  m_LocalRotation: {x: 0.71167046, y: 0.000000057675614, z: -0.000000024423995, w: 0.70251346}
  m_LocalPosition: {x: -0.00000071061504, y: 0.0000024409374, z: 0.000002444238}
  m_LocalScale: {x: 1, y: 1, z: 1}
  m_Children: []
  m_Father: {fileID: 492612}
  m_RootOrder: 0
--- !u!4 &485072
Transform:
  m_ObjectHideFlags: 1
  m_PrefabParentObject: {fileID: 0}
  m_PrefabInternal: {fileID: 100100000}
  m_GameObject: {fileID: 118830}
  m_LocalRotation: {x: -0.070378125, y: 0.16478296, z: -0.018686067, w: 0.98363835}
  m_LocalPosition: {x: -3.410605e-15, y: -4.5474734e-15, z: -1.5934756}
  m_LocalScale: {x: 1, y: 1, z: 1}
  m_Children:
  - {fileID: 465046}
  m_Father: {fileID: 427484}
  m_RootOrder: 0
--- !u!4 &489238
Transform:
  m_ObjectHideFlags: 1
  m_PrefabParentObject: {fileID: 0}
  m_PrefabInternal: {fileID: 100100000}
  m_GameObject: {fileID: 147148}
  m_LocalRotation: {x: -0.06109822, y: 0.5089811, z: -0.046742357, w: 0.85733336}
  m_LocalPosition: {x: -1.4858955, y: 0.16463038, z: -1.2326583}
  m_LocalScale: {x: 1, y: 1, z: 1}
  m_Children:
  - {fileID: 400810}
  m_Father: {fileID: 455140}
  m_RootOrder: 0
--- !u!4 &490184
Transform:
  m_ObjectHideFlags: 1
  m_PrefabParentObject: {fileID: 0}
  m_PrefabInternal: {fileID: 100100000}
  m_GameObject: {fileID: 190304}
  m_LocalRotation: {x: 0.026163777, y: 0.004049877, z: -0.0035004031, w: 0.9996434}
  m_LocalPosition: {x: -0.0030976757, y: 0.008430136, z: -0.38100195}
  m_LocalScale: {x: 1, y: 1, z: 1}
  m_Children: []
  m_Father: {fileID: 483614}
  m_RootOrder: 0
--- !u!4 &490444
Transform:
  m_ObjectHideFlags: 1
  m_PrefabParentObject: {fileID: 0}
  m_PrefabInternal: {fileID: 100100000}
  m_GameObject: {fileID: 195948}
  m_LocalRotation: {x: 0, y: 0, z: 0, w: 1}
  m_LocalPosition: {x: 0, y: 0, z: 0}
  m_LocalScale: {x: 1, y: 1, z: 1}
  m_Children: []
  m_Father: {fileID: 429472}
  m_RootOrder: 1
--- !u!4 &491462
Transform:
  m_ObjectHideFlags: 1
  m_PrefabParentObject: {fileID: 0}
  m_PrefabInternal: {fileID: 100100000}
  m_GameObject: {fileID: 160032}
  m_LocalRotation: {x: -0.23278065, y: -3.3741388e-18, z: -8.076201e-19, w: 0.9725293}
  m_LocalPosition: {x: 2.6645352e-17, y: -2.2737367e-15, z: -4.360862}
  m_LocalScale: {x: 1, y: 1, z: 1}
  m_Children:
  - {fileID: 455016}
  m_Father: {fileID: 415380}
  m_RootOrder: 0
--- !u!4 &491622
Transform:
  m_ObjectHideFlags: 1
  m_PrefabParentObject: {fileID: 0}
  m_PrefabInternal: {fileID: 100100000}
  m_GameObject: {fileID: 103158}
  m_LocalRotation: {x: -0.014529457, y: 0.99741954, z: -0.00095293357, w: 0.07030147}
  m_LocalPosition: {x: -0.6775315, y: -0.67134786, z: 0.80632055}
  m_LocalScale: {x: 1, y: 1, z: 1}
  m_Children:
  - {fileID: 433250}
  m_Father: {fileID: 449506}
  m_RootOrder: 2
--- !u!4 &492612
Transform:
  m_ObjectHideFlags: 1
  m_PrefabParentObject: {fileID: 0}
  m_PrefabInternal: {fileID: 100100000}
  m_GameObject: {fileID: 135106}
  m_LocalRotation: {x: -0.29631603, y: -0.13282472, z: -0.20989141, w: 0.92222565}
  m_LocalPosition: {x: -1.88, y: -2.6, z: -0}
  m_LocalScale: {x: 10.866568, y: 10.866556, z: 10.866566}
  m_Children:
  - {fileID: 484670}
  m_Father: {fileID: 449506}
  m_RootOrder: 3
--- !u!4 &493244
Transform:
  m_ObjectHideFlags: 1
  m_PrefabParentObject: {fileID: 0}
  m_PrefabInternal: {fileID: 100100000}
  m_GameObject: {fileID: 113290}
  m_LocalRotation: {x: -0.6426514, y: 0.19350633, z: 0.14028972, w: 0.727924}
  m_LocalPosition: {x: 0.03592708, y: -0.12806897, z: -0.79312485}
  m_LocalScale: {x: 1, y: 1, z: 1}
  m_Children:
  - {fileID: 473170}
  m_Father: {fileID: 457140}
  m_RootOrder: 0
--- !u!4 &494828
Transform:
  m_ObjectHideFlags: 1
  m_PrefabParentObject: {fileID: 0}
  m_PrefabInternal: {fileID: 100100000}
  m_GameObject: {fileID: 162318}
  m_LocalRotation: {x: 0.13245781, y: 0.08764826, z: 0.01948487, w: 0.98711354}
  m_LocalPosition: {x: -0.024074642, y: -0.112010516, z: -1.5926751}
  m_LocalScale: {x: 1, y: 1, z: 1}
  m_Children:
  - {fileID: 432372}
  m_Father: {fileID: 400810}
  m_RootOrder: 0
--- !u!23 &2355724
MeshRenderer:
  m_ObjectHideFlags: 1
  m_PrefabParentObject: {fileID: 0}
  m_PrefabInternal: {fileID: 100100000}
  m_GameObject: {fileID: 135106}
  m_Enabled: 1
  m_CastShadows: 0
  m_ReceiveShadows: 0
  m_Materials:
  - {fileID: 2100000, guid: f2a2e9867211f984dba7d79ba974a45c, type: 2}
  m_SubsetIndices: 
  m_StaticBatchRoot: {fileID: 0}
  m_UseLightProbes: 1
  m_ReflectionProbeUsage: 1
  m_ProbeAnchor: {fileID: 0}
  m_ScaleInLightmap: 1
  m_PreserveUVs: 0
  m_IgnoreNormalsForChartDetection: 0
  m_ImportantGI: 0
  m_MinimumChartSize: 4
  m_AutoUVMaxDistance: 0.5
  m_AutoUVMaxAngle: 89
  m_LightmapParameters: {fileID: 0}
  m_SortingLayerID: 0
  m_SortingOrder: 0
--- !u!23 &2385956
MeshRenderer:
  m_ObjectHideFlags: 1
  m_PrefabParentObject: {fileID: 0}
  m_PrefabInternal: {fileID: 100100000}
  m_GameObject: {fileID: 175032}
  m_Enabled: 1
  m_CastShadows: 0
  m_ReceiveShadows: 0
  m_Materials:
  - {fileID: 2100000, guid: f2a2e9867211f984dba7d79ba974a45c, type: 2}
  m_SubsetIndices: 
  m_StaticBatchRoot: {fileID: 0}
  m_UseLightProbes: 1
  m_ReflectionProbeUsage: 1
  m_ProbeAnchor: {fileID: 0}
  m_ScaleInLightmap: 1
  m_PreserveUVs: 0
  m_IgnoreNormalsForChartDetection: 0
  m_ImportantGI: 0
  m_MinimumChartSize: 4
  m_AutoUVMaxDistance: 0.5
  m_AutoUVMaxAngle: 89
  m_LightmapParameters: {fileID: 0}
  m_SortingLayerID: 0
  m_SortingOrder: 0
--- !u!23 &2397780
MeshRenderer:
  m_ObjectHideFlags: 1
  m_PrefabParentObject: {fileID: 0}
  m_PrefabInternal: {fileID: 100100000}
  m_GameObject: {fileID: 136972}
  m_Enabled: 1
  m_CastShadows: 0
  m_ReceiveShadows: 0
  m_Materials:
  - {fileID: 2100000, guid: f2a2e9867211f984dba7d79ba974a45c, type: 2}
  m_SubsetIndices: 
  m_StaticBatchRoot: {fileID: 0}
  m_UseLightProbes: 1
  m_ReflectionProbeUsage: 1
  m_ProbeAnchor: {fileID: 0}
  m_ScaleInLightmap: 1
  m_PreserveUVs: 0
  m_IgnoreNormalsForChartDetection: 0
  m_ImportantGI: 0
  m_MinimumChartSize: 4
  m_AutoUVMaxDistance: 0.5
  m_AutoUVMaxAngle: 89
  m_LightmapParameters: {fileID: 0}
  m_SortingLayerID: 0
  m_SortingOrder: 0
--- !u!33 &3313618
MeshFilter:
  m_ObjectHideFlags: 1
  m_PrefabParentObject: {fileID: 0}
  m_PrefabInternal: {fileID: 100100000}
  m_GameObject: {fileID: 135106}
  m_Mesh: {fileID: 4300000, guid: 62d980481208b5c43a72de8062cb62fe, type: 3}
--- !u!33 &3341654
MeshFilter:
  m_ObjectHideFlags: 1
  m_PrefabParentObject: {fileID: 0}
  m_PrefabInternal: {fileID: 100100000}
  m_GameObject: {fileID: 175032}
  m_Mesh: {fileID: 4300000, guid: 62d980481208b5c43a72de8062cb62fe, type: 3}
--- !u!33 &3353276
MeshFilter:
  m_ObjectHideFlags: 1
  m_PrefabParentObject: {fileID: 0}
  m_PrefabInternal: {fileID: 100100000}
  m_GameObject: {fileID: 136972}
  m_Mesh: {fileID: 4300000, guid: 62d980481208b5c43a72de8062cb62fe, type: 3}
--- !u!82 &8224652
AudioSource:
  m_ObjectHideFlags: 1
  m_PrefabParentObject: {fileID: 0}
  m_PrefabInternal: {fileID: 100100000}
  m_GameObject: {fileID: 171228}
  m_Enabled: 1
  serializedVersion: 4
  OutputAudioMixerGroup: {fileID: 0}
  m_audioClip: {fileID: 8300000, guid: fcf9f189688e0c849be5bc5a3e065048, type: 3}
  m_PlayOnAwake: 1
  m_Volume: 1
  m_Pitch: 1
  Loop: 1
  Mute: 0
  Spatialize: 0
  Priority: 128
  DopplerLevel: 1
  MinDistance: 16.91
  MaxDistance: 50
  Pan2D: 0
  rolloffMode: 0
  BypassEffects: 0
  BypassListenerEffects: 0
  BypassReverbZones: 0
  rolloffCustomCurve:
    serializedVersion: 2
    m_Curve:
    - time: 0
      value: 1
      inSlope: 0
      outSlope: 0
      tangentMode: 0
    - time: 1
      value: 0
      inSlope: 0
      outSlope: 0
      tangentMode: 0
    m_PreInfinity: 2
    m_PostInfinity: 2
    m_RotationOrder: 4
  panLevelCustomCurve:
    serializedVersion: 2
    m_Curve:
    - time: 0
      value: 0
      inSlope: 0
      outSlope: 0
      tangentMode: 0
    m_PreInfinity: 2
    m_PostInfinity: 2
    m_RotationOrder: 4
  spreadCustomCurve:
    serializedVersion: 2
    m_Curve:
    - time: 0
      value: 0
      inSlope: 0
      outSlope: 0
      tangentMode: 0
    m_PreInfinity: 2
    m_PostInfinity: 2
    m_RotationOrder: 4
  reverbZoneMixCustomCurve:
    serializedVersion: 2
    m_Curve:
    - time: 0
      value: 1
      inSlope: 0
      outSlope: 0
      tangentMode: 0
    m_PreInfinity: 2
    m_PostInfinity: 2
    m_RotationOrder: 4
--- !u!95 &9592138
Animator:
  serializedVersion: 3
  m_ObjectHideFlags: 1
  m_PrefabParentObject: {fileID: 0}
  m_PrefabInternal: {fileID: 100100000}
  m_GameObject: {fileID: 146786}
  m_Enabled: 1
  m_Avatar: {fileID: 9000000, guid: 26f2fbab3df6dec48ad8af134ef3a59a, type: 3}
  m_Controller: {fileID: 9100000, guid: 7396092eac36b854a84ea95762cd4a0d, type: 2}
  m_CullingMode: 1
  m_UpdateMode: 0
  m_ApplyRootMotion: 0
  m_LinearVelocityBlending: 0
  m_WarningMessage: 
  m_HasTransformHierarchy: 1
  m_AllowConstantClipSamplingOptimization: 1
--- !u!108 &10836572
Light:
  m_ObjectHideFlags: 1
  m_PrefabParentObject: {fileID: 0}
  m_PrefabInternal: {fileID: 100100000}
  m_GameObject: {fileID: 125760}
  m_Enabled: 1
  serializedVersion: 6
  m_Type: 0
  m_Color: {r: 0.42647058, g: 0.9762677, b: 1, a: 1}
  m_Intensity: 4.34
  m_Range: 25.28
  m_SpotAngle: 13
  m_CookieSize: 10
  m_Shadows:
    m_Type: 0
    m_Resolution: -1
    m_Strength: 1
    m_Bias: 0.05
    m_NormalBias: 0.4
    m_NearPlane: 0.2
  m_Cookie: {fileID: 0}
  m_DrawHalo: 0
  m_Flare: {fileID: 0}
  m_RenderMode: 0
  m_CullingMask:
    serializedVersion: 2
    m_Bits: 4294967295
  m_Lightmapping: 4
  m_BounceIntensity: 1
  m_ShadowRadius: 0
  m_ShadowAngle: 0
  m_AreaSize: {x: 1, y: 1}
--- !u!108 &10842936
Light:
  m_ObjectHideFlags: 1
  m_PrefabParentObject: {fileID: 0}
  m_PrefabInternal: {fileID: 100100000}
  m_GameObject: {fileID: 151502}
  m_Enabled: 1
  serializedVersion: 6
  m_Type: 0
  m_Color: {r: 0.42647058, g: 0.9762677, b: 1, a: 1}
  m_Intensity: 4.34
  m_Range: 25.28
  m_SpotAngle: 18
  m_CookieSize: 10
  m_Shadows:
    m_Type: 0
    m_Resolution: -1
    m_Strength: 1
    m_Bias: 0.05
    m_NormalBias: 0.4
    m_NearPlane: 0.2
  m_Cookie: {fileID: 0}
  m_DrawHalo: 0
  m_Flare: {fileID: 0}
  m_RenderMode: 0
  m_CullingMask:
    serializedVersion: 2
    m_Bits: 4294967295
  m_Lightmapping: 4
  m_BounceIntensity: 1
  m_ShadowRadius: 0
  m_ShadowAngle: 0
  m_AreaSize: {x: 1, y: 1}
--- !u!108 &10881276
Light:
  m_ObjectHideFlags: 1
  m_PrefabParentObject: {fileID: 0}
  m_PrefabInternal: {fileID: 100100000}
  m_GameObject: {fileID: 120322}
  m_Enabled: 1
  serializedVersion: 6
  m_Type: 0
  m_Color: {r: 0.42647058, g: 0.9762677, b: 1, a: 1}
  m_Intensity: 4.34
  m_Range: 25.28
  m_SpotAngle: 12
  m_CookieSize: 10
  m_Shadows:
    m_Type: 0
    m_Resolution: -1
    m_Strength: 1
    m_Bias: 0.05
    m_NormalBias: 0.4
    m_NearPlane: 0.2
  m_Cookie: {fileID: 0}
  m_DrawHalo: 0
  m_Flare: {fileID: 0}
  m_RenderMode: 0
  m_CullingMask:
    serializedVersion: 2
    m_Bits: 4294967295
  m_Lightmapping: 4
  m_BounceIntensity: 1
  m_ShadowRadius: 0
  m_ShadowAngle: 0
  m_AreaSize: {x: 1, y: 1}
--- !u!137 &13744340
SkinnedMeshRenderer:
  m_ObjectHideFlags: 1
  m_PrefabParentObject: {fileID: 0}
  m_PrefabInternal: {fileID: 100100000}
  m_GameObject: {fileID: 195948}
  m_Enabled: 1
  m_CastShadows: 1
  m_ReceiveShadows: 1
  m_Materials:
  - {fileID: 2100000, guid: 57cd3cbfa632fd548aa5f752b812cd78, type: 2}
  m_SubsetIndices: 
  m_StaticBatchRoot: {fileID: 0}
  m_UseLightProbes: 1
  m_ReflectionProbeUsage: 1
  m_ProbeAnchor: {fileID: 0}
  m_ScaleInLightmap: 1
  m_PreserveUVs: 0
  m_IgnoreNormalsForChartDetection: 0
  m_ImportantGI: 0
  m_MinimumChartSize: 4
  m_AutoUVMaxDistance: 0.5
  m_AutoUVMaxAngle: 89
  m_LightmapParameters: {fileID: 0}
  m_SortingLayerID: 0
  m_SortingOrder: 0
  serializedVersion: 2
  m_Quality: 0
  m_UpdateWhenOffscreen: 0
  m_Mesh: {fileID: 4300000, guid: 26f2fbab3df6dec48ad8af134ef3a59a, type: 3}
  m_Bones:
  - {fileID: 463680}
  - {fileID: 412122}
  - {fileID: 478686}
  - {fileID: 469848}
  - {fileID: 411682}
  - {fileID: 422288}
  - {fileID: 455140}
  - {fileID: 489238}
  - {fileID: 400810}
  - {fileID: 494828}
  - {fileID: 432372}
  - {fileID: 402892}
  - {fileID: 446040}
  - {fileID: 435414}
  - {fileID: 448638}
  - {fileID: 417716}
  - {fileID: 408458}
  - {fileID: 427484}
  - {fileID: 485072}
  - {fileID: 465046}
  - {fileID: 409412}
  - {fileID: 415380}
  - {fileID: 491462}
  - {fileID: 455016}
  - {fileID: 400364}
  - {fileID: 414330}
  - {fileID: 440322}
  - {fileID: 456470}
  - {fileID: 431502}
  - {fileID: 449506}
  - {fileID: 400522}
  - {fileID: 457140}
  - {fileID: 493244}
  - {fileID: 473170}
  - {fileID: 460840}
  - {fileID: 467694}
  - {fileID: 409264}
  - {fileID: 425370}
  - {fileID: 491622}
  - {fileID: 433250}
  - {fileID: 482746}
  - {fileID: 408236}
  - {fileID: 476426}
  - {fileID: 464920}
  - {fileID: 483614}
  - {fileID: 490184}
  m_BlendShapeWeights: []
  m_RootBone: {fileID: 463680}
  m_AABB:
    m_Center: {x: -0.76797676, y: -2.9152799, z: 5.5837393}
    m_Extent: {x: 5.9150023, y: 7.5327563, z: 10.639823}
  m_DirtyAABB: 0
--- !u!1001 &100100000
Prefab:
  m_ObjectHideFlags: 1
  serializedVersion: 2
  m_Modification:
    m_TransformParent: {fileID: 0}
    m_Modifications: []
    m_RemovedComponents: []
  m_ParentPrefab: {fileID: 0}
  m_RootGameObject: {fileID: 146786}
  m_IsPrefabParent: 1
