%YAML 1.1
%TAG !u! tag:unity3d.com,2011:
--- !u!21 &2100000
Material:
  serializedVersion: 6
  m_ObjectHideFlags: 0
  m_PrefabParentObject: {fileID: 0}
  m_PrefabInternal: {fileID: 0}
  m_Name: hair_9
  m_Shader: {fileID: 4800000, guid: 235ca6f7bbc0ead4990f386a7ec24292, type: 3}
  m_ShaderKeywords: 
  m_LightmapFlags: 5
  m_CustomRenderQueue: -1
  stringTagMap: {}
  m_SavedProperties:
    serializedVersion: 2
    m_TexEnvs:
      data:
        first:
          name: _MainTex
        second:
          m_Texture: {fileID: 2800000, guid: 9d33a39d5bf42774fb4a5b9e8399bbfe, type: 3}
          m_Scale: {x: 1, y: 1}
          m_Offset: {x: 0, y: 0}
      data:
        first:
          name: _FalloffSampler
        second:
          m_Texture: {fileID: 2800000, guid: cc8f70f2ec571e9478efa98c041cde7b, type: 3}
          m_Scale: {x: 1, y: 1}
          m_Offset: {x: 0, y: 0}
      data:
        first:
          name: _RimLightSampler
        second:
          m_Texture: {fileID: 2800000, guid: a18067604964b5a4d8fd5552ed0d789e, type: 3}
          m_Scale: {x: 1, y: 1}
          m_Offset: {x: 0, y: 0}
      data:
        first:
          name: _SpecularReflectionSampler
        second:
          m_Texture: {fileID: 2800000, guid: c4271b2b1e8bfa949aa9230abaa7709e, type: 3}
          m_Scale: {x: 1, y: 1}
          m_Offset: {x: 0, y: 0}
      data:
        first:
          name: _EnvMapSampler
        second:
          m_Texture: {fileID: 2800000, guid: 763c5d30206d1d54a9b49b3309e37fe1, type: 3}
          m_Scale: {x: 1, y: 1}
          m_Offset: {x: 0, y: 0}
      data:
        first:
          name: _NormalMapSampler
        second:
          m_Texture: {fileID: 2800000, guid: 9eea3b9b4b755f64da2c821145616f44, type: 3}
          m_Scale: {x: 1, y: 1}
          m_Offset: {x: 0, y: 0}
    m_Floats:
      data:
        first:
          name: _EdgeThickness
        second: 0.5
      data:
        first:
          name: _FalloffPower
        second: 0.5
      data:
        first:
          name: _SpecularPower
        second: 20
    m_Colors:
      data:
        first:
          name: _Color
        second: {r: 1, g: 0.74264705, b: 0.74264705, a: 1}
      data:
        first:
          name: _ShadowColor
        second: {r: 1, g: 1, b: 1, a: 1}
