%YAML 1.1
%TAG !u! tag:unity3d.com,2011:
--- !u!21 &2100000
Material:
  serializedVersion: 6
  m_ObjectHideFlags: 0
  m_PrefabParentObject: {fileID: 0}
  m_PrefabInternal: {fileID: 0}
  m_Name: Rock13_A
  m_Shader: {fileID: 2, guid: 0000000000000000f000000000000000, type: 0}
  m_ShaderKeywords: 
  m_LightmapFlags: 5
  m_CustomRenderQueue: -1
  stringTagMap: {}
  m_SavedProperties:
    serializedVersion: 2
    m_TexEnvs:
      data:
        first:
          name: _MainTex
        second:
          m_Texture: {fileID: 2800000, guid: ae97def4e633e0a49a088f010a7f60b3, type: 3}
          m_Scale: {x: 5, y: 5}
          m_Offset: {x: 0, y: 0}
      data:
        first:
          name: _BumpMap
        second:
          m_Texture: {fileID: 2800000, guid: 4f81a94a81dd0e2498a68f5b81c375aa, type: 3}
          m_Scale: {x: 5, y: 5}
          m_Offset: {x: 0, y: 0}
    m_Floats:
      data:
        first:
          name: _Shininess
        second: 0.58014923
    m_Colors:
      data:
        first:
          name: _Color
        second: {r: 0.91791046, g: 0.91791046, b: 0.91791046, a: 1}
      data:
        first:
          name: _SpecColor
        second: {r: 0.22388059, g: 0.22388059, b: 0.22388059, a: 1}
--- !u!1002 &2100001
EditorExtensionImpl:
  serializedVersion: 6
