%YAML 1.1
%TAG !u! tag:unity3d.com,2011:
--- !u!21 &2100000
Material:
  serializedVersion: 6
  m_ObjectHideFlags: 0
  m_PrefabParentObject: {fileID: 0}
  m_PrefabInternal: {fileID: 0}
  m_Name: Rock16_A
  m_Shader: {fileID: 2, guid: 0000000000000000f000000000000000, type: 0}
  m_ShaderKeywords: 
  m_LightmapFlags: 5
  m_CustomRenderQueue: -1
  stringTagMap: {}
  m_SavedProperties:
    serializedVersion: 2
    m_TexEnvs:
      data:
        first:
          name: _MainTex
        second:
          m_Texture: {fileID: 2800000, guid: a6ca74911132ded4fb0d48d3be019b51, type: 3}
          m_Scale: {x: 5, y: 5}
          m_Offset: {x: 0, y: 0}
      data:
        first:
          name: _BumpMap
        second:
          m_Texture: {fileID: 2800000, guid: b287148da7e656c49997c914c78aeb09, type: 3}
          m_Scale: {x: 5, y: 5}
          m_Offset: {x: 0, y: 0}
    m_Floats:
      data:
        first:
          name: _Shininess
        second: 0.60910445
    m_Colors:
      data:
        first:
          name: _Color
        second: {r: 0.8, g: 0.8, b: 0.8, a: 1}
      data:
        first:
          name: _SpecColor
        second: {r: 0.1567164, g: 0.1613945, b: 0.1613945, a: 1}
--- !u!1002 &2100001
EditorExtensionImpl:
  serializedVersion: 6
