%YAML 1.1
%TAG !u! tag:unity3d.com,2011:
--- !u!74 &7400000
AnimationClip:
  m_ObjectHideFlags: 0
  m_PrefabParentObject: {fileID: 0}
  m_PrefabInternal: {fileID: 0}
  m_Name: leftHand_idle
  serializedVersion: 6
  m_Legacy: 0
  m_Compressed: 0
  m_UseHighQualityCurve: 1
  m_RotationCurves: []
  m_CompressedRotationCurves: []
  m_EulerCurves:
  - curve:
      serializedVersion: 2
      m_Curve:
      - time: 0
        value: {x: 347.9801, y: 268.8086, z: 50.1074}
        inSlope: {x: 0.04699707, y: -0.44677734, z: 2.1472454}
        outSlope: {x: 0.04699707, y: -0.44677734, z: 2.1472454}
        tangentMode: 0
      - time: 0.4
        value: {x: 347.9989, y: 268.62988, z: 50.966297}
        inSlope: {x: 0.007832846, y: -0.07446289, z: 0.35787427}
        outSlope: {x: 0.007832846, y: -0.07446289, z: 0.35787427}
        tangentMode: 0
      - time: 1
        value: {x: 347.9801, y: 268.8086, z: 50.1074}
        inSlope: {x: -0.01566569, y: 0.14892578, z: -0.7157484}
        outSlope: {x: -0.01566569, y: 0.14892578, z: -0.7157484}
        tangentMode: 0
      - time: 1.6333333
        value: {x: 347.9801, y: 268.8086, z: 50.1074}
        inSlope: {x: -1.4057125, y: -0.8764581, z: 0.108064555}
        outSlope: {x: -1.4057125, y: -0.8764581, z: 0.108064555}
        tangentMode: 0
      - time: 2.4
        value: {x: 345.82468, y: 267.4647, z: 50.273098}
        inSlope: {x: 0.3904761, y: 0.24346083, z: -0.030017965}
        outSlope: {x: 0.3904761, y: 0.24346083, z: -0.030017965}
        tangentMode: 0
      - time: 3
        value: {x: 347.9801, y: 268.8086, z: 50.1074}
        inSlope: {x: 3.5923772, y: 2.239838, z: -0.27616504}
        outSlope: {x: 3.5923772, y: 2.239838, z: -0.27616504}
        tangentMode: 0
      m_PreInfinity: 2
      m_PostInfinity: 2
      m_RotationOrder: 4
    path: 
  m_PositionCurves:
  - curve:
      serializedVersion: 2
      m_Curve:
      - time: 0
        value: {x: -0.4599994, y: -0.256, z: 0.752}
        inSlope: {x: 0.00000029802322, y: 0.000046417117, z: -0.0000023841858}
        outSlope: {x: 0.00000029802322, y: 0.000046417117, z: -0.0000023841858}
        tangentMode: 0
      - time: 0.4
        value: {x: -0.4599993, y: -0.25598145, z: 0.751999}
        inSlope: {x: 0.00000004967054, y: 0.000007736187, z: -0.00000039736432}
        outSlope: {x: 0.00000004967054, y: 0.000007736187, z: -0.00000039736432}
        tangentMode: 0
      - time: 1
        value: {x: -0.4599994, y: -0.256, z: 0.752}
        inSlope: {x: 0.014999035, y: -0.004515459, z: 0.000082155064}
        outSlope: {x: 0.014999035, y: -0.004515459, z: 0.000082155064}
        tangentMode: 0
      - time: 1.3333334
        value: {x: -0.45, y: -0.259, z: 0.7520542}
        inSlope: {x: -0.0016665757, y: 0.0004999996, z: -0.000009040057}
        outSlope: {x: -0.0016665757, y: 0.0004999996, z: -0.000009040057}
        tangentMode: 0
      - time: 1.6333333
        value: {x: -0.4599994, y: -0.256, z: 0.752}
        inSlope: {x: -0.012753417, y: 0.0115217585, z: -0.0008580564}
        outSlope: {x: -0.012753417, y: 0.0115217585, z: -0.0008580564}
        tangentMode: 0
      - time: 2.0166667
        value: {x: -0.457, y: -0.251, z: 0.75141144}
        inSlope: {x: 0.006520955, y: 0.0026087025, z: -0.0013043309}
        outSlope: {x: 0.006520955, y: 0.0026087025, z: -0.0013043309}
        tangentMode: 0
      - time: 2.4
        value: {x: -0.455, y: -0.254, z: 0.751}
        inSlope: {x: -0.0015575055, y: -0.00557974, z: 0.0002966479}
        outSlope: {x: -0.0015575055, y: -0.00557974, z: 0.0002966479}
        tangentMode: 0
      - time: 3
        value: {x: -0.4599994, y: -0.256, z: 0.752}
        inSlope: {x: -0.0083323335, y: -0.0033333406, z: 0.0016666455}
        outSlope: {x: -0.0083323335, y: -0.0033333406, z: 0.0016666455}
        tangentMode: 0
      m_PreInfinity: 2
      m_PostInfinity: 2
      m_RotationOrder: 4
    path: 
  m_ScaleCurves: []
  m_FloatCurves:
  - curve:
      serializedVersion: 2
      m_Curve:
      - time: 0
        value: 1
        inSlope: Infinity
        outSlope: Infinity
        tangentMode: 31
      m_PreInfinity: 2
      m_PostInfinity: 2
      m_RotationOrder: 4
    attribute: m_IsActive
    path: mesh_root
    classID: 1
    script: {fileID: 0}
  m_PPtrCurves: []
  m_SampleRate: 60
  m_WrapMode: 0
  m_Bounds:
    m_Center: {x: 0, y: 0, z: 0}
    m_Extent: {x: 0, y: 0, z: 0}
  m_ClipBindingConstant:
    genericBindings:
    - path: 0
      attribute: 1
      script: {fileID: 0}
      classID: 4
      customType: 0
      isPPtrCurve: 0
    - path: 0
      attribute: 4
      script: {fileID: 0}
      classID: 4
      customType: 14
      isPPtrCurve: 0
    - path: 1744495966
      attribute: 2086281974
      script: {fileID: 0}
      classID: 1
      customType: 0
      isPPtrCurve: 0
    pptrCurveMapping: []
  m_AnimationClipSettings:
    serializedVersion: 2
    m_AdditiveReferencePoseClip: {fileID: 0}
    m_AdditiveReferencePoseTime: 0
    m_StartTime: 0
    m_StopTime: 3
    m_OrientationOffsetY: 0
    m_Level: 0
    m_CycleOffset: 0
    m_HasAdditiveReferencePose: 0
    m_LoopTime: 1
    m_LoopBlend: 0
    m_LoopBlendOrientation: 0
    m_LoopBlendPositionY: 0
    m_LoopBlendPositionXZ: 0
    m_KeepOriginalOrientation: 0
    m_KeepOriginalPositionY: 1
    m_KeepOriginalPositionXZ: 0
    m_HeightFromFeet: 0
    m_Mirror: 0
  m_EditorCurves:
  - curve:
      serializedVersion: 2
      m_Curve:
      - time: 0
        value: -0.4599994
        inSlope: 0.00000029802322
        outSlope: 0.00000029802322
        tangentMode: 10
      - time: 0.4
        value: -0.4599993
        inSlope: 0.00000004967054
        outSlope: 0.00000004967054
        tangentMode: 10
      - time: 1
        value: -0.4599994
        inSlope: 0.014999035
        outSlope: 0.014999035
        tangentMode: 10
      - time: 1.3333334
        value: -0.45
        inSlope: -0.0016665757
        outSlope: -0.0016665757
        tangentMode: 10
      - time: 1.6333333
        value: -0.4599994
        inSlope: -0.012753417
        outSlope: -0.012753417
        tangentMode: 10
      - time: 2.0166667
        value: -0.457
        inSlope: 0.006520955
        outSlope: 0.006520955
        tangentMode: 10
      - time: 2.4
        value: -0.455
        inSlope: -0.0015575055
        outSlope: -0.0015575055
        tangentMode: 10
      - time: 3
        value: -0.4599994
        inSlope: -0.0083323335
        outSlope: -0.0083323335
        tangentMode: 10
      m_PreInfinity: 2
      m_PostInfinity: 2
      m_RotationOrder: 4
    attribute: m_LocalPosition.x
    path: 
    classID: 4
    script: {fileID: 0}
  - curve:
      serializedVersion: 2
      m_Curve:
      - time: 0
        value: -0.256
        inSlope: 0.000046417117
        outSlope: 0.000046417117
        tangentMode: 10
      - time: 0.4
        value: -0.25598145
        inSlope: 0.000007736187
        outSlope: 0.000007736187
        tangentMode: 10
      - time: 1
        value: -0.256
        inSlope: -0.004515459
        outSlope: -0.004515459
        tangentMode: 10
      - time: 1.3333334
        value: -0.259
        inSlope: 0.0004999996
        outSlope: 0.0004999996
        tangentMode: 10
      - time: 1.6333333
        value: -0.256
        inSlope: 0.0115217585
        outSlope: 0.0115217585
        tangentMode: 10
      - time: 2.0166667
        value: -0.251
        inSlope: 0.0026087025
        outSlope: 0.0026087025
        tangentMode: 10
      - time: 2.4
        value: -0.254
        inSlope: -0.00557974
        outSlope: -0.00557974
        tangentMode: 10
      - time: 3
        value: -0.256
        inSlope: -0.0033333406
        outSlope: -0.0033333406
        tangentMode: 10
      m_PreInfinity: 2
      m_PostInfinity: 2
      m_RotationOrder: 4
    attribute: m_LocalPosition.y
    path: 
    classID: 4
    script: {fileID: 0}
  - curve:
      serializedVersion: 2
      m_Curve:
      - time: 0
        value: 0.752
        inSlope: -0.0000023841858
        outSlope: -0.0000023841858
        tangentMode: 10
      - time: 0.4
        value: 0.751999
        inSlope: -0.00000039736432
        outSlope: -0.00000039736432
        tangentMode: 10
      - time: 1
        value: 0.752
        inSlope: 0.000082155064
        outSlope: 0.000082155064
        tangentMode: 10
      - time: 1.3333334
        value: 0.7520542
        inSlope: -0.000009040057
        outSlope: -0.000009040057
        tangentMode: 10
      - time: 1.6333333
        value: 0.752
        inSlope: -0.0008580564
        outSlope: -0.0008580564
        tangentMode: 10
      - time: 2.0166667
        value: 0.75141144
        inSlope: -0.0013043309
        outSlope: -0.0013043309
        tangentMode: 10
      - time: 2.4
        value: 0.751
        inSlope: 0.0002966479
        outSlope: 0.0002966479
        tangentMode: 10
      - time: 3
        value: 0.752
        inSlope: 0.0016666455
        outSlope: 0.0016666455
        tangentMode: 10
      m_PreInfinity: 2
      m_PostInfinity: 2
      m_RotationOrder: 4
    attribute: m_LocalPosition.z
    path: 
    classID: 4
    script: {fileID: 0}
  - curve:
      serializedVersion: 2
      m_Curve:
      - time: 0
        value: 347.9801
        inSlope: 0.04699707
        outSlope: 0.04699707
        tangentMode: 10
      - time: 0.4
        value: 347.9989
        inSlope: 0.007832846
        outSlope: 0.007832846
        tangentMode: 10
      - time: 1
        value: 347.9801
        inSlope: -0.01566569
        outSlope: -0.01566569
        tangentMode: 10
      - time: 1.6333333
        value: 347.9801
        inSlope: -1.4057125
        outSlope: -1.4057125
        tangentMode: 10
      - time: 2.4
        value: 345.82468
        inSlope: 0.3904761
        outSlope: 0.3904761
        tangentMode: 10
      - time: 3
        value: 347.9801
        inSlope: 3.5923772
        outSlope: 3.5923772
        tangentMode: 10
      m_PreInfinity: 2
      m_PostInfinity: 2
      m_RotationOrder: 4
    attribute: localEulerAnglesRaw.x
    path: 
    classID: 4
    script: {fileID: 0}
  - curve:
      serializedVersion: 2
      m_Curve:
      - time: 0
        value: 268.8086
        inSlope: -0.44677734
        outSlope: -0.44677734
        tangentMode: 10
      - time: 0.4
        value: 268.62988
        inSlope: -0.07446289
        outSlope: -0.07446289
        tangentMode: 10
      - time: 1
        value: 268.8086
        inSlope: 0.14892578
        outSlope: 0.14892578
        tangentMode: 10
      - time: 1.6333333
        value: 268.8086
        inSlope: -0.8764581
        outSlope: -0.8764581
        tangentMode: 10
      - time: 2.4
        value: 267.4647
        inSlope: 0.24346083
        outSlope: 0.24346083
        tangentMode: 10
      - time: 3
        value: 268.8086
        inSlope: 2.239838
        outSlope: 2.239838
        tangentMode: 10
      m_PreInfinity: 2
      m_PostInfinity: 2
      m_RotationOrder: 4
    attribute: localEulerAnglesRaw.y
    path: 
    classID: 4
    script: {fileID: 0}
  - curve:
      serializedVersion: 2
      m_Curve:
      - time: 0
        value: 50.1074
        inSlope: 2.1472454
        outSlope: 2.1472454
        tangentMode: 10
      - time: 0.4
        value: 50.966297
        inSlope: 0.35787427
        outSlope: 0.35787427
        tangentMode: 10
      - time: 1
        value: 50.1074
        inSlope: -0.7157484
        outSlope: -0.7157484
        tangentMode: 10
      - time: 1.6333333
        value: 50.1074
        inSlope: 0.108064555
        outSlope: 0.108064555
        tangentMode: 10
      - time: 2.4
        value: 50.273098
        inSlope: -0.030017965
        outSlope: -0.030017965
        tangentMode: 10
      - time: 3
        value: 50.1074
        inSlope: -0.27616504
        outSlope: -0.27616504
        tangentMode: 10
      m_PreInfinity: 2
      m_PostInfinity: 2
      m_RotationOrder: 4
    attribute: localEulerAnglesRaw.z
    path: 
    classID: 4
    script: {fileID: 0}
  - curve:
      serializedVersion: 2
      m_Curve:
      - time: 0
        value: 1
        inSlope: Infinity
        outSlope: Infinity
        tangentMode: 31
      m_PreInfinity: 2
      m_PostInfinity: 2
      m_RotationOrder: 4
    attribute: m_IsActive
    path: mesh_root
    classID: 1
    script: {fileID: 0}
  m_EulerEditorCurves:
  - curve:
      serializedVersion: 2
      m_Curve: []
      m_PreInfinity: 2
      m_PostInfinity: 2
      m_RotationOrder: 4
    attribute: m_LocalEulerAngles.x
    path: 
    classID: 4
    script: {fileID: 0}
  - curve:
      serializedVersion: 2
      m_Curve: []
      m_PreInfinity: 2
      m_PostInfinity: 2
      m_RotationOrder: 4
    attribute: m_LocalEulerAngles.y
    path: 
    classID: 4
    script: {fileID: 0}
  - curve:
      serializedVersion: 2
      m_Curve: []
      m_PreInfinity: 2
      m_PostInfinity: 2
      m_RotationOrder: 4
    attribute: m_LocalEulerAngles.z
    path: 
    classID: 4
    script: {fileID: 0}
  m_HasGenericRootTransform: 1
  m_HasMotionFloatCurves: 0
  m_GenerateMotionCurves: 0
  m_Events: []
