%YAML 1.1
%TAG !u! tag:unity3d.com,2011:
--- !u!74 &7400000
AnimationClip:
  m_ObjectHideFlags: 0
  m_PrefabParentObject: {fileID: 0}
  m_PrefabInternal: {fileID: 0}
  m_Name: Mushroom_idle
  serializedVersion: 6
  m_Legacy: 0
  m_Compressed: 0
  m_UseHighQualityCurve: 1
  m_RotationCurves:
  - curve:
      serializedVersion: 2
      m_Curve:
      - time: 0
        value: {x: -0.6826486, y: 0.02195061, z: -0.010572978, w: 0.73034054}
        inSlope: {x: 0, y: 0, z: 0, w: 0}
        outSlope: {x: 0, y: 0, z: 0, w: 0}
        tangentMode: 0
      - time: 0.041666668
        value: {x: -0.6826486, y: 0.02195061, z: -0.010572978, w: 0.73034054}
        inSlope: {x: 0, y: 0, z: 0, w: 0}
        outSlope: {x: 0, y: 0, z: 0, w: 0}
        tangentMode: 0
      m_PreInfinity: 2
      m_PostInfinity: 2
      m_RotationOrder: 4
    path: metarig
  - curve:
      serializedVersion: 2
      m_Curve:
      - time: 0
        value: {x: -0.48762733, y: -0.5104606, z: 0.5086225, w: -0.4929023}
        inSlope: {x: 0.31853843, y: -0.31839323, z: -0.3222499, w: -0.30112624}
        outSlope: {x: 0.31853843, y: -0.31839323, z: -0.3222499, w: -0.30112624}
        tangentMode: 0
      - time: 0.041666668
        value: {x: -0.4743549, y: -0.523727, z: 0.49519545, w: -0.50544924}
        inSlope: {x: 0.6839347, y: -0.6260655, z: -0.68320763, w: -0.5915333}
        outSlope: {x: 0.6839347, y: -0.6260655, z: -0.68320763, w: -0.5915333}
        tangentMode: 0
      - time: 0.125
        value: {x: -0.3565457, y: -0.61527735, z: 0.3796208, w: -0.5917746}
        inSlope: {x: 1.9625158, y: -1.189328, z: -1.8777616, w: -1.1172838}
        outSlope: {x: 1.9625158, y: -1.189328, z: -1.8777616, w: -1.1172838}
        tangentMode: 0
      - time: 0.16666667
        value: {x: -0.26708978, y: -0.6617434, z: 0.29520842, w: -0.63530374}
        inSlope: {x: 2.0916443, y: -0.9208423, z: -1.9322202, w: -0.85966504}
        outSlope: {x: 2.0916443, y: -0.9208423, z: -1.9322202, w: -0.85966504}
        tangentMode: 0
      - time: 0.25
        value: {x: -0.08920223, y: -0.7105506, z: 0.14320673, w: -0.6831198}
        inSlope: {x: 2.4371483, y: -0.2904704, z: -1.8839605, w: -0.3770857}
        outSlope: {x: 2.4371483, y: -0.2904704, z: -1.8839605, w: -0.3770857}
        tangentMode: 0
      - time: 0.2916667
        value: {x: 0.020853767, y: -0.7162201, z: 0.061605692, w: -0.69483715}
        inSlope: {x: 2.502701, y: 0.014747195, z: -1.8588576, w: -0.13785619}
        outSlope: {x: 2.502701, y: 0.014747195, z: -1.8588576, w: -0.13785619}
        tangentMode: 0
      - time: 0.33333334
        value: {x: 0.11935622, y: -0.7093217, z: -0.011698087, w: -0.6946078}
        inSlope: {x: 2.0437331, y: 0.21977383, z: -1.5981206, w: 0.10022809}
        outSlope: {x: 2.0437331, y: 0.21977383, z: -1.5981206, w: 0.10022809}
        tangentMode: 0
      - time: 0.4166667
        value: {x: 0.25313836, y: -0.6830436, z: -0.1290967, w: -0.67283463}
        inSlope: {x: 1.5500009, y: 0.4519014, z: -1.4501467, w: 0.41995597}
        outSlope: {x: 1.5500009, y: 0.4519014, z: -1.4501467, w: 0.41995597}
        tangentMode: 0
      - time: 0.5416667
        value: {x: 0.4624385, y: -0.58439916, z: -0.33026177, w: -0.57927144}
        inSlope: {x: 1.6651564, y: 1.1606908, z: -1.6539176, w: 1.1126013}
        outSlope: {x: 1.6651564, y: 1.1606908, z: -1.6539176, w: 1.1126013}
        tangentMode: 0
      - time: 0.625
        value: {x: 0.58913386, y: -0.47033018, z: -0.45976868, w: -0.4693864}
        inSlope: {x: 1.2886952, y: 1.4900533, z: -1.3642442, w: 1.4407742}
        outSlope: {x: 1.2886952, y: 1.4900533, z: -1.3642442, w: 1.4407742}
        tangentMode: 0
      - time: 0.75
        value: {x: 0.6999841, y: -0.28755015, z: -0.58489114, w: -0.29195815}
        inSlope: {x: 0.5296578, y: 1.2996451, z: -0.65853333, w: 1.2653843}
        outSlope: {x: 0.5296578, y: 1.2996451, z: -0.65853333, w: 1.2653843}
        tangentMode: 0
      - time: 0.8333334
        value: {x: 0.73202163, y: -0.18236834, z: -0.6285041, w: -0.18939047}
        inSlope: {x: 0.30218345, y: 1.486813, z: -0.48181355, w: 1.4520762}
        outSlope: {x: 0.30218345, y: 1.486813, z: -0.48181355, w: 1.4520762}
        tangentMode: 0
      - time: 0.9583334
        value: {x: 0.73529583, y: 0.08212042, z: -0.6691359, w: 0.06966634}
        inSlope: {x: -0.5142477, y: 2.66322, z: 0.0797898, w: 2.6165912}
        outSlope: {x: -0.5142477, y: 2.66322, z: 0.0797898, w: 2.6165912}
        tangentMode: 0
      - time: 1
        value: {x: 0.703675, y: 0.1977206, z: -0.6573585, w: 0.183379}
        inSlope: {x: -0.9810032, y: 2.692596, z: 0.4931175, w: 2.6521902}
        outSlope: {x: -0.9810032, y: 2.692596, z: 0.4931175, w: 2.6521902}
        tangentMode: 0
      - time: 1.0416667
        value: {x: 0.6535455, y: 0.3065035, z: -0.62804276, w: 0.2906823}
        inSlope: {x: -1.2853827, y: 2.3484688, z: 0.81487846, w: 2.3194616}
        outSlope: {x: -1.2853827, y: 2.3484688, z: 0.81487846, w: 2.3194616}
        tangentMode: 0
      - time: 1.1666667
        value: {x: 0.5151558, y: 0.48513356, z: -0.52964705, w: 0.46768993}
        inSlope: {x: -0.5144228, y: 0.5158597, z: 0.3871875, w: 0.5128052}
        outSlope: {x: -0.5144228, y: 0.5158597, z: 0.3871875, w: 0.5128052}
        tangentMode: 0
      - time: 1.2083334
        value: {x: 0.50431514, y: 0.4953983, z: -0.5213983, w: 0.47790223}
        inSlope: {x: -0.26017594, y: 0.24635434, z: 0.1979701, w: 0.24509549}
        outSlope: {x: -0.26017594, y: 0.24635434, z: 0.1979701, w: 0.24509549}
        tangentMode: 0
      m_PreInfinity: 2
      m_PostInfinity: 2
      m_RotationOrder: 4
    path: metarig/hips
  - curve:
      serializedVersion: 2
      m_Curve:
      - time: 0
        value: {x: -0.0051860283, y: 0.43661624, z: 0.018903535, w: 0.89943427}
        inSlope: {x: 0, y: 0, z: 0, w: 0}
        outSlope: {x: 0, y: 0, z: 0, w: 0}
        tangentMode: 0
      - time: 1.2083334
        value: {x: -0.0051860283, y: 0.43661624, z: 0.018903535, w: 0.89943427}
        inSlope: {x: 0, y: 0, z: 0, w: 0}
        outSlope: {x: 0, y: 0, z: 0, w: 0}
        tangentMode: 0
      m_PreInfinity: 2
      m_PostInfinity: 2
      m_RotationOrder: 4
    path: metarig/hips/spine
  - curve:
      serializedVersion: 2
      m_Curve:
      - time: 0
        value: {x: -0.007818538, y: -0.44624832, z: 0.00041092618, w: 0.89487493}
        inSlope: {x: 0.005145628, y: -0.0010635853, z: -0.012544454, w: -0.00048351288}
        outSlope: {x: 0.005145628, y: -0.0010635853, z: -0.012544454, w: -0.00048351288}
        tangentMode: 0
      - time: 0.20833334
        value: {x: -0.0017488018, y: -0.45324028, z: -0.010551546, w: 0.8913242}
        inSlope: {x: 0.05663596, y: -0.16000953, z: -0.08100889, w: -0.083068386}
        outSlope: {x: 0.05663596, y: -0.16000953, z: -0.08100889, w: -0.083068386}
        tangentMode: 0
      - time: 0.375
        value: {x: 0.00866925, y: -0.50929415, z: -0.024778005, w: 0.86019206}
        inSlope: {x: -0.031600036, y: -0.08054712, z: -0.033621956, w: -0.047970783}
        outSlope: {x: -0.031600036, y: -0.08054712, z: -0.033621956, w: -0.047970783}
        tangentMode: 0
      - time: 0.5833334
        value: {x: -0.07468527, y: -0.5007135, z: -0.056124415, w: 0.8605569}
        inSlope: {x: -0.6435946, y: 0.09440842, z: -0.24111664, w: -0.01667548}
        outSlope: {x: -0.6435946, y: 0.09440842, z: -0.24111664, w: -0.01667548}
        tangentMode: 0
      - time: 0.8333334
        value: {x: -0.15409806, y: -0.47582072, z: -0.08504036, w: 0.86175203}
        inSlope: {x: 0.15846965, y: 0.080976985, z: 0.09261316, w: 0.08128956}
        outSlope: {x: 0.15846965, y: 0.080976985, z: 0.09261316, w: 0.08128956}
        tangentMode: 0
      - time: 1.0833334
        value: {x: -0.037413687, y: -0.45173833, z: -0.016867153, w: 0.8912061}
        inSlope: {x: 0.4511751, y: 0.08243902, z: 0.26344925, w: 0.067511626}
        outSlope: {x: 0.4511751, y: 0.08243902, z: 0.26344925, w: 0.067511626}
        tangentMode: 0
      - time: 1.2083334
        value: {x: -0.007818534, y: -0.44624832, z: 0.0004109285, w: 0.89487493}
        inSlope: {x: 0.079635866, y: 0.014856591, z: 0.046486698, w: 0.00828696}
        outSlope: {x: 0.079635866, y: 0.014856591, z: 0.046486698, w: 0.00828696}
        tangentMode: 0
      m_PreInfinity: 2
      m_PostInfinity: 2
      m_RotationOrder: 4
    path: metarig/hips/spine/chest
  - curve:
      serializedVersion: 2
      m_Curve:
      - time: 0
        value: {x: 0.035961915, y: 0.08483944, z: 0.025343217, w: 0.9954229}
        inSlope: {x: 0.00000008940697, y: 0, z: 0, w: 0}
        outSlope: {x: 0.00000008940697, y: 0, z: 0, w: 0}
        tangentMode: 0
      - time: 0.625
        value: {x: 0.035076585, y: 0.08945744, z: 0.037580855, w: 0.9946631}
        inSlope: {x: -0.004882516, y: 0.02534125, z: 0.06724581, w: -0.004634143}
        outSlope: {x: -0.004882516, y: 0.02534125, z: 0.06724581, w: -0.004634143}
        tangentMode: 0
      - time: 1.2083334
        value: {x: 0.035961907, y: 0.08483943, z: 0.02534322, w: 0.9954229}
        inSlope: {x: 0.0007099814, y: -0.0037246977, z: -0.009855563, w: 0.0005450254}
        outSlope: {x: 0.0007099814, y: -0.0037246977, z: -0.009855563, w: 0.0005450254}
        tangentMode: 0
      m_PreInfinity: 2
      m_PostInfinity: 2
      m_RotationOrder: 4
    path: metarig/hips/spine/chest/neck
  - curve:
      serializedVersion: 2
      m_Curve:
      - time: 0
        value: {x: -0.05755688, y: -0.023613717, z: -0.05811802, w: 0.99636936}
        inSlope: {x: -0.01310572, y: 0.038117096, z: 0.05905938, w: 0.003484726}
        outSlope: {x: -0.01310572, y: 0.038117096, z: 0.05905938, w: 0.003484726}
        tangentMode: 0
      - time: 0.25
        value: {x: -0.06282901, y: -0.008208069, z: -0.034240376, w: 0.997403}
        inSlope: {x: 0.036577318, y: -0.107295774, z: -0.16634668, w: -0.0050461274}
        outSlope: {x: 0.036577318, y: -0.107295774, z: -0.16634668, w: -0.0050461274}
        tangentMode: 0
      - time: 0.375
        value: {x: -0.057556868, y: -0.023613712, z: -0.058118023, w: 0.99636936}
        inSlope: {x: 0.0101917265, y: -0.029650867, z: -0.045942273, w: -0.0026643283}
        outSlope: {x: 0.0101917265, y: -0.029650867, z: -0.045942273, w: -0.0026643283}
        tangentMode: 0
      - time: 0.875
        value: {x: -0.057556875, y: -0.023613716, z: -0.05811802, w: 0.99636936}
        inSlope: {x: -0.00000022351745, y: 0.00000008940696, z: 0, w: 0}
        outSlope: {x: -0.00000022351745, y: 0.00000008940696, z: 0, w: 0}
        tangentMode: 0
      - time: 1.2083334
        value: {x: -0.057556875, y: -0.023613714, z: -0.058118016, w: 0.99636936}
        inSlope: {x: 0.00000008940705, y: -0.000000044703526, z: 0, w: 0}
        outSlope: {x: 0.00000008940705, y: -0.000000044703526, z: 0, w: 0}
        tangentMode: 0
      m_PreInfinity: 2
      m_PostInfinity: 2
      m_RotationOrder: 4
    path: metarig/hips/spine/chest/neck/head
  - curve:
      serializedVersion: 2
      m_Curve:
      - time: 0
        value: {x: -0.2764739, y: -0.52947354, z: 0.5551197, w: 0.5788456}
        inSlope: {x: 0, y: 0, z: 0, w: 0}
        outSlope: {x: 0, y: 0, z: 0, w: 0}
        tangentMode: 0
      - time: 1.2083334
        value: {x: -0.2764739, y: -0.52947354, z: 0.5551197, w: 0.5788456}
        inSlope: {x: 0, y: 0, z: 0, w: 0}
        outSlope: {x: 0, y: 0, z: 0, w: 0}
        tangentMode: 0
      m_PreInfinity: 2
      m_PostInfinity: 2
      m_RotationOrder: 4
    path: metarig/hips/spine/chest/shoulder_L
  - curve:
      serializedVersion: 2
      m_Curve:
      - time: 0
        value: {x: 0.7091093, y: -0.22912015, z: -0.03254783, w: 0.6660395}
        inSlope: {x: -0.11856365, y: -0.024187446, z: 0.37028784, w: 0.130723}
        outSlope: {x: -0.11856365, y: -0.024187446, z: 0.37028784, w: 0.130723}
        tangentMode: 0
      - time: 0.041666668
        value: {x: 0.70416915, y: -0.23012796, z: -0.017119171, w: 0.6714863}
        inSlope: {x: -0.24035382, y: -0.041912556, z: 0.7090136, w: 0.237427}
        outSlope: {x: -0.24035382, y: -0.041912556, z: 0.7090136, w: 0.237427}
        tangentMode: 0
      - time: 0.125
        value: {x: 0.6672759, y: -0.23500852, z: 0.08263507, w: 0.70191544}
        inSlope: {x: -0.486341, y: -0.043515265, z: 1.1933625, w: 0.32046962}
        outSlope: {x: -0.486341, y: -0.043515265, z: 1.1933625, w: 0.32046962}
        tangentMode: 0
      - time: 0.25
        value: {x: 0.6489774, y: -0.23602505, z: 0.12293766, w: 0.7127461}
        inSlope: {x: 0.33117834, y: 0.028330913, z: -0.8400192, w: -0.170906}
        outSlope: {x: 0.33117834, y: 0.028330913, z: -0.8400192, w: -0.170906}
        tangentMode: 0
      - time: 0.33333334
        value: {x: 0.69210774, y: -0.23130047, z: 0.0098276185, w: 0.68365955}
        inSlope: {x: 0.4793223, y: 0.06072773, z: -1.2454275, w: -0.42723235}
        outSlope: {x: 0.4793223, y: 0.06072773, z: -1.2454275, w: -0.42723235}
        tangentMode: 0
      - time: 0.45833334
        value: {x: 0.7383168, y: -0.22682233, z: -0.08542284, w: 0.62939894}
        inSlope: {x: 0.37191162, y: 0.023645824, z: -0.5733174, w: -0.50543916}
        outSlope: {x: 0.37191162, y: 0.023645824, z: -0.5733174, w: -0.50543916}
        tangentMode: 0
      - time: 0.7916667
        value: {x: 0.8207268, y: -0.22385517, z: -0.16808496, w: 0.49804}
        inSlope: {x: -0.007016655, y: -0.0030577169, z: 0.027301658, w: 0.019157402}
        outSlope: {x: -0.007016655, y: -0.0030577169, z: 0.027301658, w: 0.019157402}
        tangentMode: 0
      - time: 1
        value: {x: 0.7706359, y: -0.22817889, z: -0.10106696, w: 0.586379}
        inSlope: {x: -0.4334376, y: -0.02044719, z: 0.5263543, w: 0.65239877}
        outSlope: {x: -0.4334376, y: -0.02044719, z: 0.5263543, w: 0.65239877}
        tangentMode: 0
      - time: 1.1666667
        value: {x: 0.71204084, y: -0.2291502, z: -0.035575572, w: 0.66273856}
        inSlope: {x: -0.13981374, y: 0.0009716741, z: 0.14586698, w: 0.16048317}
        outSlope: {x: -0.13981374, y: 0.0009716741, z: 0.14586698, w: 0.16048317}
        tangentMode: 0
      - time: 1.2083334
        value: {x: 0.7091093, y: -0.22912017, z: -0.03254783, w: 0.6660395}
        inSlope: {x: -0.07035691, y: 0.0007209785, z: 0.07266585, w: 0.07922323}
        outSlope: {x: -0.07035691, y: 0.0007209785, z: 0.07266585, w: 0.07922323}
        tangentMode: 0
      m_PreInfinity: 2
      m_PostInfinity: 2
      m_RotationOrder: 4
    path: metarig/hips/spine/chest/shoulder_L/upper_arm_L
  - curve:
      serializedVersion: 2
      m_Curve:
      - time: 0
        value: {x: -0.06690676, y: 0.13788588, z: -0.028936563, w: 0.9877619}
        inSlope: {x: 0, y: 0, z: 0, w: 0}
        outSlope: {x: 0, y: 0, z: 0, w: 0}
        tangentMode: 0
      - time: 1.2083334
        value: {x: -0.06690676, y: 0.13788588, z: -0.028936563, w: 0.9877619}
        inSlope: {x: 0, y: 0, z: 0, w: 0}
        outSlope: {x: 0, y: 0, z: 0, w: 0}
        tangentMode: 0
      m_PreInfinity: 2
      m_PostInfinity: 2
      m_RotationOrder: 4
    path: metarig/hips/spine/chest/shoulder_L/upper_arm_L/forearm_L
  - curve:
      serializedVersion: 2
      m_Curve:
      - time: 0
        value: {x: 0.6647478, y: -0.087602146, z: 0.34280577, w: 0.6579669}
        inSlope: {x: 0, y: 0, z: 0, w: 0}
        outSlope: {x: 0, y: 0, z: 0, w: 0}
        tangentMode: 0
      - time: 1.2083334
        value: {x: 0.6647478, y: -0.087602146, z: 0.34280577, w: 0.6579669}
        inSlope: {x: 0, y: 0, z: 0, w: 0}
        outSlope: {x: 0, y: 0, z: 0, w: 0}
        tangentMode: 0
      m_PreInfinity: 2
      m_PostInfinity: 2
      m_RotationOrder: 4
    path: metarig/hips/spine/chest/shoulder_L/upper_arm_L/forearm_L/hand_L
  - curve:
      serializedVersion: 2
      m_Curve:
      - time: 0
        value: {x: 0.28103676, y: -0.53528154, z: -0.5678326, w: 0.5586217}
        inSlope: {x: 0, y: 0, z: 0, w: 0}
        outSlope: {x: 0, y: 0, z: 0, w: 0}
        tangentMode: 0
      - time: 1.2083334
        value: {x: 0.28103676, y: -0.53528154, z: -0.5678326, w: 0.5586217}
        inSlope: {x: 0, y: 0, z: 0, w: 0}
        outSlope: {x: 0, y: 0, z: 0, w: 0}
        tangentMode: 0
      m_PreInfinity: 2
      m_PostInfinity: 2
      m_RotationOrder: 4
    path: metarig/hips/spine/chest/shoulder_R
  - curve:
      serializedVersion: 2
      m_Curve:
      - time: 0
        value: {x: -0.71313, y: -0.18093325, z: 0.09676848, w: 0.67033184}
        inSlope: {x: 0.0015678406, y: -0.10153341, z: -0.33003938, w: 0.018188953}
        outSlope: {x: 0.0015678406, y: -0.10153341, z: -0.33003938, w: 0.018188953}
        tangentMode: 0
      - time: 0.041666668
        value: {x: -0.7130647, y: -0.18516381, z: 0.08301684, w: 0.6710897}
        inSlope: {x: 0.012582779, y: -0.19161093, z: -0.6322061, w: 0.025753498}
        outSlope: {x: 0.012582779, y: -0.19161093, z: -0.6322061, w: 0.025753498}
        tangentMode: 0
      - time: 0.125
        value: {x: -0.7090835, y: -0.21151242, z: -0.0060944105, w: 0.6726262}
        inSlope: {x: 0.08004141, y: -0.30681252, z: -1.0700549, w: -0.012113569}
        outSlope: {x: 0.08004141, y: -0.30681252, z: -1.0700549, w: -0.012113569}
        tangentMode: 0
      - time: 0.25
        value: {x: -0.70566, y: -0.2219249, z: -0.042733982, w: 0.671541}
        inSlope: {x: -0.071037754, y: 0.20415092, z: 0.74175096, w: 0.022313114}
        outSlope: {x: -0.071037754, y: 0.20415092, z: 0.74175096, w: 0.022313114}
        tangentMode: 0
      - time: 0.33333334
        value: {x: -0.7125462, y: -0.19319144, z: 0.057696152, w: 0.67203134}
        inSlope: {x: -0.04054428, y: 0.33975905, z: 1.1259344, w: -0.027838476}
        outSlope: {x: -0.04054428, y: 0.33975905, z: 1.1259344, w: -0.027838476}
        tangentMode: 0
      - time: 0.5
        value: {x: -0.7060347, y: -0.15118767, z: 0.1752881, w: 0.6692768}
        inSlope: {x: 0.1066017, y: 0.24630007, z: 0.56955487, w: 0.01984691}
        outSlope: {x: 0.1066017, y: 0.24630007, z: 0.56955487, w: 0.01984691}
        tangentMode: 0
      - time: 0.8333334
        value: {x: -0.67954785, y: -0.11040569, z: 0.25389987, w: 0.67938226}
        inSlope: {x: -0.047603875, y: -0.078782424, z: -0.16748457, w: 0.0010499958}
        outSlope: {x: -0.047603875, y: -0.078782424, z: -0.16748457, w: 0.0010499958}
        tangentMode: 0
      - time: 1.0833334
        value: {x: -0.7081165, y: -0.16711457, z: 0.1287999, w: 0.6738356}
        inSlope: {x: -0.08445605, y: -0.21275643, z: -0.48740855, w: -0.04592304}
        outSlope: {x: -0.08445605, y: -0.21275643, z: -0.48740855, w: -0.04592304}
        tangentMode: 0
      - time: 1.2083334
        value: {x: -0.71313, y: -0.18093325, z: 0.09676847, w: 0.67033184}
        inSlope: {x: -0.012418282, y: -0.036902223, z: -0.08630677, w: -0.010427008}
        outSlope: {x: -0.012418282, y: -0.036902223, z: -0.08630677, w: -0.010427008}
        tangentMode: 0
      m_PreInfinity: 2
      m_PostInfinity: 2
      m_RotationOrder: 4
    path: metarig/hips/spine/chest/shoulder_R/upper_arm_R
  - curve:
      serializedVersion: 2
      m_Curve:
      - time: 0
        value: {x: 0.044891726, y: 0.091720566, z: -0.037134733, w: 0.99407905}
        inSlope: {x: 0.0059921443, y: -0.028787613, z: -0.015282154, w: 0.0017910004}
        outSlope: {x: 0.0059921443, y: -0.028787613, z: -0.015282154, w: 0.0017910004}
        tangentMode: 0
      - time: 0.2916667
        value: {x: 0.046819225, y: 0.083278075, z: -0.04160468, w: 0.99455607}
        inSlope: {x: -0.01953578, y: 0.10174029, z: 0.054006275, w: -0.0054059024}
        outSlope: {x: -0.01953578, y: 0.10174029, z: 0.054006275, w: -0.0054059024}
        tangentMode: 0
      - time: 1
        value: {x: 0.03943553, y: 0.10373395, z: -0.030893205, w: 0.9933427}
        inSlope: {x: 0.042133547, y: -0.09261127, z: -0.048185907, w: 0.0065002413}
        outSlope: {x: 0.042133547, y: -0.09261127, z: -0.048185907, w: 0.0065002413}
        tangentMode: 0
      - time: 1.2083334
        value: {x: 0.044891734, y: 0.09172056, z: -0.03713473, w: 0.99407905}
        inSlope: {x: 0.0058013555, y: -0.012792361, z: -0.0066375798, w: 0.00067663257}
        outSlope: {x: 0.0058013555, y: -0.012792361, z: -0.0066375798, w: 0.00067663257}
        tangentMode: 0
      m_PreInfinity: 2
      m_PostInfinity: 2
      m_RotationOrder: 4
    path: metarig/hips/spine/chest/shoulder_R/upper_arm_R/forearm_R
  - curve:
      serializedVersion: 2
      m_Curve:
      - time: 0
        value: {x: -0.6664622, y: 0.009214155, z: -0.19755957, w: 0.71882784}
        inSlope: {x: 0, y: 0, z: 0, w: 0}
        outSlope: {x: 0, y: 0, z: 0, w: 0}
        tangentMode: 0
      - time: 1.2083334
        value: {x: -0.6664622, y: 0.009214155, z: -0.19755957, w: 0.71882784}
        inSlope: {x: 0, y: 0, z: 0, w: 0}
        outSlope: {x: 0, y: 0, z: 0, w: 0}
        tangentMode: 0
      m_PreInfinity: 2
      m_PostInfinity: 2
      m_RotationOrder: 4
    path: metarig/hips/spine/chest/shoulder_R/upper_arm_R/forearm_R/hand_R
  - curve:
      serializedVersion: 2
      m_Curve:
      - time: 0
        value: {x: 0.005726102, y: 0.8704246, z: 0.049271945, w: -0.48979643}
        inSlope: {x: -0.09124983, y: 0.626009, z: 0.13760743, w: 1.204839}
        outSlope: {x: -0.09124983, y: 0.626009, z: 0.13760743, w: 1.204839}
        tangentMode: 0
      - time: 0.041666668
        value: {x: 0.0019240252, y: 0.89650834, z: 0.055005588, w: -0.4395948}
        inSlope: {x: -0.18359032, y: 1.0317771, z: 0.25929868, w: 2.4798017}
        outSlope: {x: -0.18359032, y: 1.0317771, z: 0.25929868, w: 2.4798017}
        tangentMode: 0
      - time: 0.083333336
        value: {x: -0.009573094, y: 0.95640606, z: 0.07088017, w: -0.2831463}
        inSlope: {x: -0.31966788, y: 1.1661222, z: 0.40478426, w: 4.5063343}
        outSlope: {x: -0.31966788, y: 1.1661222, z: 0.40478426, w: 4.5063343}
        tangentMode: 0
      - time: 0.125
        value: {x: -0.024714964, y: 0.9936852, z: 0.08873761, w: -0.06406696}
        inSlope: {x: -0.31323218, y: 0.39215901, z: 0.3398637, w: 4.6329527}
        outSlope: {x: -0.31323218, y: 0.39215901, z: 0.3398637, w: 4.6329527}
        tangentMode: 0
      - time: 0.16666667
        value: {x: -0.035675775, y: 0.989086, z: 0.09920214, w: 0.10293313}
        inSlope: {x: -0.18084562, y: -0.14962575, z: 0.15916298, w: 2.6747794}
        outSlope: {x: -0.18084562, y: -0.14962575, z: 0.15916298, w: 2.6747794}
        tangentMode: 0
      - time: 0.20833334
        value: {x: -0.039785434, y: 0.9812164, z: 0.10200119, w: 0.15883137}
        inSlope: {x: -0.059265416, y: -0.094714865, z: 0.030887153, w: 0.67171884}
        outSlope: {x: -0.059265416, y: -0.094714865, z: 0.030887153, w: 0.67171884}
        tangentMode: 0
      - time: 0.25
        value: {x: -0.04061456, y: 0.98119307, z: 0.10177607, w: 0.15890971}
        inSlope: {x: -0.014479414, y: 0.0005335803, z: -0.012957212, w: 0.0012960434}
        outSlope: {x: -0.014479414, y: 0.0005335803, z: -0.012957212, w: 0.0012960434}
        tangentMode: 0
      - time: 0.375
        value: {x: -0.04024235, y: 0.98191667, z: 0.09485709, w: 0.15881579}
        inSlope: {x: 0.0628571, y: 0.03944634, z: -0.156476, w: -0.14363186}
        outSlope: {x: 0.0628571, y: 0.03944634, z: -0.156476, w: -0.14363186}
        tangentMode: 0
      - time: 0.5
        value: {x: -0.0012483061, y: 0.9981919, z: 0.036294322, w: 0.047897775}
        inSlope: {x: 0.6022279, y: 0.089530006, z: -0.8315546, w: -1.7813098}
        outSlope: {x: 0.6022279, y: 0.089530006, z: -0.8315546, w: -1.7813098}
        tangentMode: 0
      - time: 0.5833334
        value: {x: 0.06050762, y: 0.98727787, z: -0.047904436, w: -0.13901971}
        inSlope: {x: 0.77979094, y: -0.44328356, z: -1.063669, w: -2.424683}
        outSlope: {x: 0.77979094, y: -0.44328356, z: -1.063669, w: -2.424683}
        tangentMode: 0
      - time: 0.6666667
        value: {x: 0.11881344, y: 0.928686, z: -0.12818362, w: -0.32710034}
        inSlope: {x: 0.53158176, y: -0.78204095, z: -0.7461897, w: -1.8176436}
        outSlope: {x: 0.53158176, y: -0.78204095, z: -0.7461897, w: -1.8176436}
        tangentMode: 0
      - time: 0.7916667
        value: {x: 0.1478656, y: 0.8631695, z: -0.17240708, w: -0.45094356}
        inSlope: {x: -0.038569793, y: -0.15695421, z: 0.015956812, w: -0.32381615}
        outSlope: {x: -0.038569793, y: -0.15695421, z: 0.015956812, w: -0.32381615}
        tangentMode: 0
      - time: 0.9583334
        value: {x: 0.097427025, y: 0.865491, z: -0.09751617, w: -0.48158482}
        inSlope: {x: -0.5057191, y: 0.06933762, z: 0.7977713, w: -0.13453354}
        outSlope: {x: -0.5057191, y: 0.06933762, z: 0.7977713, w: -0.13453354}
        tangentMode: 0
      - time: 1.1666667
        value: {x: 0.008787959, y: 0.8705671, z: 0.044329297, w: -0.48997}
        inSlope: {x: -0.1475434, y: -0.0054180566, z: 0.23789181, w: 0.005904431}
        outSlope: {x: -0.1475434, y: -0.0054180566, z: 0.23789181, w: 0.005904431}
        tangentMode: 0
      - time: 1.2083334
        value: {x: 0.0057261013, y: 0.8704246, z: 0.04927194, w: -0.48979643}
        inSlope: {x: -0.07348465, y: -0.0034189257, z: 0.11862358, w: 0.0041656536}
        outSlope: {x: -0.07348465, y: -0.0034189257, z: 0.11862358, w: 0.0041656536}
        tangentMode: 0
      m_PreInfinity: 2
      m_PostInfinity: 2
      m_RotationOrder: 4
    path: metarig/hips/thigh_L
  - curve:
      serializedVersion: 2
      m_Curve:
      - time: 0
        value: {x: 0.044161793, y: 0.06729387, z: -0.22462143, w: 0.9711161}
        inSlope: {x: 0, y: 0, z: 0, w: 0}
        outSlope: {x: 0, y: 0, z: 0, w: 0}
        tangentMode: 0
      - time: 1.2083334
        value: {x: 0.044161793, y: 0.06729387, z: -0.22462143, w: 0.9711161}
        inSlope: {x: 0, y: 0, z: 0, w: 0}
        outSlope: {x: 0, y: 0, z: 0, w: 0}
        tangentMode: 0
      m_PreInfinity: 2
      m_PostInfinity: 2
      m_RotationOrder: 4
    path: metarig/hips/thigh_L/shin_L
  - curve:
      serializedVersion: 2
      m_Curve:
      - time: 0
        value: {x: -0.28827685, y: -0.09002825, z: -0.040282298, w: 0.9524541}
        inSlope: {x: 0.074326515, y: -0.14065576, z: -0.056645572, w: 0.0061798096}
        outSlope: {x: 0.074326515, y: -0.14065576, z: -0.056645572, w: 0.0061798096}
        tangentMode: 0
      - time: 0.083333336
        value: {x: -0.2763748, y: -0.1123819, z: -0.049283717, w: 0.95318335}
        inSlope: {x: 0.24330713, y: -0.4513592, z: -0.18172127, w: 0.0063228607}
        outSlope: {x: 0.24330713, y: -0.4513592, z: -0.18172127, w: 0.0063228607}
        tangentMode: 0
      - time: 0.20833334
        value: {x: -0.25262138, y: -0.15568124, z: -0.06671166, w: 0.9526255}
        inSlope: {x: 0.038813706, y: -0.06957274, z: -0.02799457, w: -0.0027251241}
        outSlope: {x: 0.038813706, y: -0.06957274, z: -0.02799457, w: -0.0027251241}
        tangentMode: 0
      - time: 0.4166667
        value: {x: -0.25342909, y: -0.1542363, z: -0.066130266, w: 0.95268655}
        inSlope: {x: -0.038813356, y: 0.06957275, z: 0.027994754, w: 0.0027251244}
        outSlope: {x: -0.038813356, y: 0.06957275, z: 0.027994754, w: 0.0027251244}
        tangentMode: 0
      - time: 0.7916667
        value: {x: -0.28827685, y: -0.0900282, z: -0.0402823, w: 0.9524541}
        inSlope: {x: -0.009250398, y: 0.017539851, z: 0.007064354, w: -0.00082325895}
        outSlope: {x: -0.009250398, y: 0.017539851, z: 0.007064354, w: -0.00082325895}
        tangentMode: 0
      - time: 1.2083334
        value: {x: -0.28827685, y: -0.090028256, z: -0.040282287, w: 0.9524541}
        inSlope: {x: 0, y: -0.0000010728846, z: 0.0000005364423, w: 0}
        outSlope: {x: 0, y: -0.0000010728846, z: 0.0000005364423, w: 0}
        tangentMode: 0
      m_PreInfinity: 2
      m_PostInfinity: 2
      m_RotationOrder: 4
    path: metarig/hips/thigh_L/shin_L/foot_L
  - curve:
      serializedVersion: 2
      m_Curve:
      - time: 0
        value: {x: -0.12585564, y: 0.15079042, z: 0.041295506, w: 0.97965163}
        inSlope: {x: 0.19334936, y: -0.24018288, z: -0.240208, w: 0.06858587}
        outSlope: {x: 0.19334936, y: -0.24018288, z: -0.240208, w: 0.06858587}
        tangentMode: 0
      - time: 0.041666668
        value: {x: -0.117799416, y: 0.1407828, z: 0.03128684, w: 0.9825094}
        inSlope: {x: 0.37209088, y: -0.46213567, z: -0.46017814, w: 0.113803625}
        outSlope: {x: 0.37209088, y: -0.46213567, z: -0.46017814, w: 0.113803625}
        tangentMode: 0
      - time: 0.125
        value: {x: -0.065003864, y: 0.075231664, z: -0.033531915, w: 0.99447995}
        inSlope: {x: 0.6382985, y: -0.7921976, z: -0.776814, w: 0.0841291}
        outSlope: {x: 0.6382985, y: -0.7921976, z: -0.776814, w: 0.0841291}
        tangentMode: 0
      - time: 0.20833334
        value: {x: -0.033377472, y: 0.03599323, z: -0.07174858, w: 0.99621415}
        inSlope: {x: 0.09934865, y: -0.12323314, z: -0.11953701, w: 0.0008175372}
        outSlope: {x: 0.09934865, y: -0.12323314, z: -0.11953701, w: 0.0008175372}
        tangentMode: 0
      - time: 0.33333334
        value: {x: -0.033377495, y: 0.03599321, z: -0.071748585, w: 0.99621415}
        inSlope: {x: 0, y: 0.00000040233147, z: 0.00000035762795, w: 0}
        outSlope: {x: 0, y: 0.00000040233147, z: 0.00000035762795, w: 0}
        tangentMode: 0
      - time: 0.5
        value: {x: -0.05177301, y: 0.058813263, z: -0.049573377, w: 0.99569225}
        inSlope: {x: -0.28019097, y: 0.34764904, z: 0.33911103, w: -0.019994253}
        outSlope: {x: -0.28019097, y: 0.34764904, z: 0.33911103, w: -0.019994253}
        tangentMode: 0
      - time: 0.75
        value: {x: -0.12385213, y: 0.14830138, z: 0.038803875, w: 0.9803885}
        inSlope: {x: -0.09665203, y: 0.12007041, z: 0.12005396, w: -0.034285802}
        outSlope: {x: -0.09665203, y: 0.12007041, z: 0.12005396, w: -0.034285802}
        tangentMode: 0
      - time: 0.9583334
        value: {x: -0.1258557, y: 0.15079044, z: 0.041295514, w: 0.97965163}
        inSlope: {x: -0.00000035762747, y: -0.00000017881385, z: -6.3948846e-14, w: 0}
        outSlope: {x: -0.00000035762747, y: -0.00000017881385, z: -6.3948846e-14,
          w: 0}
        tangentMode: 0
      - time: 1.2083334
        value: {x: -0.1258557, y: 0.15079045, z: 0.041295517, w: 0.97965163}
        inSlope: {x: -0.0000003576282, y: 0, z: 0.00000008940705, w: 0}
        outSlope: {x: -0.0000003576282, y: 0, z: 0.00000008940705, w: 0}
        tangentMode: 0
      m_PreInfinity: 2
      m_PostInfinity: 2
      m_RotationOrder: 4
    path: metarig/hips/thigh_L/shin_L/foot_L/toe_L
  - curve:
      serializedVersion: 2
      m_Curve:
      - time: 0
        value: {x: 0.79036754, y: -0.031547777, z: -0.61173, w: -0.010503459}
        inSlope: {x: 0, y: 0, z: 0, w: 0}
        outSlope: {x: 0, y: 0, z: 0, w: 0}
        tangentMode: 0
      - time: 1.2083334
        value: {x: 0.79036754, y: -0.031547777, z: -0.61173, w: -0.010503459}
        inSlope: {x: 0, y: 0, z: 0, w: 0}
        outSlope: {x: 0, y: 0, z: 0, w: 0}
        tangentMode: 0
      m_PreInfinity: 2
      m_PostInfinity: 2
      m_RotationOrder: 4
    path: metarig/hips/thigh_L/shin_L/heel_L
  - curve:
      serializedVersion: 2
      m_Curve:
      - time: 0
        value: {x: -0.1440112, y: -0.4386474, z: 0.88654846, w: 0.02968279}
        inSlope: {x: -0.028426766, y: -0.004108429, z: -0.0051841736, w: -0.045864567}
        outSlope: {x: -0.028426766, y: -0.004108429, z: -0.0051841736, w: -0.045864567}
        tangentMode: 0
      - time: 0.25
        value: {x: -0.15546232, y: -0.4402118, z: 0.88426286, w: 0.011149814}
        inSlope: {x: 0.079544105, y: 0.010345099, z: 0.017015215, w: 0.12906279}
        outSlope: {x: 0.079544105, y: 0.010345099, z: 0.017015215, w: 0.12906279}
        tangentMode: 0
      - time: 0.4166667
        value: {x: -0.1440112, y: -0.43864742, z: 0.88654846, w: 0.029682789}
        inSlope: {x: 0.00000017881385, y: 0.0000010728834, z: 0, w: 0.00000008940697}
        outSlope: {x: 0.00000017881385, y: 0.0000010728834, z: 0, w: 0.00000008940697}
        tangentMode: 0
      - time: 1.2083334
        value: {x: -0.1440112, y: -0.4386474, z: 0.88654846, w: 0.02968279}
        inSlope: {x: -0.0000003576282, y: 0.0000007152564, z: 0, w: -0.000000044703526}
        outSlope: {x: -0.0000003576282, y: 0.0000007152564, z: 0, w: -0.000000044703526}
        tangentMode: 0
      m_PreInfinity: 2
      m_PostInfinity: 2
      m_RotationOrder: 4
    path: metarig/hips/thigh_R
  - curve:
      serializedVersion: 2
      m_Curve:
      - time: 0
        value: {x: 0.8562621, y: 0.002587116, z: -0.063565314, w: 0.5126091}
        inSlope: {x: 0, y: 0, z: 0, w: 0}
        outSlope: {x: 0, y: 0, z: 0, w: 0}
        tangentMode: 0
      - time: 1.2083334
        value: {x: 0.8562621, y: 0.002587116, z: -0.063565314, w: 0.5126091}
        inSlope: {x: 0, y: 0, z: 0, w: 0}
        outSlope: {x: 0, y: 0, z: 0, w: 0}
        tangentMode: 0
      m_PreInfinity: 2
      m_PostInfinity: 2
      m_RotationOrder: 4
    path: metarig/hips/thigh_R/shin_R
  - curve:
      serializedVersion: 2
      m_Curve:
      - time: 0
        value: {x: 0.94317114, y: -0.034108948, z: -0.12854737, w: 0.30453315}
        inSlope: {x: 0, y: 0, z: 0, w: 0}
        outSlope: {x: 0, y: 0, z: 0, w: 0}
        tangentMode: 0
      - time: 1.2083334
        value: {x: 0.94317114, y: -0.034108948, z: -0.12854737, w: 0.30453315}
        inSlope: {x: 0, y: 0, z: 0, w: 0}
        outSlope: {x: 0, y: 0, z: 0, w: 0}
        tangentMode: 0
      m_PreInfinity: 2
      m_PostInfinity: 2
      m_RotationOrder: 4
    path: metarig/hips/thigh_R/shin_R/foot_R
  - curve:
      serializedVersion: 2
      m_Curve:
      - time: 0
        value: {x: 0.90684175, y: 0.2293864, z: -0.018354233, w: -0.35310483}
        inSlope: {x: 0, y: 0, z: 0, w: 0}
        outSlope: {x: 0, y: 0, z: 0, w: 0}
        tangentMode: 0
      - time: 1.2083334
        value: {x: 0.90684175, y: 0.2293864, z: -0.018354233, w: -0.35310483}
        inSlope: {x: 0, y: 0, z: 0, w: 0}
        outSlope: {x: 0, y: 0, z: 0, w: 0}
        tangentMode: 0
      m_PreInfinity: 2
      m_PostInfinity: 2
      m_RotationOrder: 4
    path: metarig/hips/thigh_R/shin_R/foot_R/toe_R
  - curve:
      serializedVersion: 2
      m_Curve:
      - time: 0
        value: {x: 0.7306594, y: 0.6505814, z: 0.099695526, w: -0.18149789}
        inSlope: {x: 0, y: 0, z: 0, w: 0}
        outSlope: {x: 0, y: 0, z: 0, w: 0}
        tangentMode: 0
      - time: 1.2083334
        value: {x: 0.7306594, y: 0.6505814, z: 0.099695526, w: -0.18149789}
        inSlope: {x: 0, y: 0, z: 0, w: 0}
        outSlope: {x: 0, y: 0, z: 0, w: 0}
        tangentMode: 0
      m_PreInfinity: 2
      m_PostInfinity: 2
      m_RotationOrder: 4
    path: metarig/hips/thigh_R/shin_R/heel_R
  m_CompressedRotationCurves: []
  m_EulerCurves: []
  m_PositionCurves:
  - curve:
      serializedVersion: 2
      m_Curve:
      - time: 0
        value: {x: -0, y: 0.040219493, z: 0.0027629843}
        inSlope: {x: -0, y: -0, z: -0}
        outSlope: {x: -0, y: -0, z: -0}
        tangentMode: 0
      - time: 0.041666668
        value: {x: -0, y: 0.040219493, z: 0.0027629843}
        inSlope: {x: -0, y: -0, z: -0}
        outSlope: {x: -0, y: -0, z: -0}
        tangentMode: 0
      m_PreInfinity: 2
      m_PostInfinity: 2
      m_RotationOrder: 4
    path: metarig
  - curve:
      serializedVersion: 2
      m_Curve:
      - time: 0
        value: {x: -0.00025294576, y: 0.0007177038, z: 0.0024856292}
        inSlope: {x: -0, y: -0, z: -0}
        outSlope: {x: -0, y: -0, z: -0}
        tangentMode: 0
      - time: 0.041666668
        value: {x: -0.00025294576, y: 0.0007177038, z: 0.0024856292}
        inSlope: {x: -0, y: -0, z: -0}
        outSlope: {x: -0, y: -0, z: -0}
        tangentMode: 0
      m_PreInfinity: 2
      m_PostInfinity: 2
      m_RotationOrder: 4
    path: metarig/hips
  - curve:
      serializedVersion: 2
      m_Curve:
      - time: 0
        value: {x: -0.0036821645, y: 2.523612e-10, z: 1.0050799e-12}
        inSlope: {x: 0, y: 0, z: 0}
        outSlope: {x: 0, y: 0, z: 0}
        tangentMode: 0
      - time: 1.2083334
        value: {x: -0.0036821645, y: 2.523612e-10, z: 1.0050799e-12}
        inSlope: {x: 0, y: 0, z: 0}
        outSlope: {x: 0, y: 0, z: 0}
        tangentMode: 0
      m_PreInfinity: 2
      m_PostInfinity: 2
      m_RotationOrder: 4
    path: metarig/hips/spine
  - curve:
      serializedVersion: 2
      m_Curve:
      - time: 0
        value: {x: -0.0024722377, y: 1.91186e-10, z: -1.0805976e-10}
        inSlope: {x: 0, y: 0, z: 0}
        outSlope: {x: 0, y: 0, z: 0}
        tangentMode: 0
      - time: 1.2083334
        value: {x: -0.0024722377, y: 1.91186e-10, z: -1.0805976e-10}
        inSlope: {x: 0, y: 0, z: 0}
        outSlope: {x: 0, y: 0, z: 0}
        tangentMode: 0
      m_PreInfinity: 2
      m_PostInfinity: 2
      m_RotationOrder: 4
    path: metarig/hips/spine/chest
  - curve:
      serializedVersion: 2
      m_Curve:
      - time: 0
        value: {x: -0.0086333975, y: 6.574769e-10, z: 0.0015437792}
        inSlope: {x: 0, y: 0, z: 0}
        outSlope: {x: 0, y: 0, z: 0}
        tangentMode: 0
      - time: 1.2083334
        value: {x: -0.0086333975, y: 6.574769e-10, z: 0.0015437792}
        inSlope: {x: 0, y: 0, z: 0}
        outSlope: {x: 0, y: 0, z: 0}
        tangentMode: 0
      m_PreInfinity: 2
      m_PostInfinity: 2
      m_RotationOrder: 4
    path: metarig/hips/spine/chest/neck
  - curve:
      serializedVersion: 2
      m_Curve:
      - time: 0
        value: {x: -0.008290876, y: 5.9938465e-10, z: -6.0778486e-11}
        inSlope: {x: 0, y: 0, z: 0}
        outSlope: {x: 0, y: 0, z: 0}
        tangentMode: 0
      - time: 1.2083334
        value: {x: -0.008290876, y: 5.9938465e-10, z: -6.0778486e-11}
        inSlope: {x: 0, y: 0, z: 0}
        outSlope: {x: 0, y: 0, z: 0}
        tangentMode: 0
      m_PreInfinity: 2
      m_PostInfinity: 2
      m_RotationOrder: 4
    path: metarig/hips/spine/chest/neck/head
  - curve:
      serializedVersion: 2
      m_Curve:
      - time: 0
        value: {x: -0.0066119656, y: -0.0001829995, z: 0.0016609319}
        inSlope: {x: 0, y: 0, z: 0}
        outSlope: {x: 0, y: 0, z: 0}
        tangentMode: 0
      - time: 1.2083334
        value: {x: -0.0066119656, y: -0.0001829995, z: 0.0016609319}
        inSlope: {x: 0, y: 0, z: 0}
        outSlope: {x: 0, y: 0, z: 0}
        tangentMode: 0
      m_PreInfinity: 2
      m_PostInfinity: 2
      m_RotationOrder: 4
    path: metarig/hips/spine/chest/shoulder_L
  - curve:
      serializedVersion: 2
      m_Curve:
      - time: 0
        value: {x: -0.006384403, y: -0.00034096243, z: -0.00012765457}
        inSlope: {x: 0, y: 0, z: 0}
        outSlope: {x: 0, y: 0, z: 0}
        tangentMode: 0
      - time: 1.2083334
        value: {x: -0.006384403, y: -0.00034096243, z: -0.00012765457}
        inSlope: {x: 0, y: 0, z: 0}
        outSlope: {x: 0, y: 0, z: 0}
        tangentMode: 0
      m_PreInfinity: 2
      m_PostInfinity: 2
      m_RotationOrder: 4
    path: metarig/hips/spine/chest/shoulder_L/upper_arm_L
  - curve:
      serializedVersion: 2
      m_Curve:
      - time: 0
        value: {x: -0.004740011, y: 8.305012e-10, z: 3.71108e-10}
        inSlope: {x: 0, y: 0, z: 0}
        outSlope: {x: 0, y: 0, z: 0}
        tangentMode: 0
      - time: 1.2083334
        value: {x: -0.004740011, y: 8.305012e-10, z: 3.71108e-10}
        inSlope: {x: 0, y: 0, z: 0}
        outSlope: {x: 0, y: 0, z: 0}
        tangentMode: 0
      m_PreInfinity: 2
      m_PostInfinity: 2
      m_RotationOrder: 4
    path: metarig/hips/spine/chest/shoulder_L/upper_arm_L/forearm_L
  - curve:
      serializedVersion: 2
      m_Curve:
      - time: 0
        value: {x: -0.0022429088, y: 5.042244e-10, z: -2.5308483e-10}
        inSlope: {x: 0, y: 0, z: 0}
        outSlope: {x: 0, y: 0, z: 0}
        tangentMode: 0
      - time: 1.2083334
        value: {x: -0.0022429088, y: 5.042244e-10, z: -2.5308483e-10}
        inSlope: {x: 0, y: 0, z: 0}
        outSlope: {x: 0, y: 0, z: 0}
        tangentMode: 0
      m_PreInfinity: 2
      m_PostInfinity: 2
      m_RotationOrder: 4
    path: metarig/hips/spine/chest/shoulder_L/upper_arm_L/forearm_L/hand_L
  - curve:
      serializedVersion: 2
      m_Curve:
      - time: 0
        value: {x: -0.0066119647, y: 0.0001830005, z: 0.0016609316}
        inSlope: {x: 0, y: 0, z: 0}
        outSlope: {x: 0, y: 0, z: 0}
        tangentMode: 0
      - time: 1.2083334
        value: {x: -0.0066119647, y: 0.0001830005, z: 0.0016609316}
        inSlope: {x: 0, y: 0, z: 0}
        outSlope: {x: 0, y: 0, z: 0}
        tangentMode: 0
      m_PreInfinity: 2
      m_PostInfinity: 2
      m_RotationOrder: 4
    path: metarig/hips/spine/chest/shoulder_R
  - curve:
      serializedVersion: 2
      m_Curve:
      - time: 0
        value: {x: -0.0054566176, y: 0.00006778724, z: -0.00014936851}
        inSlope: {x: 0, y: 0, z: 0}
        outSlope: {x: 0, y: 0, z: 0}
        tangentMode: 0
      - time: 1.2083334
        value: {x: -0.0054566176, y: 0.00006778724, z: -0.00014936851}
        inSlope: {x: 0, y: 0, z: 0}
        outSlope: {x: 0, y: 0, z: 0}
        tangentMode: 0
      m_PreInfinity: 2
      m_PostInfinity: 2
      m_RotationOrder: 4
    path: metarig/hips/spine/chest/shoulder_R/upper_arm_R
  - curve:
      serializedVersion: 2
      m_Curve:
      - time: 0
        value: {x: -0.003690022, y: -0.0000000012404753, z: -4.1531045e-10}
        inSlope: {x: 0, y: 0, z: 0}
        outSlope: {x: 0, y: 0, z: 0}
        tangentMode: 0
      - time: 1.2083334
        value: {x: -0.003690022, y: -0.0000000012404753, z: -4.1531045e-10}
        inSlope: {x: 0, y: 0, z: 0}
        outSlope: {x: 0, y: 0, z: 0}
        tangentMode: 0
      m_PreInfinity: 2
      m_PostInfinity: 2
      m_RotationOrder: 4
    path: metarig/hips/spine/chest/shoulder_R/upper_arm_R/forearm_R
  - curve:
      serializedVersion: 2
      m_Curve:
      - time: 0
        value: {x: -0.003963565, y: -6.425464e-10, z: 2.2548745e-10}
        inSlope: {x: 0, y: 0, z: 0}
        outSlope: {x: 0, y: 0, z: 0}
        tangentMode: 0
      - time: 1.2083334
        value: {x: -0.003963565, y: -6.425464e-10, z: 2.2548745e-10}
        inSlope: {x: 0, y: 0, z: 0}
        outSlope: {x: 0, y: 0, z: 0}
        tangentMode: 0
      m_PreInfinity: 2
      m_PostInfinity: 2
      m_RotationOrder: 4
    path: metarig/hips/spine/chest/shoulder_R/upper_arm_R/forearm_R/hand_R
  - curve:
      serializedVersion: 2
      m_Curve:
      - time: 0
        value: {x: -0.005549006, y: -0.004749222, z: -0.0029930943}
        inSlope: {x: 0, y: 0, z: 0}
        outSlope: {x: 0, y: 0, z: 0}
        tangentMode: 0
      - time: 1.2083334
        value: {x: -0.005549006, y: -0.004749222, z: -0.0029930943}
        inSlope: {x: 0, y: 0, z: 0}
        outSlope: {x: 0, y: 0, z: 0}
        tangentMode: 0
      m_PreInfinity: 2
      m_PostInfinity: 2
      m_RotationOrder: 4
    path: metarig/hips/thigh_L
  - curve:
      serializedVersion: 2
      m_Curve:
      - time: 0
        value: {x: -0.0050925417, y: 3.6517e-13, z: -1.2681753e-10}
        inSlope: {x: 0, y: 0, z: 0}
        outSlope: {x: 0, y: 0, z: 0}
        tangentMode: 0
      - time: 1.2083334
        value: {x: -0.0050925417, y: 3.6517e-13, z: -1.2681753e-10}
        inSlope: {x: 0, y: 0, z: 0}
        outSlope: {x: 0, y: 0, z: 0}
        tangentMode: 0
      m_PreInfinity: 2
      m_PostInfinity: 2
      m_RotationOrder: 4
    path: metarig/hips/thigh_L/shin_L
  - curve:
      serializedVersion: 2
      m_Curve:
      - time: 0
        value: {x: -0.0036275634, y: 1.3634667e-10, z: -2.3298988e-10}
        inSlope: {x: 0, y: 0, z: 0}
        outSlope: {x: 0, y: 0, z: 0}
        tangentMode: 0
      - time: 1.2083334
        value: {x: -0.0036275634, y: 1.3634667e-10, z: -2.3298988e-10}
        inSlope: {x: 0, y: 0, z: 0}
        outSlope: {x: 0, y: 0, z: 0}
        tangentMode: 0
      m_PreInfinity: 2
      m_PostInfinity: 2
      m_RotationOrder: 4
    path: metarig/hips/thigh_L/shin_L/foot_L
  - curve:
      serializedVersion: 2
      m_Curve:
      - time: 0
        value: {x: -0.0029496704, y: 0.0000000011389373, z: 1.0002482e-10}
        inSlope: {x: 0, y: 0, z: 0}
        outSlope: {x: 0, y: 0, z: 0}
        tangentMode: 0
      - time: 1.2083334
        value: {x: -0.0029496704, y: 0.0000000011389373, z: 1.0002482e-10}
        inSlope: {x: 0, y: 0, z: 0}
        outSlope: {x: 0, y: 0, z: 0}
        tangentMode: 0
      m_PreInfinity: 2
      m_PostInfinity: 2
      m_RotationOrder: 4
    path: metarig/hips/thigh_L/shin_L/foot_L/toe_L
  - curve:
      serializedVersion: 2
      m_Curve:
      - time: 0
        value: {x: -0.0036275634, y: 1.3634667e-10, z: -2.3298988e-10}
        inSlope: {x: 0, y: 0, z: 0}
        outSlope: {x: 0, y: 0, z: 0}
        tangentMode: 0
      - time: 1.2083334
        value: {x: -0.0036275634, y: 1.3634667e-10, z: -2.3298988e-10}
        inSlope: {x: 0, y: 0, z: 0}
        outSlope: {x: 0, y: 0, z: 0}
        tangentMode: 0
      m_PreInfinity: 2
      m_PostInfinity: 2
      m_RotationOrder: 4
    path: metarig/hips/thigh_L/shin_L/heel_L
  - curve:
      serializedVersion: 2
      m_Curve:
      - time: 0
        value: {x: -0.0061200326, y: 0.0045458754, z: -0.0027595328}
        inSlope: {x: 0, y: 0, z: 0}
        outSlope: {x: 0, y: 0, z: 0}
        tangentMode: 0
      - time: 1.2083334
        value: {x: -0.0061200326, y: 0.0045458754, z: -0.0027595328}
        inSlope: {x: 0, y: 0, z: 0}
        outSlope: {x: 0, y: 0, z: 0}
        tangentMode: 0
      m_PreInfinity: 2
      m_PostInfinity: 2
      m_RotationOrder: 4
    path: metarig/hips/thigh_R
  - curve:
      serializedVersion: 2
      m_Curve:
      - time: 0
        value: {x: -0.0057681194, y: 2.46384e-10, z: -8.119719e-12}
        inSlope: {x: 0, y: 0, z: 0}
        outSlope: {x: 0, y: 0, z: 0}
        tangentMode: 0
      - time: 1.2083334
        value: {x: -0.0057681194, y: 2.46384e-10, z: -8.119719e-12}
        inSlope: {x: 0, y: 0, z: 0}
        outSlope: {x: 0, y: 0, z: 0}
        tangentMode: 0
      m_PreInfinity: 2
      m_PostInfinity: 2
      m_RotationOrder: 4
    path: metarig/hips/thigh_R/shin_R
  - curve:
      serializedVersion: 2
      m_Curve:
      - time: 0
        value: {x: -0.0030853013, y: 2.1494276e-10, z: -1.0612608e-10}
        inSlope: {x: 0, y: 0, z: 0}
        outSlope: {x: 0, y: 0, z: 0}
        tangentMode: 0
      - time: 1.2083334
        value: {x: -0.0030853013, y: 2.1494276e-10, z: -1.0612608e-10}
        inSlope: {x: 0, y: 0, z: 0}
        outSlope: {x: 0, y: 0, z: 0}
        tangentMode: 0
      m_PreInfinity: 2
      m_PostInfinity: 2
      m_RotationOrder: 4
    path: metarig/hips/thigh_R/shin_R/foot_R
  - curve:
      serializedVersion: 2
      m_Curve:
      - time: 0
        value: {x: -0.0025074258, y: 2.4314403e-10, z: -7.12777e-11}
        inSlope: {x: 0, y: 0, z: 0}
        outSlope: {x: 0, y: 0, z: 0}
        tangentMode: 0
      - time: 1.2083334
        value: {x: -0.0025074258, y: 2.4314403e-10, z: -7.12777e-11}
        inSlope: {x: 0, y: 0, z: 0}
        outSlope: {x: 0, y: 0, z: 0}
        tangentMode: 0
      m_PreInfinity: 2
      m_PostInfinity: 2
      m_RotationOrder: 4
    path: metarig/hips/thigh_R/shin_R/foot_R/toe_R
  - curve:
      serializedVersion: 2
      m_Curve:
      - time: 0
        value: {x: -0.0030853013, y: 2.1494276e-10, z: -1.0612608e-10}
        inSlope: {x: 0, y: 0, z: 0}
        outSlope: {x: 0, y: 0, z: 0}
        tangentMode: 0
      - time: 1.2083334
        value: {x: -0.0030853013, y: 2.1494276e-10, z: -1.0612608e-10}
        inSlope: {x: 0, y: 0, z: 0}
        outSlope: {x: 0, y: 0, z: 0}
        tangentMode: 0
      m_PreInfinity: 2
      m_PostInfinity: 2
      m_RotationOrder: 4
    path: metarig/hips/thigh_R/shin_R/heel_R
  m_ScaleCurves:
  - curve:
      serializedVersion: 2
      m_Curve:
      - time: 0
        value: {x: 10, y: 10.000001, z: 10.000001}
        inSlope: {x: 0, y: 0, z: 0}
        outSlope: {x: 0, y: 0, z: 0}
        tangentMode: 0
      - time: 0.041666668
        value: {x: 10, y: 10.000001, z: 10.000001}
        inSlope: {x: 0, y: 0, z: 0}
        outSlope: {x: 0, y: 0, z: 0}
        tangentMode: 0
      m_PreInfinity: 2
      m_PostInfinity: 2
      m_RotationOrder: 4
    path: metarig
  - curve:
      serializedVersion: 2
      m_Curve:
      - time: 0
        value: {x: 1, y: 1, z: 1}
        inSlope: {x: 0, y: 0, z: 0}
        outSlope: {x: 0, y: 0, z: 0}
        tangentMode: 0
      - time: 1.2083334
        value: {x: 1, y: 1, z: 1}
        inSlope: {x: 0, y: 0, z: 0}
        outSlope: {x: 0, y: 0, z: 0}
        tangentMode: 0
      m_PreInfinity: 2
      m_PostInfinity: 2
      m_RotationOrder: 4
    path: metarig/hips
  - curve:
      serializedVersion: 2
      m_Curve:
      - time: 0
        value: {x: 0.99999994, y: 0.9999998, z: 0.99999994}
        inSlope: {x: 0, y: 0, z: 0}
        outSlope: {x: 0, y: 0, z: 0}
        tangentMode: 0
      - time: 1.2083334
        value: {x: 0.99999994, y: 0.9999998, z: 0.99999994}
        inSlope: {x: 0, y: 0, z: 0}
        outSlope: {x: 0, y: 0, z: 0}
        tangentMode: 0
      m_PreInfinity: 2
      m_PostInfinity: 2
      m_RotationOrder: 4
    path: metarig/hips/spine
  - curve:
      serializedVersion: 2
      m_Curve:
      - time: 0
        value: {x: 1, y: 0.99999994, z: 1}
        inSlope: {x: 0, y: 0, z: 0}
        outSlope: {x: 0, y: 0, z: 0}
        tangentMode: 0
      - time: 0.041666668
        value: {x: 1, y: 0.99999994, z: 1}
        inSlope: {x: 0, y: 0, z: 0}
        outSlope: {x: 0, y: 0, z: 0}
        tangentMode: 0
      m_PreInfinity: 2
      m_PostInfinity: 2
      m_RotationOrder: 4
    path: metarig/hips/spine/chest
  - curve:
      serializedVersion: 2
      m_Curve:
      - time: 0
        value: {x: 0.99999994, y: 1, z: 0.9999999}
        inSlope: {x: 0, y: 0, z: 0}
        outSlope: {x: 0, y: 0, z: 0}
        tangentMode: 0
      - time: 1.2083334
        value: {x: 0.99999994, y: 1, z: 0.9999999}
        inSlope: {x: 0, y: 0, z: 0}
        outSlope: {x: 0, y: 0, z: 0}
        tangentMode: 0
      m_PreInfinity: 2
      m_PostInfinity: 2
      m_RotationOrder: 4
    path: metarig/hips/spine/chest/neck
  - curve:
      serializedVersion: 2
      m_Curve:
      - time: 0
        value: {x: 0.9999998, y: 0.99999994, z: 0.99999994}
        inSlope: {x: 0, y: 0, z: 0}
        outSlope: {x: 0, y: 0, z: 0}
        tangentMode: 0
      - time: 1.2083334
        value: {x: 0.9999998, y: 0.99999994, z: 0.99999994}
        inSlope: {x: 0, y: 0, z: 0}
        outSlope: {x: 0, y: 0, z: 0}
        tangentMode: 0
      m_PreInfinity: 2
      m_PostInfinity: 2
      m_RotationOrder: 4
    path: metarig/hips/spine/chest/neck/head
  - curve:
      serializedVersion: 2
      m_Curve:
      - time: 0
        value: {x: 0.9999999, y: 0.9999999, z: 0.9999999}
        inSlope: {x: 0, y: 0, z: 0}
        outSlope: {x: 0, y: 0, z: 0}
        tangentMode: 0
      - time: 0.041666668
        value: {x: 0.9999999, y: 0.9999999, z: 0.9999999}
        inSlope: {x: 0, y: 0, z: 0}
        outSlope: {x: 0, y: 0, z: 0}
        tangentMode: 0
      m_PreInfinity: 2
      m_PostInfinity: 2
      m_RotationOrder: 4
    path: metarig/hips/spine/chest/shoulder_L
  - curve:
      serializedVersion: 2
      m_Curve:
      - time: 0
        value: {x: 1, y: 1, z: 1}
        inSlope: {x: 0, y: 0, z: 0}
        outSlope: {x: 0, y: 0, z: 0}
        tangentMode: 0
      - time: 1.2083334
        value: {x: 1, y: 1, z: 1}
        inSlope: {x: 0, y: 0, z: 0}
        outSlope: {x: 0, y: 0, z: 0}
        tangentMode: 0
      m_PreInfinity: 2
      m_PostInfinity: 2
      m_RotationOrder: 4
    path: metarig/hips/spine/chest/shoulder_L/upper_arm_L
  - curve:
      serializedVersion: 2
      m_Curve:
      - time: 0
        value: {x: 0.9999998, y: 0.9999999, z: 0.9999998}
        inSlope: {x: 0, y: 0, z: 0}
        outSlope: {x: 0, y: 0, z: 0}
        tangentMode: 0
      - time: 0.041666668
        value: {x: 0.9999998, y: 0.9999999, z: 0.9999998}
        inSlope: {x: 0, y: 0, z: 0}
        outSlope: {x: 0, y: 0, z: 0}
        tangentMode: 0
      m_PreInfinity: 2
      m_PostInfinity: 2
      m_RotationOrder: 4
    path: metarig/hips/spine/chest/shoulder_L/upper_arm_L/forearm_L
  - curve:
      serializedVersion: 2
      m_Curve:
      - time: 0
        value: {x: 0.99999994, y: 1, z: 0.9999999}
        inSlope: {x: 0, y: 0, z: 0}
        outSlope: {x: 0, y: 0, z: 0}
        tangentMode: 0
      - time: 1.2083334
        value: {x: 0.99999994, y: 1, z: 0.9999999}
        inSlope: {x: 0, y: 0, z: 0}
        outSlope: {x: 0, y: 0, z: 0}
        tangentMode: 0
      m_PreInfinity: 2
      m_PostInfinity: 2
      m_RotationOrder: 4
    path: metarig/hips/spine/chest/shoulder_L/upper_arm_L/forearm_L/hand_L
  - curve:
      serializedVersion: 2
      m_Curve:
      - time: 0
        value: {x: 1, y: 1, z: 1}
        inSlope: {x: 0, y: 0, z: 0}
        outSlope: {x: 0, y: 0, z: 0}
        tangentMode: 0
      - time: 1.2083334
        value: {x: 1, y: 1, z: 1}
        inSlope: {x: 0, y: 0, z: 0}
        outSlope: {x: 0, y: 0, z: 0}
        tangentMode: 0
      m_PreInfinity: 2
      m_PostInfinity: 2
      m_RotationOrder: 4
    path: metarig/hips/spine/chest/shoulder_R
  - curve:
      serializedVersion: 2
      m_Curve:
      - time: 0
        value: {x: 0.9999999, y: 1, z: 1}
        inSlope: {x: 0, y: 0, z: 0}
        outSlope: {x: 0, y: 0, z: 0}
        tangentMode: 0
      - time: 1.2083334
        value: {x: 0.9999999, y: 1, z: 1}
        inSlope: {x: 0, y: 0, z: 0}
        outSlope: {x: 0, y: 0, z: 0}
        tangentMode: 0
      m_PreInfinity: 2
      m_PostInfinity: 2
      m_RotationOrder: 4
    path: metarig/hips/spine/chest/shoulder_R/upper_arm_R
  - curve:
      serializedVersion: 2
      m_Curve:
      - time: 0
        value: {x: 1, y: 1, z: 1}
        inSlope: {x: 0, y: 0, z: 0}
        outSlope: {x: 0, y: 0, z: 0}
        tangentMode: 0
      - time: 0.041666668
        value: {x: 1, y: 1, z: 1}
        inSlope: {x: 0, y: 0, z: 0}
        outSlope: {x: 0, y: 0, z: 0}
        tangentMode: 0
      m_PreInfinity: 2
      m_PostInfinity: 2
      m_RotationOrder: 4
    path: metarig/hips/spine/chest/shoulder_R/upper_arm_R/forearm_R
  - curve:
      serializedVersion: 2
      m_Curve:
      - time: 0
        value: {x: 1.0000001, y: 1.0000001, z: 1.0000001}
        inSlope: {x: 0, y: 0, z: 0}
        outSlope: {x: 0, y: 0, z: 0}
        tangentMode: 0
      - time: 1.2083334
        value: {x: 1.0000001, y: 1.0000001, z: 1.0000001}
        inSlope: {x: 0, y: 0, z: 0}
        outSlope: {x: 0, y: 0, z: 0}
        tangentMode: 0
      m_PreInfinity: 2
      m_PostInfinity: 2
      m_RotationOrder: 4
    path: metarig/hips/spine/chest/shoulder_R/upper_arm_R/forearm_R/hand_R
  - curve:
      serializedVersion: 2
      m_Curve:
      - time: 0
        value: {x: 1.0000001, y: 0.9999997, z: 1.0000001}
        inSlope: {x: 0, y: 0, z: 0}
        outSlope: {x: 0, y: 0, z: 0}
        tangentMode: 0
      - time: 1.2083334
        value: {x: 1.0000001, y: 0.9999997, z: 1.0000001}
        inSlope: {x: 0, y: 0, z: 0}
        outSlope: {x: 0, y: 0, z: 0}
        tangentMode: 0
      m_PreInfinity: 2
      m_PostInfinity: 2
      m_RotationOrder: 4
    path: metarig/hips/thigh_L
  - curve:
      serializedVersion: 2
      m_Curve:
      - time: 0
        value: {x: 1, y: 1, z: 1}
        inSlope: {x: 0, y: 0, z: 0}
        outSlope: {x: 0, y: 0, z: 0}
        tangentMode: 0
      - time: 1.2083334
        value: {x: 1, y: 1, z: 1}
        inSlope: {x: 0, y: 0, z: 0}
        outSlope: {x: 0, y: 0, z: 0}
        tangentMode: 0
      m_PreInfinity: 2
      m_PostInfinity: 2
      m_RotationOrder: 4
    path: metarig/hips/thigh_L/shin_L
  - curve:
      serializedVersion: 2
      m_Curve:
      - time: 0
        value: {x: 1, y: 0.9999999, z: 1}
        inSlope: {x: 0, y: 0, z: 0}
        outSlope: {x: 0, y: 0, z: 0}
        tangentMode: 0
      - time: 1.2083334
        value: {x: 1, y: 0.9999999, z: 1}
        inSlope: {x: 0, y: 0, z: 0}
        outSlope: {x: 0, y: 0, z: 0}
        tangentMode: 0
      m_PreInfinity: 2
      m_PostInfinity: 2
      m_RotationOrder: 4
    path: metarig/hips/thigh_L/shin_L/foot_L
  - curve:
      serializedVersion: 2
      m_Curve:
      - time: 0
        value: {x: 1, y: 1, z: 1}
        inSlope: {x: 0, y: 0, z: 0}
        outSlope: {x: 0, y: 0, z: 0}
        tangentMode: 0
      - time: 1.2083334
        value: {x: 1, y: 1, z: 1}
        inSlope: {x: 0, y: 0, z: 0}
        outSlope: {x: 0, y: 0, z: 0}
        tangentMode: 0
      m_PreInfinity: 2
      m_PostInfinity: 2
      m_RotationOrder: 4
    path: metarig/hips/thigh_L/shin_L/foot_L/toe_L
  - curve:
      serializedVersion: 2
      m_Curve:
      - time: 0
        value: {x: 1, y: 0.9999999, z: 1}
        inSlope: {x: 0, y: 0, z: 0}
        outSlope: {x: 0, y: 0, z: 0}
        tangentMode: 0
      - time: 1.2083334
        value: {x: 1, y: 0.9999999, z: 1}
        inSlope: {x: 0, y: 0, z: 0}
        outSlope: {x: 0, y: 0, z: 0}
        tangentMode: 0
      m_PreInfinity: 2
      m_PostInfinity: 2
      m_RotationOrder: 4
    path: metarig/hips/thigh_L/shin_L/heel_L
  - curve:
      serializedVersion: 2
      m_Curve:
      - time: 0
        value: {x: 0.99999994, y: 0.9999998, z: 0.9999998}
        inSlope: {x: 0, y: 0, z: 0}
        outSlope: {x: 0, y: 0, z: 0}
        tangentMode: 0
      - time: 1.2083334
        value: {x: 0.99999994, y: 0.9999998, z: 0.9999998}
        inSlope: {x: 0, y: 0, z: 0}
        outSlope: {x: 0, y: 0, z: 0}
        tangentMode: 0
      m_PreInfinity: 2
      m_PostInfinity: 2
      m_RotationOrder: 4
    path: metarig/hips/thigh_R
  - curve:
      serializedVersion: 2
      m_Curve:
      - time: 0
        value: {x: 0.9999998, y: 0.99999994, z: 0.9999999}
        inSlope: {x: 0, y: 0, z: 0}
        outSlope: {x: 0, y: 0, z: 0}
        tangentMode: 0
      - time: 1.2083334
        value: {x: 0.9999998, y: 0.99999994, z: 0.9999999}
        inSlope: {x: 0, y: 0, z: 0}
        outSlope: {x: 0, y: 0, z: 0}
        tangentMode: 0
      m_PreInfinity: 2
      m_PostInfinity: 2
      m_RotationOrder: 4
    path: metarig/hips/thigh_R/shin_R
  - curve:
      serializedVersion: 2
      m_Curve:
      - time: 0
        value: {x: 1, y: 1, z: 1}
        inSlope: {x: 0, y: 0, z: 0}
        outSlope: {x: 0, y: 0, z: 0}
        tangentMode: 0
      - time: 1.2083334
        value: {x: 1, y: 1, z: 1}
        inSlope: {x: 0, y: 0, z: 0}
        outSlope: {x: 0, y: 0, z: 0}
        tangentMode: 0
      m_PreInfinity: 2
      m_PostInfinity: 2
      m_RotationOrder: 4
    path: metarig/hips/thigh_R/shin_R/foot_R
  - curve:
      serializedVersion: 2
      m_Curve:
      - time: 0
        value: {x: 0.9999997, y: 1, z: 1}
        inSlope: {x: 0, y: 0, z: 0}
        outSlope: {x: 0, y: 0, z: 0}
        tangentMode: 0
      - time: 1.2083334
        value: {x: 0.9999997, y: 1, z: 1}
        inSlope: {x: 0, y: 0, z: 0}
        outSlope: {x: 0, y: 0, z: 0}
        tangentMode: 0
      m_PreInfinity: 2
      m_PostInfinity: 2
      m_RotationOrder: 4
    path: metarig/hips/thigh_R/shin_R/foot_R/toe_R
  - curve:
      serializedVersion: 2
      m_Curve:
      - time: 0
        value: {x: 1.0000001, y: 1, z: 0.9999998}
        inSlope: {x: 0, y: 0, z: 0}
        outSlope: {x: 0, y: 0, z: 0}
        tangentMode: 0
      - time: 1.2083334
        value: {x: 1.0000001, y: 1, z: 0.9999998}
        inSlope: {x: 0, y: 0, z: 0}
        outSlope: {x: 0, y: 0, z: 0}
        tangentMode: 0
      m_PreInfinity: 2
      m_PostInfinity: 2
      m_RotationOrder: 4
    path: metarig/hips/thigh_R/shin_R/heel_R
  m_FloatCurves: []
  m_PPtrCurves: []
  m_SampleRate: 24
  m_WrapMode: 0
  m_Bounds:
    m_Center: {x: 0, y: 0, z: 0}
    m_Extent: {x: 0, y: 0, z: 0}
  m_ClipBindingConstant:
    genericBindings:
    - path: 2710392617
      attribute: 2
      script: {fileID: 0}
      classID: 4
      customType: 0
      isPPtrCurve: 0
    - path: 2269527727
      attribute: 2
      script: {fileID: 0}
      classID: 4
      customType: 0
      isPPtrCurve: 0
    - path: 1722826412
      attribute: 2
      script: {fileID: 0}
      classID: 4
      customType: 0
      isPPtrCurve: 0
    - path: 1356769660
      attribute: 2
      script: {fileID: 0}
      classID: 4
      customType: 0
      isPPtrCurve: 0
    - path: 1079255419
      attribute: 2
      script: {fileID: 0}
      classID: 4
      customType: 0
      isPPtrCurve: 0
    - path: 4105877106
      attribute: 2
      script: {fileID: 0}
      classID: 4
      customType: 0
      isPPtrCurve: 0
    - path: 3678929460
      attribute: 2
      script: {fileID: 0}
      classID: 4
      customType: 0
      isPPtrCurve: 0
    - path: 884545391
      attribute: 2
      script: {fileID: 0}
      classID: 4
      customType: 0
      isPPtrCurve: 0
    - path: 3091371215
      attribute: 2
      script: {fileID: 0}
      classID: 4
      customType: 0
      isPPtrCurve: 0
    - path: 437444702
      attribute: 2
      script: {fileID: 0}
      classID: 4
      customType: 0
      isPPtrCurve: 0
    - path: 3468044812
      attribute: 2
      script: {fileID: 0}
      classID: 4
      customType: 0
      isPPtrCurve: 0
    - path: 2422219504
      attribute: 1
      script: {fileID: 0}
      classID: 4
      customType: 0
      isPPtrCurve: 0
    - path: 2710392617
      attribute: 1
      script: {fileID: 0}
      classID: 4
      customType: 0
      isPPtrCurve: 0
    - path: 777833797
      attribute: 1
      script: {fileID: 0}
      classID: 4
      customType: 0
      isPPtrCurve: 0
    - path: 2269527727
      attribute: 1
      script: {fileID: 0}
      classID: 4
      customType: 0
      isPPtrCurve: 0
    - path: 1722826412
      attribute: 1
      script: {fileID: 0}
      classID: 4
      customType: 0
      isPPtrCurve: 0
    - path: 1356769660
      attribute: 1
      script: {fileID: 0}
      classID: 4
      customType: 0
      isPPtrCurve: 0
    - path: 3644094857
      attribute: 1
      script: {fileID: 0}
      classID: 4
      customType: 0
      isPPtrCurve: 0
    - path: 1079255419
      attribute: 1
      script: {fileID: 0}
      classID: 4
      customType: 0
      isPPtrCurve: 0
    - path: 835086218
      attribute: 1
      script: {fileID: 0}
      classID: 4
      customType: 0
      isPPtrCurve: 0
    - path: 626516684
      attribute: 1
      script: {fileID: 0}
      classID: 4
      customType: 0
      isPPtrCurve: 0
    - path: 591086826
      attribute: 1
      script: {fileID: 0}
      classID: 4
      customType: 0
      isPPtrCurve: 0
    - path: 4105877106
      attribute: 1
      script: {fileID: 0}
      classID: 4
      customType: 0
      isPPtrCurve: 0
    - path: 3678929460
      attribute: 1
      script: {fileID: 0}
      classID: 4
      customType: 0
      isPPtrCurve: 0
    - path: 1077926420
      attribute: 1
      script: {fileID: 0}
      classID: 4
      customType: 0
      isPPtrCurve: 0
    - path: 884545391
      attribute: 1
      script: {fileID: 0}
      classID: 4
      customType: 0
      isPPtrCurve: 0
    - path: 3354447063
      attribute: 1
      script: {fileID: 0}
      classID: 4
      customType: 0
      isPPtrCurve: 0
    - path: 3091371215
      attribute: 1
      script: {fileID: 0}
      classID: 4
      customType: 0
      isPPtrCurve: 0
    - path: 437444702
      attribute: 1
      script: {fileID: 0}
      classID: 4
      customType: 0
      isPPtrCurve: 0
    - path: 3044081586
      attribute: 1
      script: {fileID: 0}
      classID: 4
      customType: 0
      isPPtrCurve: 0
    - path: 3468044812
      attribute: 1
      script: {fileID: 0}
      classID: 4
      customType: 0
      isPPtrCurve: 0
    - path: 1422840493
      attribute: 1
      script: {fileID: 0}
      classID: 4
      customType: 0
      isPPtrCurve: 0
    - path: 2188184975
      attribute: 1
      script: {fileID: 0}
      classID: 4
      customType: 0
      isPPtrCurve: 0
    - path: 3808316702
      attribute: 1
      script: {fileID: 0}
      classID: 4
      customType: 0
      isPPtrCurve: 0
    - path: 2405394162
      attribute: 1
      script: {fileID: 0}
      classID: 4
      customType: 0
      isPPtrCurve: 0
    - path: 2422219504
      attribute: 2
      script: {fileID: 0}
      classID: 4
      customType: 0
      isPPtrCurve: 0
    - path: 777833797
      attribute: 2
      script: {fileID: 0}
      classID: 4
      customType: 0
      isPPtrCurve: 0
    - path: 3644094857
      attribute: 2
      script: {fileID: 0}
      classID: 4
      customType: 0
      isPPtrCurve: 0
    - path: 835086218
      attribute: 2
      script: {fileID: 0}
      classID: 4
      customType: 0
      isPPtrCurve: 0
    - path: 626516684
      attribute: 2
      script: {fileID: 0}
      classID: 4
      customType: 0
      isPPtrCurve: 0
    - path: 591086826
      attribute: 2
      script: {fileID: 0}
      classID: 4
      customType: 0
      isPPtrCurve: 0
    - path: 1077926420
      attribute: 2
      script: {fileID: 0}
      classID: 4
      customType: 0
      isPPtrCurve: 0
    - path: 3354447063
      attribute: 2
      script: {fileID: 0}
      classID: 4
      customType: 0
      isPPtrCurve: 0
    - path: 3044081586
      attribute: 2
      script: {fileID: 0}
      classID: 4
      customType: 0
      isPPtrCurve: 0
    - path: 1422840493
      attribute: 2
      script: {fileID: 0}
      classID: 4
      customType: 0
      isPPtrCurve: 0
    - path: 2188184975
      attribute: 2
      script: {fileID: 0}
      classID: 4
      customType: 0
      isPPtrCurve: 0
    - path: 3808316702
      attribute: 2
      script: {fileID: 0}
      classID: 4
      customType: 0
      isPPtrCurve: 0
    - path: 2405394162
      attribute: 2
      script: {fileID: 0}
      classID: 4
      customType: 0
      isPPtrCurve: 0
    - path: 2422219504
      attribute: 3
      script: {fileID: 0}
      classID: 4
      customType: 0
      isPPtrCurve: 0
    - path: 2710392617
      attribute: 3
      script: {fileID: 0}
      classID: 4
      customType: 0
      isPPtrCurve: 0
    - path: 777833797
      attribute: 3
      script: {fileID: 0}
      classID: 4
      customType: 0
      isPPtrCurve: 0
    - path: 2269527727
      attribute: 3
      script: {fileID: 0}
      classID: 4
      customType: 0
      isPPtrCurve: 0
    - path: 1722826412
      attribute: 3
      script: {fileID: 0}
      classID: 4
      customType: 0
      isPPtrCurve: 0
    - path: 1356769660
      attribute: 3
      script: {fileID: 0}
      classID: 4
      customType: 0
      isPPtrCurve: 0
    - path: 3644094857
      attribute: 3
      script: {fileID: 0}
      classID: 4
      customType: 0
      isPPtrCurve: 0
    - path: 1079255419
      attribute: 3
      script: {fileID: 0}
      classID: 4
      customType: 0
      isPPtrCurve: 0
    - path: 835086218
      attribute: 3
      script: {fileID: 0}
      classID: 4
      customType: 0
      isPPtrCurve: 0
    - path: 626516684
      attribute: 3
      script: {fileID: 0}
      classID: 4
      customType: 0
      isPPtrCurve: 0
    - path: 591086826
      attribute: 3
      script: {fileID: 0}
      classID: 4
      customType: 0
      isPPtrCurve: 0
    - path: 4105877106
      attribute: 3
      script: {fileID: 0}
      classID: 4
      customType: 0
      isPPtrCurve: 0
    - path: 3678929460
      attribute: 3
      script: {fileID: 0}
      classID: 4
      customType: 0
      isPPtrCurve: 0
    - path: 1077926420
      attribute: 3
      script: {fileID: 0}
      classID: 4
      customType: 0
      isPPtrCurve: 0
    - path: 884545391
      attribute: 3
      script: {fileID: 0}
      classID: 4
      customType: 0
      isPPtrCurve: 0
    - path: 3354447063
      attribute: 3
      script: {fileID: 0}
      classID: 4
      customType: 0
      isPPtrCurve: 0
    - path: 3091371215
      attribute: 3
      script: {fileID: 0}
      classID: 4
      customType: 0
      isPPtrCurve: 0
    - path: 437444702
      attribute: 3
      script: {fileID: 0}
      classID: 4
      customType: 0
      isPPtrCurve: 0
    - path: 3044081586
      attribute: 3
      script: {fileID: 0}
      classID: 4
      customType: 0
      isPPtrCurve: 0
    - path: 3468044812
      attribute: 3
      script: {fileID: 0}
      classID: 4
      customType: 0
      isPPtrCurve: 0
    - path: 1422840493
      attribute: 3
      script: {fileID: 0}
      classID: 4
      customType: 0
      isPPtrCurve: 0
    - path: 2188184975
      attribute: 3
      script: {fileID: 0}
      classID: 4
      customType: 0
      isPPtrCurve: 0
    - path: 3808316702
      attribute: 3
      script: {fileID: 0}
      classID: 4
      customType: 0
      isPPtrCurve: 0
    - path: 2405394162
      attribute: 3
      script: {fileID: 0}
      classID: 4
      customType: 0
      isPPtrCurve: 0
    pptrCurveMapping: []
  m_AnimationClipSettings:
    serializedVersion: 2
    m_AdditiveReferencePoseClip: {fileID: 0}
    m_AdditiveReferencePoseTime: 0
    m_StartTime: 0
    m_StopTime: 1.2083334
    m_OrientationOffsetY: 0
    m_Level: 0
    m_CycleOffset: 0
    m_HasAdditiveReferencePose: 0
    m_LoopTime: 1
    m_LoopBlend: 1
    m_LoopBlendOrientation: 0
    m_LoopBlendPositionY: 0
    m_LoopBlendPositionXZ: 0
    m_KeepOriginalOrientation: 0
    m_KeepOriginalPositionY: 1
    m_KeepOriginalPositionXZ: 0
    m_HeightFromFeet: 0
    m_Mirror: 0
  m_EditorCurves: []
  m_EulerEditorCurves: []
  m_HasGenericRootTransform: 0
  m_HasMotionFloatCurves: 0
  m_GenerateMotionCurves: 0
  m_Events: []
