%YAML 1.1
%TAG !u! tag:unity3d.com,2011:
--- !u!74 &7400000
AnimationClip:
  m_ObjectHideFlags: 0
  m_PrefabParentObject: {fileID: 0}
  m_PrefabInternal: {fileID: 0}
  m_Name: PA_drone1
  serializedVersion: 6
  m_Legacy: 0
  m_Compressed: 0
  m_UseHighQualityCurve: 1
  m_RotationCurves: []
  m_CompressedRotationCurves: []
  m_EulerCurves:
  - curve:
      serializedVersion: 2
      m_Curve:
      - time: 0
        value: {x: 0, y: -3.5386999, z: 0}
        inSlope: {x: 0, y: 816.303, z: 0}
        outSlope: {x: 0, y: 816.303, z: 0}
        tangentMode: 0
      - time: 0.033333335
        value: {x: 0, y: 23.6714, z: 0}
        inSlope: {x: 0, y: 659.8965, z: 0}
        outSlope: {x: 0, y: 659.8965, z: 0}
        tangentMode: 0
      - time: 0.06666667
        value: {x: 0, y: 40.4544, z: 0}
        inSlope: {x: 0, y: 504.39902, z: 0}
        outSlope: {x: 0, y: 504.39902, z: 0}
        tangentMode: 0
      - time: 0.1
        value: {x: 0, y: 57.298, z: 0}
        inSlope: {x: 0, y: 538.0935, z: 0}
        outSlope: {x: 0, y: 538.0935, z: 0}
        tangentMode: 0
      - time: 0.13333334
        value: {x: 0, y: 76.3273, z: 0}
        inSlope: {x: 0, y: 465.26093, z: 0}
        outSlope: {x: 0, y: 465.26093, z: 0}
        tangentMode: 0
      - time: 0.16666667
        value: {x: 0, y: 88.3154, z: 0}
        inSlope: {x: 0, y: 397.2495, z: 0}
        outSlope: {x: 0, y: 397.2495, z: 0}
        tangentMode: 0
      - time: 0.2
        value: {x: 0, y: 102.8106, z: 0}
        inSlope: {x: 0, y: 447.4395, z: 0}
        outSlope: {x: 0, y: 447.4395, z: 0}
        tangentMode: 0
      - time: 0.23333333
        value: {x: 0, y: 118.1447, z: 0}
        inSlope: {x: 0, y: 437.26642, z: 0}
        outSlope: {x: 0, y: 437.26642, z: 0}
        tangentMode: 0
      - time: 0.26666668
        value: {x: 0, y: 131.9617, z: 0}
        inSlope: {x: 0, y: 454.16238, z: 0}
        outSlope: {x: 0, y: 454.16238, z: 0}
        tangentMode: 0
      - time: 0.3
        value: {x: 0, y: 148.4222, z: 0}
        inSlope: {x: 0, y: 542.9954, z: 0}
        outSlope: {x: 0, y: 542.9954, z: 0}
        tangentMode: 0
      - time: 0.33333334
        value: {x: 0, y: 168.16139, z: 0}
        inSlope: {x: 0, y: 592.17596, z: 0}
        outSlope: {x: 0, y: 592.17596, z: 0}
        tangentMode: 0
      m_PreInfinity: 2
      m_PostInfinity: 2
      m_RotationOrder: 4
    path: body/PA_DroneWingLeft/PA_DroneBladeLeft
  - curve:
      serializedVersion: 2
      m_Curve:
      - time: 0
        value: {x: 0, y: 3.8167999, z: 0}
        inSlope: {x: 0, y: 520.38, z: 0}
        outSlope: {x: 0, y: 520.38, z: 0}
        tangentMode: 0
      - time: 0.033333335
        value: {x: 0, y: 21.1628, z: 0}
        inSlope: {x: 0, y: 473.01, z: 0}
        outSlope: {x: 0, y: 473.01, z: 0}
        tangentMode: 0
      - time: 0.06666667
        value: {x: 0, y: 35.3508, z: 0}
        inSlope: {x: 0, y: 517.40546, z: 0}
        outSlope: {x: 0, y: 517.40546, z: 0}
        tangentMode: 0
      - time: 0.1
        value: {x: 0, y: 55.656498, z: 0}
        inSlope: {x: 0, y: 626.8755, z: 0}
        outSlope: {x: 0, y: 626.8755, z: 0}
        tangentMode: 0
      - time: 0.13333334
        value: {x: 0, y: 77.1425, z: 0}
        inSlope: {x: 0, y: 589.79395, z: 0}
        outSlope: {x: 0, y: 589.79395, z: 0}
        tangentMode: 0
      - time: 0.16666667
        value: {x: 0, y: 94.9761, z: 0}
        inSlope: {x: 0, y: 552.4124, z: 0}
        outSlope: {x: 0, y: 552.4124, z: 0}
        tangentMode: 0
      - time: 0.2
        value: {x: 0, y: 113.96999, z: 0}
        inSlope: {x: 0, y: 529.497, z: 0}
        outSlope: {x: 0, y: 529.497, z: 0}
        tangentMode: 0
      - time: 0.23333333
        value: {x: 0, y: 130.2759, z: 0}
        inSlope: {x: 0, y: 454.42502, z: 0}
        outSlope: {x: 0, y: 454.42502, z: 0}
        tangentMode: 0
      - time: 0.26666668
        value: {x: 0, y: 144.265, z: 0}
        inSlope: {x: 0, y: 581.82904, z: 0}
        outSlope: {x: 0, y: 581.82904, z: 0}
        tangentMode: 0
      - time: 0.3
        value: {x: 0, y: 169.0645, z: 0}
        inSlope: {x: 0, y: 625.41144, z: 0}
        outSlope: {x: 0, y: 625.41144, z: 0}
        tangentMode: 0
      - time: 0.33333334
        value: {x: 0, y: 185.95909, z: 0}
        inSlope: {x: 0, y: 506.8378, z: 0}
        outSlope: {x: 0, y: 506.8378, z: 0}
        tangentMode: 0
      m_PreInfinity: 2
      m_PostInfinity: 2
      m_RotationOrder: 4
    path: body/PA_DroneWingRight/PA_DroneBladeRight
  m_PositionCurves:
  - curve:
      serializedVersion: 2
      m_Curve:
      - time: 0
        value: {x: -0.043233108, y: 0.022913586, z: -0.029254489}
        inSlope: {x: 0.3295898, y: 0, z: 3.2080076}
        outSlope: {x: 0.3295898, y: 0, z: 3.2080076}
        tangentMode: 0
      - time: 0.033333335
        value: {x: -0.03224678, y: 0.022913586, z: 0.077679105}
        inSlope: {x: 0.6344604, y: 0, z: 2.4920652}
        outSlope: {x: 0.6344604, y: 0, z: 2.4920652}
        tangentMode: 0
      - time: 0.06666667
        value: {x: -0.0009357445, y: 0.022913586, z: 0.1368832}
        inSlope: {x: 1.1764526, y: 0, z: 1.6030883}
        outSlope: {x: 1.1764526, y: 0, z: 1.6030883}
        tangentMode: 0
      - time: 0.1
        value: {x: 0.046183396, y: 0.022913586, z: 0.18455166}
        inSlope: {x: 1.7147827, y: 0, z: 1.2368774}
        outSlope: {x: 1.7147827, y: 0, z: 1.2368774}
        tangentMode: 0
      - time: 0.13333334
        value: {x: 0.1133831, y: 0.022913586, z: 0.2193417}
        inSlope: {x: 1.708374, y: 0, z: 0.67016596}
        outSlope: {x: 1.708374, y: 0, z: 0.67016596}
        tangentMode: 0
      - time: 0.16666667
        value: {x: 0.160075, y: 0.022913586, z: 0.22922939}
        inSlope: {x: 1.5646363, y: 0, z: 0.12725832}
        outSlope: {x: 1.5646363, y: 0, z: 0.12725832}
        tangentMode: 0
      - time: 0.2
        value: {x: 0.21769218, y: 0.022913586, z: 0.22782558}
        inSlope: {x: 1.7449955, y: 0, z: -0.27557376}
        outSlope: {x: 1.7449955, y: 0, z: -0.27557376}
        tangentMode: 0
      - time: 0.23333333
        value: {x: 0.27640802, y: 0.022913586, z: 0.21085781}
        inSlope: {x: 1.5893555, y: 0, z: -0.67840564}
        outSlope: {x: 1.5893555, y: 0, z: -0.67840564}
        tangentMode: 0
      - time: 0.26666668
        value: {x: 0.32364923, y: 0.022913586, z: 0.18259853}
        inSlope: {x: 1.3916013, y: 0, z: -1.1306762}
        outSlope: {x: 1.3916013, y: 0, z: -1.1306762}
        tangentMode: 0
      - time: 0.3
        value: {x: 0.36918145, y: 0.022913586, z: 0.13547939}
        inSlope: {x: 1.1975099, y: 0, z: -1.7651367}
        outSlope: {x: 1.1975099, y: 0, z: -1.7651367}
        tangentMode: 0
      - time: 0.33333334
        value: {x: 0.4034832, y: 0.022913586, z: 0.06492276}
        inSlope: {x: 1.0290529, y: 0, z: -2.1166992}
        outSlope: {x: 1.0290529, y: 0, z: -2.1166992}
        tangentMode: 0
      m_PreInfinity: 2
      m_PostInfinity: 2
      m_RotationOrder: 4
    path: body/PA_DroneWingLeft/PA_DroneBladeLeft
  - curve:
      serializedVersion: 2
      m_Curve:
      - time: 0
        value: {x: 0.043233108, y: 0.022913586, z: -0.030292086}
        inSlope: {x: -0.59692377, y: 0, z: -1.9848632}
        outSlope: {x: -0.59692377, y: 0, z: -1.9848632}
        tangentMode: 0
      - time: 0.033333335
        value: {x: 0.023335647, y: 0.022913586, z: -0.096454196}
        inSlope: {x: -0.75347894, y: 0, z: -1.7074585}
        outSlope: {x: -0.75347894, y: 0, z: -1.7074585}
        tangentMode: 0
      - time: 0.06666667
        value: {x: -0.006998826, y: 0.022913586, z: -0.14412266}
        inSlope: {x: -1.3787842, y: 0, z: -1.4968873}
        outSlope: {x: -1.3787842, y: 0, z: -1.4968873}
        tangentMode: 0
      - time: 0.1
        value: {x: -0.068583295, y: 0.022913586, z: -0.19624668}
        inSlope: {x: -2.134094, y: 0, z: -1.204834}
        outSlope: {x: -2.134094, y: 0, z: -1.204834}
        tangentMode: 0
      - time: 0.13333334
        value: {x: -0.14927177, y: 0.022913586, z: -0.22444493}
        inSlope: {x: -2.2750854, y: 0, z: -0.41656488}
        outSlope: {x: -2.2750854, y: 0, z: -0.41656488}
        tangentMode: 0
      - time: 0.16666667
        value: {x: -0.22025566, y: 0.022913586, z: -0.22401768}
        inSlope: {x: -2.1386724, y: 0, z: 0.36987308}
        outSlope: {x: -2.1386724, y: 0, z: 0.36987308}
        tangentMode: 0
      - time: 0.2
        value: {x: -0.2918499, y: 0.022913586, z: -0.19978672}
        inSlope: {x: -1.8585207, y: 0, z: 0.9411622}
        outSlope: {x: -1.8585207, y: 0, z: 0.9411622}
        tangentMode: 0
      - time: 0.23333333
        value: {x: -0.34415704, y: 0.022913586, z: -0.16127354}
        inSlope: {x: -1.3046263, y: 0, z: 1.2322998}
        outSlope: {x: -1.3046263, y: 0, z: 1.2322998}
        tangentMode: 0
      - time: 0.26666668
        value: {x: -0.378825, y: 0.022913586, z: -0.117633395}
        inSlope: {x: -1.0025023, y: 0, z: 2.0489502}
        outSlope: {x: -1.0025023, y: 0, z: 2.0489502}
        tangentMode: 0
      - time: 0.3
        value: {x: -0.41099054, y: 0.022913586, z: -0.024676852}
        inSlope: {x: -0.45043948, y: 0, z: 2.4032595}
        outSlope: {x: -0.45043948, y: 0, z: 2.4032595}
        tangentMode: 0
      - time: 0.33333334
        value: {x: -0.4088543, y: 0.022913586, z: 0.04258389}
        inSlope: {x: 0.06408692, y: 0, z: 2.0178225}
        outSlope: {x: 0.06408692, y: 0, z: 2.0178225}
        tangentMode: 0
      m_PreInfinity: 2
      m_PostInfinity: 2
      m_RotationOrder: 4
    path: body/PA_DroneWingRight/PA_DroneBladeRight
  m_ScaleCurves: []
  m_FloatCurves: []
  m_PPtrCurves: []
  m_SampleRate: 60
  m_WrapMode: 0
  m_Bounds:
    m_Center: {x: 0, y: 0, z: 0}
    m_Extent: {x: 0, y: 0, z: 0}
  m_ClipBindingConstant:
    genericBindings:
    - path: 2989329172
      attribute: 1
      script: {fileID: 0}
      classID: 4
      customType: 0
      isPPtrCurve: 0
    - path: 1763113624
      attribute: 1
      script: {fileID: 0}
      classID: 4
      customType: 0
      isPPtrCurve: 0
    - path: 2989329172
      attribute: 4
      script: {fileID: 0}
      classID: 4
      customType: 14
      isPPtrCurve: 0
    - path: 1763113624
      attribute: 4
      script: {fileID: 0}
      classID: 4
      customType: 14
      isPPtrCurve: 0
    pptrCurveMapping: []
  m_AnimationClipSettings:
    serializedVersion: 2
    m_AdditiveReferencePoseClip: {fileID: 0}
    m_AdditiveReferencePoseTime: 0
    m_StartTime: 0
    m_StopTime: 0.33333334
    m_OrientationOffsetY: 0
    m_Level: 0
    m_CycleOffset: 0
    m_HasAdditiveReferencePose: 0
    m_LoopTime: 1
    m_LoopBlend: 0
    m_LoopBlendOrientation: 0
    m_LoopBlendPositionY: 0
    m_LoopBlendPositionXZ: 0
    m_KeepOriginalOrientation: 0
    m_KeepOriginalPositionY: 1
    m_KeepOriginalPositionXZ: 0
    m_HeightFromFeet: 0
    m_Mirror: 0
  m_EditorCurves:
  - curve:
      serializedVersion: 2
      m_Curve:
      - time: 0
        value: 0
        inSlope: 0
        outSlope: 0
        tangentMode: 10
      - time: 0.033333335
        value: 0
        inSlope: 0
        outSlope: 0
        tangentMode: 10
      - time: 0.06666667
        value: 0
        inSlope: 0
        outSlope: 0
        tangentMode: 10
      - time: 0.1
        value: 0
        inSlope: 0
        outSlope: 0
        tangentMode: 10
      - time: 0.13333334
        value: 0
        inSlope: 0
        outSlope: 0
        tangentMode: 10
      - time: 0.16666667
        value: 0
        inSlope: 0
        outSlope: 0
        tangentMode: 10
      - time: 0.2
        value: 0
        inSlope: 0
        outSlope: 0
        tangentMode: 10
      - time: 0.23333333
        value: 0
        inSlope: 0
        outSlope: 0
        tangentMode: 10
      - time: 0.26666668
        value: 0
        inSlope: 0
        outSlope: 0
        tangentMode: 10
      - time: 0.3
        value: 0
        inSlope: 0
        outSlope: 0
        tangentMode: 10
      - time: 0.33333334
        value: 0
        inSlope: 0
        outSlope: 0
        tangentMode: 10
      m_PreInfinity: 2
      m_PostInfinity: 2
      m_RotationOrder: 4
    attribute: localEulerAnglesRaw.x
    path: body/PA_DroneWingLeft/PA_DroneBladeLeft
    classID: 4
    script: {fileID: 0}
  - curve:
      serializedVersion: 2
      m_Curve:
      - time: 0
        value: -3.5386999
        inSlope: 816.303
        outSlope: 816.303
        tangentMode: 10
      - time: 0.033333335
        value: 23.6714
        inSlope: 659.8965
        outSlope: 659.8965
        tangentMode: 10
      - time: 0.06666667
        value: 40.4544
        inSlope: 504.39902
        outSlope: 504.39902
        tangentMode: 10
      - time: 0.1
        value: 57.298
        inSlope: 538.0935
        outSlope: 538.0935
        tangentMode: 10
      - time: 0.13333334
        value: 76.3273
        inSlope: 465.26093
        outSlope: 465.26093
        tangentMode: 10
      - time: 0.16666667
        value: 88.3154
        inSlope: 397.2495
        outSlope: 397.2495
        tangentMode: 10
      - time: 0.2
        value: 102.8106
        inSlope: 447.4395
        outSlope: 447.4395
        tangentMode: 10
      - time: 0.23333333
        value: 118.1447
        inSlope: 437.26642
        outSlope: 437.26642
        tangentMode: 10
      - time: 0.26666668
        value: 131.9617
        inSlope: 454.16238
        outSlope: 454.16238
        tangentMode: 10
      - time: 0.3
        value: 148.4222
        inSlope: 542.9954
        outSlope: 542.9954
        tangentMode: 10
      - time: 0.33333334
        value: 168.16139
        inSlope: 592.17596
        outSlope: 592.17596
        tangentMode: 10
      m_PreInfinity: 2
      m_PostInfinity: 2
      m_RotationOrder: 4
    attribute: localEulerAnglesRaw.y
    path: body/PA_DroneWingLeft/PA_DroneBladeLeft
    classID: 4
    script: {fileID: 0}
  - curve:
      serializedVersion: 2
      m_Curve:
      - time: 0
        value: 0
        inSlope: 0
        outSlope: 0
        tangentMode: 10
      - time: 0.033333335
        value: 0
        inSlope: 0
        outSlope: 0
        tangentMode: 10
      - time: 0.06666667
        value: 0
        inSlope: 0
        outSlope: 0
        tangentMode: 10
      - time: 0.1
        value: 0
        inSlope: 0
        outSlope: 0
        tangentMode: 10
      - time: 0.13333334
        value: 0
        inSlope: 0
        outSlope: 0
        tangentMode: 10
      - time: 0.16666667
        value: 0
        inSlope: 0
        outSlope: 0
        tangentMode: 10
      - time: 0.2
        value: 0
        inSlope: 0
        outSlope: 0
        tangentMode: 10
      - time: 0.23333333
        value: 0
        inSlope: 0
        outSlope: 0
        tangentMode: 10
      - time: 0.26666668
        value: 0
        inSlope: 0
        outSlope: 0
        tangentMode: 10
      - time: 0.3
        value: 0
        inSlope: 0
        outSlope: 0
        tangentMode: 10
      - time: 0.33333334
        value: 0
        inSlope: 0
        outSlope: 0
        tangentMode: 10
      m_PreInfinity: 2
      m_PostInfinity: 2
      m_RotationOrder: 4
    attribute: localEulerAnglesRaw.z
    path: body/PA_DroneWingLeft/PA_DroneBladeLeft
    classID: 4
    script: {fileID: 0}
  - curve:
      serializedVersion: 2
      m_Curve:
      - time: 0
        value: -0.043233108
        inSlope: 0.3295898
        outSlope: 0.3295898
        tangentMode: 10
      - time: 0.033333335
        value: -0.03224678
        inSlope: 0.6344604
        outSlope: 0.6344604
        tangentMode: 10
      - time: 0.06666667
        value: -0.0009357445
        inSlope: 1.1764526
        outSlope: 1.1764526
        tangentMode: 10
      - time: 0.1
        value: 0.046183396
        inSlope: 1.7147827
        outSlope: 1.7147827
        tangentMode: 10
      - time: 0.13333334
        value: 0.1133831
        inSlope: 1.708374
        outSlope: 1.708374
        tangentMode: 10
      - time: 0.16666667
        value: 0.160075
        inSlope: 1.5646363
        outSlope: 1.5646363
        tangentMode: 10
      - time: 0.2
        value: 0.21769218
        inSlope: 1.7449955
        outSlope: 1.7449955
        tangentMode: 10
      - time: 0.23333333
        value: 0.27640802
        inSlope: 1.5893555
        outSlope: 1.5893555
        tangentMode: 10
      - time: 0.26666668
        value: 0.32364923
        inSlope: 1.3916013
        outSlope: 1.3916013
        tangentMode: 10
      - time: 0.3
        value: 0.36918145
        inSlope: 1.1975099
        outSlope: 1.1975099
        tangentMode: 10
      - time: 0.33333334
        value: 0.4034832
        inSlope: 1.0290529
        outSlope: 1.0290529
        tangentMode: 10
      m_PreInfinity: 2
      m_PostInfinity: 2
      m_RotationOrder: 4
    attribute: m_LocalPosition.x
    path: body/PA_DroneWingLeft/PA_DroneBladeLeft
    classID: 4
    script: {fileID: 0}
  - curve:
      serializedVersion: 2
      m_Curve:
      - time: 0
        value: 0.022913586
        inSlope: 0
        outSlope: 0
        tangentMode: 10
      - time: 0.033333335
        value: 0.022913586
        inSlope: 0
        outSlope: 0
        tangentMode: 10
      - time: 0.06666667
        value: 0.022913586
        inSlope: 0
        outSlope: 0
        tangentMode: 10
      - time: 0.1
        value: 0.022913586
        inSlope: 0
        outSlope: 0
        tangentMode: 10
      - time: 0.13333334
        value: 0.022913586
        inSlope: 0
        outSlope: 0
        tangentMode: 10
      - time: 0.16666667
        value: 0.022913586
        inSlope: 0
        outSlope: 0
        tangentMode: 10
      - time: 0.2
        value: 0.022913586
        inSlope: 0
        outSlope: 0
        tangentMode: 10
      - time: 0.23333333
        value: 0.022913586
        inSlope: 0
        outSlope: 0
        tangentMode: 10
      - time: 0.26666668
        value: 0.022913586
        inSlope: 0
        outSlope: 0
        tangentMode: 10
      - time: 0.3
        value: 0.022913586
        inSlope: 0
        outSlope: 0
        tangentMode: 10
      - time: 0.33333334
        value: 0.022913586
        inSlope: 0
        outSlope: 0
        tangentMode: 10
      m_PreInfinity: 2
      m_PostInfinity: 2
      m_RotationOrder: 4
    attribute: m_LocalPosition.y
    path: body/PA_DroneWingLeft/PA_DroneBladeLeft
    classID: 4
    script: {fileID: 0}
  - curve:
      serializedVersion: 2
      m_Curve:
      - time: 0
        value: -0.029254489
        inSlope: 3.2080076
        outSlope: 3.2080076
        tangentMode: 10
      - time: 0.033333335
        value: 0.077679105
        inSlope: 2.4920652
        outSlope: 2.4920652
        tangentMode: 10
      - time: 0.06666667
        value: 0.1368832
        inSlope: 1.6030883
        outSlope: 1.6030883
        tangentMode: 10
      - time: 0.1
        value: 0.18455166
        inSlope: 1.2368774
        outSlope: 1.2368774
        tangentMode: 10
      - time: 0.13333334
        value: 0.2193417
        inSlope: 0.67016596
        outSlope: 0.67016596
        tangentMode: 10
      - time: 0.16666667
        value: 0.22922939
        inSlope: 0.12725832
        outSlope: 0.12725832
        tangentMode: 10
      - time: 0.2
        value: 0.22782558
        inSlope: -0.27557376
        outSlope: -0.27557376
        tangentMode: 10
      - time: 0.23333333
        value: 0.21085781
        inSlope: -0.67840564
        outSlope: -0.67840564
        tangentMode: 10
      - time: 0.26666668
        value: 0.18259853
        inSlope: -1.1306762
        outSlope: -1.1306762
        tangentMode: 10
      - time: 0.3
        value: 0.13547939
        inSlope: -1.7651367
        outSlope: -1.7651367
        tangentMode: 10
      - time: 0.33333334
        value: 0.06492276
        inSlope: -2.1166992
        outSlope: -2.1166992
        tangentMode: 10
      m_PreInfinity: 2
      m_PostInfinity: 2
      m_RotationOrder: 4
    attribute: m_LocalPosition.z
    path: body/PA_DroneWingLeft/PA_DroneBladeLeft
    classID: 4
    script: {fileID: 0}
  - curve:
      serializedVersion: 2
      m_Curve:
      - time: 0
        value: 0
        inSlope: 0
        outSlope: 0
        tangentMode: 10
      - time: 0.033333335
        value: 0
        inSlope: 0
        outSlope: 0
        tangentMode: 10
      - time: 0.06666667
        value: 0
        inSlope: 0
        outSlope: 0
        tangentMode: 10
      - time: 0.1
        value: 0
        inSlope: 0
        outSlope: 0
        tangentMode: 10
      - time: 0.13333334
        value: 0
        inSlope: 0
        outSlope: 0
        tangentMode: 10
      - time: 0.16666667
        value: 0
        inSlope: 0
        outSlope: 0
        tangentMode: 10
      - time: 0.2
        value: 0
        inSlope: 0
        outSlope: 0
        tangentMode: 10
      - time: 0.23333333
        value: 0
        inSlope: 0
        outSlope: 0
        tangentMode: 10
      - time: 0.26666668
        value: 0
        inSlope: 0
        outSlope: 0
        tangentMode: 10
      - time: 0.3
        value: 0
        inSlope: 0
        outSlope: 0
        tangentMode: 10
      - time: 0.33333334
        value: 0
        inSlope: 0
        outSlope: 0
        tangentMode: 10
      m_PreInfinity: 2
      m_PostInfinity: 2
      m_RotationOrder: 4
    attribute: localEulerAnglesRaw.x
    path: body/PA_DroneWingRight/PA_DroneBladeRight
    classID: 4
    script: {fileID: 0}
  - curve:
      serializedVersion: 2
      m_Curve:
      - time: 0
        value: 3.8167999
        inSlope: 520.38
        outSlope: 520.38
        tangentMode: 10
      - time: 0.033333335
        value: 21.1628
        inSlope: 473.01
        outSlope: 473.01
        tangentMode: 10
      - time: 0.06666667
        value: 35.3508
        inSlope: 517.40546
        outSlope: 517.40546
        tangentMode: 10
      - time: 0.1
        value: 55.656498
        inSlope: 626.8755
        outSlope: 626.8755
        tangentMode: 10
      - time: 0.13333334
        value: 77.1425
        inSlope: 589.79395
        outSlope: 589.79395
        tangentMode: 10
      - time: 0.16666667
        value: 94.9761
        inSlope: 552.4124
        outSlope: 552.4124
        tangentMode: 10
      - time: 0.2
        value: 113.96999
        inSlope: 529.497
        outSlope: 529.497
        tangentMode: 10
      - time: 0.23333333
        value: 130.2759
        inSlope: 454.42502
        outSlope: 454.42502
        tangentMode: 10
      - time: 0.26666668
        value: 144.265
        inSlope: 581.82904
        outSlope: 581.82904
        tangentMode: 10
      - time: 0.3
        value: 169.0645
        inSlope: 625.41144
        outSlope: 625.41144
        tangentMode: 10
      - time: 0.33333334
        value: 185.95909
        inSlope: 506.8378
        outSlope: 506.8378
        tangentMode: 10
      m_PreInfinity: 2
      m_PostInfinity: 2
      m_RotationOrder: 4
    attribute: localEulerAnglesRaw.y
    path: body/PA_DroneWingRight/PA_DroneBladeRight
    classID: 4
    script: {fileID: 0}
  - curve:
      serializedVersion: 2
      m_Curve:
      - time: 0
        value: 0
        inSlope: 0
        outSlope: 0
        tangentMode: 10
      - time: 0.033333335
        value: 0
        inSlope: 0
        outSlope: 0
        tangentMode: 10
      - time: 0.06666667
        value: 0
        inSlope: 0
        outSlope: 0
        tangentMode: 10
      - time: 0.1
        value: 0
        inSlope: 0
        outSlope: 0
        tangentMode: 10
      - time: 0.13333334
        value: 0
        inSlope: 0
        outSlope: 0
        tangentMode: 10
      - time: 0.16666667
        value: 0
        inSlope: 0
        outSlope: 0
        tangentMode: 10
      - time: 0.2
        value: 0
        inSlope: 0
        outSlope: 0
        tangentMode: 10
      - time: 0.23333333
        value: 0
        inSlope: 0
        outSlope: 0
        tangentMode: 10
      - time: 0.26666668
        value: 0
        inSlope: 0
        outSlope: 0
        tangentMode: 10
      - time: 0.3
        value: 0
        inSlope: 0
        outSlope: 0
        tangentMode: 10
      - time: 0.33333334
        value: 0
        inSlope: 0
        outSlope: 0
        tangentMode: 10
      m_PreInfinity: 2
      m_PostInfinity: 2
      m_RotationOrder: 4
    attribute: localEulerAnglesRaw.z
    path: body/PA_DroneWingRight/PA_DroneBladeRight
    classID: 4
    script: {fileID: 0}
  - curve:
      serializedVersion: 2
      m_Curve:
      - time: 0
        value: 0.043233108
        inSlope: -0.59692377
        outSlope: -0.59692377
        tangentMode: 10
      - time: 0.033333335
        value: 0.023335647
        inSlope: -0.75347894
        outSlope: -0.75347894
        tangentMode: 10
      - time: 0.06666667
        value: -0.006998826
        inSlope: -1.3787842
        outSlope: -1.3787842
        tangentMode: 10
      - time: 0.1
        value: -0.068583295
        inSlope: -2.134094
        outSlope: -2.134094
        tangentMode: 10
      - time: 0.13333334
        value: -0.14927177
        inSlope: -2.2750854
        outSlope: -2.2750854
        tangentMode: 10
      - time: 0.16666667
        value: -0.22025566
        inSlope: -2.1386724
        outSlope: -2.1386724
        tangentMode: 10
      - time: 0.2
        value: -0.2918499
        inSlope: -1.8585207
        outSlope: -1.8585207
        tangentMode: 10
      - time: 0.23333333
        value: -0.34415704
        inSlope: -1.3046263
        outSlope: -1.3046263
        tangentMode: 10
      - time: 0.26666668
        value: -0.378825
        inSlope: -1.0025023
        outSlope: -1.0025023
        tangentMode: 10
      - time: 0.3
        value: -0.41099054
        inSlope: -0.45043948
        outSlope: -0.45043948
        tangentMode: 10
      - time: 0.33333334
        value: -0.4088543
        inSlope: 0.06408692
        outSlope: 0.06408692
        tangentMode: 10
      m_PreInfinity: 2
      m_PostInfinity: 2
      m_RotationOrder: 4
    attribute: m_LocalPosition.x
    path: body/PA_DroneWingRight/PA_DroneBladeRight
    classID: 4
    script: {fileID: 0}
  - curve:
      serializedVersion: 2
      m_Curve:
      - time: 0
        value: 0.022913586
        inSlope: 0
        outSlope: 0
        tangentMode: 10
      - time: 0.033333335
        value: 0.022913586
        inSlope: 0
        outSlope: 0
        tangentMode: 10
      - time: 0.06666667
        value: 0.022913586
        inSlope: 0
        outSlope: 0
        tangentMode: 10
      - time: 0.1
        value: 0.022913586
        inSlope: 0
        outSlope: 0
        tangentMode: 10
      - time: 0.13333334
        value: 0.022913586
        inSlope: 0
        outSlope: 0
        tangentMode: 10
      - time: 0.16666667
        value: 0.022913586
        inSlope: 0
        outSlope: 0
        tangentMode: 10
      - time: 0.2
        value: 0.022913586
        inSlope: 0
        outSlope: 0
        tangentMode: 10
      - time: 0.23333333
        value: 0.022913586
        inSlope: 0
        outSlope: 0
        tangentMode: 10
      - time: 0.26666668
        value: 0.022913586
        inSlope: 0
        outSlope: 0
        tangentMode: 10
      - time: 0.3
        value: 0.022913586
        inSlope: 0
        outSlope: 0
        tangentMode: 10
      - time: 0.33333334
        value: 0.022913586
        inSlope: 0
        outSlope: 0
        tangentMode: 10
      m_PreInfinity: 2
      m_PostInfinity: 2
      m_RotationOrder: 4
    attribute: m_LocalPosition.y
    path: body/PA_DroneWingRight/PA_DroneBladeRight
    classID: 4
    script: {fileID: 0}
  - curve:
      serializedVersion: 2
      m_Curve:
      - time: 0
        value: -0.030292086
        inSlope: -1.9848632
        outSlope: -1.9848632
        tangentMode: 10
      - time: 0.033333335
        value: -0.096454196
        inSlope: -1.7074585
        outSlope: -1.7074585
        tangentMode: 10
      - time: 0.06666667
        value: -0.14412266
        inSlope: -1.4968873
        outSlope: -1.4968873
        tangentMode: 10
      - time: 0.1
        value: -0.19624668
        inSlope: -1.204834
        outSlope: -1.204834
        tangentMode: 10
      - time: 0.13333334
        value: -0.22444493
        inSlope: -0.41656488
        outSlope: -0.41656488
        tangentMode: 10
      - time: 0.16666667
        value: -0.22401768
        inSlope: 0.36987308
        outSlope: 0.36987308
        tangentMode: 10
      - time: 0.2
        value: -0.19978672
        inSlope: 0.9411622
        outSlope: 0.9411622
        tangentMode: 10
      - time: 0.23333333
        value: -0.16127354
        inSlope: 1.2322998
        outSlope: 1.2322998
        tangentMode: 10
      - time: 0.26666668
        value: -0.117633395
        inSlope: 2.0489502
        outSlope: 2.0489502
        tangentMode: 10
      - time: 0.3
        value: -0.024676852
        inSlope: 2.4032595
        outSlope: 2.4032595
        tangentMode: 10
      - time: 0.33333334
        value: 0.04258389
        inSlope: 2.0178225
        outSlope: 2.0178225
        tangentMode: 10
      m_PreInfinity: 2
      m_PostInfinity: 2
      m_RotationOrder: 4
    attribute: m_LocalPosition.z
    path: body/PA_DroneWingRight/PA_DroneBladeRight
    classID: 4
    script: {fileID: 0}
  m_EulerEditorCurves:
  - curve:
      serializedVersion: 2
      m_Curve: []
      m_PreInfinity: 2
      m_PostInfinity: 2
      m_RotationOrder: 4
    attribute: m_LocalEulerAngles.z
    path: body/PA_DroneWingLeft/PA_DroneBladeLeft
    classID: 4
    script: {fileID: 0}
  - curve:
      serializedVersion: 2
      m_Curve: []
      m_PreInfinity: 2
      m_PostInfinity: 2
      m_RotationOrder: 4
    attribute: m_LocalEulerAngles.y
    path: body/PA_DroneWingLeft/PA_DroneBladeLeft
    classID: 4
    script: {fileID: 0}
  - curve:
      serializedVersion: 2
      m_Curve: []
      m_PreInfinity: 2
      m_PostInfinity: 2
      m_RotationOrder: 4
    attribute: m_LocalEulerAngles.x
    path: body/PA_DroneWingLeft/PA_DroneBladeLeft
    classID: 4
    script: {fileID: 0}
  - curve:
      serializedVersion: 2
      m_Curve: []
      m_PreInfinity: 2
      m_PostInfinity: 2
      m_RotationOrder: 4
    attribute: m_LocalEulerAngles.x
    path: body/PA_DroneWingRight/PA_DroneBladeRight
    classID: 4
    script: {fileID: 0}
  - curve:
      serializedVersion: 2
      m_Curve: []
      m_PreInfinity: 2
      m_PostInfinity: 2
      m_RotationOrder: 4
    attribute: m_LocalEulerAngles.y
    path: body/PA_DroneWingRight/PA_DroneBladeRight
    classID: 4
    script: {fileID: 0}
  - curve:
      serializedVersion: 2
      m_Curve: []
      m_PreInfinity: 2
      m_PostInfinity: 2
      m_RotationOrder: 4
    attribute: m_LocalEulerAngles.z
    path: body/PA_DroneWingRight/PA_DroneBladeRight
    classID: 4
    script: {fileID: 0}
  m_HasGenericRootTransform: 0
  m_HasMotionFloatCurves: 0
  m_GenerateMotionCurves: 0
  m_Events: []
