%YAML 1.1
%TAG !u! tag:unity3d.com,2011:
--- !u!74 &7400000
AnimationClip:
  m_ObjectHideFlags: 0
  m_PrefabParentObject: {fileID: 0}
  m_PrefabInternal: {fileID: 0}
  m_Name: PA_suicide_Count
  serializedVersion: 6
  m_Legacy: 0
  m_Compressed: 0
  m_UseHighQualityCurve: 1
  m_RotationCurves: []
  m_CompressedRotationCurves: []
  m_EulerCurves: []
  m_PositionCurves: []
  m_ScaleCurves:
  - curve:
      serializedVersion: 2
      m_Curve:
      - time: 0
        value: {x: 0.25, y: 0.25, z: 0.25}
        inSlope: {x: 0, y: 0, z: 0}
        outSlope: {x: 0, y: 0, z: 0}
        tangentMode: 0
      - time: 0.6
        value: {x: 0.25, y: 0.25, z: 0.25}
        inSlope: {x: 0, y: 0, z: 0}
        outSlope: {x: 0, y: 0, z: 0}
        tangentMode: 0
      - time: 0.8
        value: {x: 0.37, y: 0.37, z: 0.37}
        inSlope: {x: 0, y: 0, z: 0}
        outSlope: {x: 0, y: 0, z: 0}
        tangentMode: 0
      - time: 1
        value: {x: 0.31, y: 0.31, z: 0.31}
        inSlope: {x: 0, y: 0, z: 0}
        outSlope: {x: 0, y: 0, z: 0}
        tangentMode: 0
      - time: 1.65
        value: {x: 0.31, y: 0.31, z: 0.31}
        inSlope: {x: 0, y: 0, z: 0}
        outSlope: {x: 0, y: 0, z: 0}
        tangentMode: 0
      - time: 1.8333334
        value: {x: 0.44, y: 0.44, z: 0.44}
        inSlope: {x: 0, y: 0, z: 0}
        outSlope: {x: 0, y: 0, z: 0}
        tangentMode: 0
      - time: 1.9833333
        value: {x: 0.4, y: 0.4, z: 0.4}
        inSlope: {x: 0, y: 0, z: 0}
        outSlope: {x: 0, y: 0, z: 0}
        tangentMode: 0
      - time: 2.8333333
        value: {x: 0.4, y: 0.4, z: 0.4}
        inSlope: {x: 0, y: 0, z: 0}
        outSlope: {x: 0, y: 0, z: 0}
        tangentMode: 0
      - time: 3.0666666
        value: {x: 0.55, y: 0.55, z: 0.55}
        inSlope: {x: 0, y: 0, z: 0}
        outSlope: {x: 0, y: 0, z: 0}
        tangentMode: 0
      - time: 5.0333333
        value: {x: 0.55, y: 0.55, z: 0.55}
        inSlope: {x: 0, y: 0, z: 0}
        outSlope: {x: 0, y: 0, z: 0}
        tangentMode: 0
      m_PreInfinity: 2
      m_PostInfinity: 2
      m_RotationOrder: 4
    path: Grenade
  m_FloatCurves: []
  m_PPtrCurves: []
  m_SampleRate: 60
  m_WrapMode: 0
  m_Bounds:
    m_Center: {x: 0, y: 0, z: 0}
    m_Extent: {x: 0, y: 0, z: 0}
  m_ClipBindingConstant:
    genericBindings:
    - path: 2774391341
      attribute: 3
      script: {fileID: 0}
      classID: 4
      customType: 0
      isPPtrCurve: 0
    pptrCurveMapping: []
  m_AnimationClipSettings:
    serializedVersion: 2
    m_AdditiveReferencePoseClip: {fileID: 0}
    m_AdditiveReferencePoseTime: 0
    m_StartTime: 0
    m_StopTime: 5.0333333
    m_OrientationOffsetY: 0
    m_Level: 0
    m_CycleOffset: 0
    m_HasAdditiveReferencePose: 0
    m_LoopTime: 0
    m_LoopBlend: 0
    m_LoopBlendOrientation: 0
    m_LoopBlendPositionY: 0
    m_LoopBlendPositionXZ: 0
    m_KeepOriginalOrientation: 0
    m_KeepOriginalPositionY: 1
    m_KeepOriginalPositionXZ: 0
    m_HeightFromFeet: 0
    m_Mirror: 0
  m_EditorCurves:
  - curve:
      serializedVersion: 2
      m_Curve:
      - time: 0
        value: 0.25
        inSlope: 0
        outSlope: 0
        tangentMode: 0
      - time: 0.6
        value: 0.25
        inSlope: 0
        outSlope: 0
        tangentMode: 0
      - time: 0.8
        value: 0.37
        inSlope: 0
        outSlope: 0
        tangentMode: 0
      - time: 1
        value: 0.31
        inSlope: 0
        outSlope: 0
        tangentMode: 0
      - time: 1.65
        value: 0.31
        inSlope: 0
        outSlope: 0
        tangentMode: 0
      - time: 1.8333334
        value: 0.44
        inSlope: 0
        outSlope: 0
        tangentMode: 0
      - time: 1.9833333
        value: 0.4
        inSlope: 0
        outSlope: 0
        tangentMode: 0
      - time: 2.8333333
        value: 0.4
        inSlope: 0
        outSlope: 0
        tangentMode: 0
      - time: 3.0666666
        value: 0.55
        inSlope: 0
        outSlope: 0
        tangentMode: 0
      - time: 5.0333333
        value: 0.55
        inSlope: 0
        outSlope: 0
        tangentMode: 0
      m_PreInfinity: 2
      m_PostInfinity: 2
      m_RotationOrder: 4
    attribute: m_LocalScale.x
    path: Grenade
    classID: 4
    script: {fileID: 0}
  - curve:
      serializedVersion: 2
      m_Curve:
      - time: 0
        value: 0.25
        inSlope: 0
        outSlope: 0
        tangentMode: 0
      - time: 0.6
        value: 0.25
        inSlope: 0
        outSlope: 0
        tangentMode: 0
      - time: 0.8
        value: 0.37
        inSlope: 0
        outSlope: 0
        tangentMode: 0
      - time: 1
        value: 0.31
        inSlope: 0
        outSlope: 0
        tangentMode: 0
      - time: 1.65
        value: 0.31
        inSlope: 0
        outSlope: 0
        tangentMode: 0
      - time: 1.8333334
        value: 0.44
        inSlope: 0
        outSlope: 0
        tangentMode: 0
      - time: 1.9833333
        value: 0.4
        inSlope: 0
        outSlope: 0
        tangentMode: 0
      - time: 2.8333333
        value: 0.4
        inSlope: 0
        outSlope: 0
        tangentMode: 0
      - time: 3.0666666
        value: 0.55
        inSlope: 0
        outSlope: 0
        tangentMode: 0
      - time: 5.0333333
        value: 0.55
        inSlope: 0
        outSlope: 0
        tangentMode: 0
      m_PreInfinity: 2
      m_PostInfinity: 2
      m_RotationOrder: 4
    attribute: m_LocalScale.y
    path: Grenade
    classID: 4
    script: {fileID: 0}
  - curve:
      serializedVersion: 2
      m_Curve:
      - time: 0
        value: 0.25
        inSlope: 0
        outSlope: 0
        tangentMode: 0
      - time: 0.6
        value: 0.25
        inSlope: 0
        outSlope: 0
        tangentMode: 0
      - time: 0.8
        value: 0.37
        inSlope: 0
        outSlope: 0
        tangentMode: 0
      - time: 1
        value: 0.31
        inSlope: 0
        outSlope: 0
        tangentMode: 0
      - time: 1.65
        value: 0.31
        inSlope: 0
        outSlope: 0
        tangentMode: 0
      - time: 1.8333334
        value: 0.44
        inSlope: 0
        outSlope: 0
        tangentMode: 0
      - time: 1.9833333
        value: 0.4
        inSlope: 0
        outSlope: 0
        tangentMode: 0
      - time: 2.8333333
        value: 0.4
        inSlope: 0
        outSlope: 0
        tangentMode: 0
      - time: 3.0666666
        value: 0.55
        inSlope: 0
        outSlope: 0
        tangentMode: 0
      - time: 5.0333333
        value: 0.55
        inSlope: 0
        outSlope: 0
        tangentMode: 0
      m_PreInfinity: 2
      m_PostInfinity: 2
      m_RotationOrder: 4
    attribute: m_LocalScale.z
    path: Grenade
    classID: 4
    script: {fileID: 0}
  m_EulerEditorCurves: []
  m_HasGenericRootTransform: 0
  m_HasMotionFloatCurves: 0
  m_GenerateMotionCurves: 0
  m_Events:
  - time: 0
    functionName: playOnce
    data: 
    objectReferenceParameter: {fileID: 0}
    floatParameter: 0
    intParameter: 0
    messageOptions: 0
  - time: 3
    functionName: mainBody_explode
    data: 
    objectReferenceParameter: {fileID: 0}
    floatParameter: 0
    intParameter: 0
    messageOptions: 0
