%YAML 1.1
%TAG !u! tag:unity3d.com,2011:
--- !u!21 &2100000
Material:
  serializedVersion: 6
  m_ObjectHideFlags: 0
  m_PrefabParentObject: {fileID: 0}
  m_PrefabInternal: {fileID: 0}
  m_Name: Bush02
  m_Shader: {fileID: 10601, guid: 0000000000000000f000000000000000, type: 0}
  m_ShaderKeywords: 
  m_LightmapFlags: 5
  m_CustomRenderQueue: -1
  stringTagMap: {}
  m_SavedProperties:
    serializedVersion: 2
    m_TexEnvs:
      data:
        first:
          name: _MainTex
        second:
          m_Texture: {fileID: 2800000, guid: 33abc4bc875cbf54c92ae1290d47366b, type: 3}
          m_Scale: {x: 1, y: 1}
          m_Offset: {x: 0, y: 0}
      data:
        first:
          name: _BumpMap
        second:
          m_Texture: {fileID: 2800000, guid: 103cfb297cdb9584bad0e09471736a38, type: 3}
          m_Scale: {x: 1, y: 1}
          m_Offset: {x: 0, y: 0}
      data:
        first:
          name: _TranslucencyMap
        second:
          m_Texture: {fileID: 2800000, guid: 88e9e28d4c4b63345bbef0e32d97ec82, type: 3}
          m_Scale: {x: 1, y: 1}
          m_Offset: {x: 0, y: 0}
      data:
        first:
          name: _GlossMap
        second:
          m_Texture: {fileID: 2800000, guid: d8c07e7582e0ce64ba4fb6047ab47c20, type: 3}
          m_Scale: {x: 1, y: 1}
          m_Offset: {x: 0, y: 0}
      data:
        first:
          name: _ShadowOffset
        second:
          m_Texture: {fileID: 0}
          m_Scale: {x: 1, y: 1}
          m_Offset: {x: 0, y: 0}
    m_Floats:
      data:
        first:
          name: _Cutoff
        second: 0.19642857
      data:
        first:
          name: _Shininess
        second: 0.2981632
      data:
        first:
          name: _Occlusion
        second: 7.5
      data:
        first:
          name: _SquashAmount
        second: 1
      data:
        first:
          name: _TranslucencyViewDependency
        second: 0.5535714
      data:
        first:
          name: _ShadowStrength
        second: 0.4642857
      data:
        first:
          name: _BaseLight
        second: 0.35
      data:
        first:
          name: _AO
        second: 2.4
    m_Colors:
      data:
        first:
          name: _Scale
        second: {r: 1, g: 1, b: 1, a: 1}
      data:
        first:
          name: _Color
        second: {r: 0.89705884, g: 0.89705884, b: 0.89705884, a: 1}
      data:
        first:
          name: _TranslucencyColor
        second: {r: 1, g: 0.93326575, b: 0.6544118, a: 1}
